<?xml version="1.0" encoding="UTF-8" standalone="no"?>
<!-- Created with Inkscape (http://www.inkscape.org/) -->

<svg
   xmlns:dc="http://purl.org/dc/elements/1.1/"
   xmlns:cc="http://creativecommons.org/ns#"
   xmlns:rdf="http://www.w3.org/1999/02/22-rdf-syntax-ns#"
   xmlns:svg="http://www.w3.org/2000/svg"
   xmlns="http://www.w3.org/2000/svg"
   xmlns:sodipodi="http://sodipodi.sourceforge.net/DTD/sodipodi-0.dtd"
   xmlns:inkscape="http://www.inkscape.org/namespaces/inkscape"
   width="800"
   height="400"
   viewBox="0 0 799.99996 399.99999"
   id="svg2"
   version="1.1"
   inkscape:version="0.91 r13725"
   sodipodi:docname="berechnungdeterminante02.svg"
   inkscape:export-filename="/home/kfickel/Dokumente/source/LA-VM/img/falksches_schema.png"
   inkscape:export-xdpi="90"
   inkscape:export-ydpi="90">
  <sodipodi:namedview
     id="base"
     pagecolor="#ffffff"
     bordercolor="#666666"
     borderopacity="1.0"
     inkscape:pageopacity="0.0"
     inkscape:pageshadow="2"
     inkscape:zoom="0.49497475"
     inkscape:cx="431.88736"
     inkscape:cy="204.05231"
     inkscape:document-units="px"
     inkscape:current-layer="layer1"
     showgrid="false"
     inkscape:window-width="1366"
     inkscape:window-height="704"
     inkscape:window-x="0"
     inkscape:window-y="27"
     inkscape:window-maximized="1"
     showguides="true"
     inkscape:guide-bbox="true"
     fit-margin-top="0"
     fit-margin-left="0"
     fit-margin-right="0"
     fit-margin-bottom="0"
     units="px">
    <inkscape:grid
       type="xygrid"
       id="grid4226" />
    <sodipodi:guide
       position="487.90365,62.629456"
       orientation="0,1"
       id="guide4349" />
  </sodipodi:namedview>
  <defs
     id="defs4" />
  <metadata
     id="metadata7">
    <rdf:RDF>
      <cc:Work
         rdf:about="">
        <dc:format>image/svg+xml</dc:format>
        <dc:type
           rdf:resource="http://purl.org/dc/dcmitype/StillImage" />
        <dc:title></dc:title>
      </cc:Work>
    </rdf:RDF>
  </metadata>
  <g
     id="layer1"
     inkscape:groupmode="layer"
     inkscape:label="Ebene 1"
     transform="translate(304.64383,-295.28543)">
    <path
       style="fill:none;fill-rule:evenodd;stroke:#cccccc;stroke-width:3.8654604;stroke-linecap:butt;stroke-linejoin:miter;stroke-miterlimit:4;stroke-dasharray:none;stroke-opacity:1"
       d="M 285.57112,490.25721 104.26262,389.01897 -92.691784,578.6106 Z"
       id="path4232"
       inkscape:connector-curvature="0" />
    <path
       inkscape:connector-curvature="0"
       id="path4230"
       d="M -92.691784,477.37234 88.616724,578.6106 285.57113,389.01896 Z"
       style="fill:none;fill-rule:evenodd;stroke:#cccccc;stroke-width:3.8654604;stroke-linecap:butt;stroke-linejoin:miter;stroke-miterlimit:4;stroke-dasharray:none;stroke-opacity:1" />
    <g
       style="font-style:normal;font-variant:normal;font-weight:normal;font-stretch:normal;letter-spacing:normal;word-spacing:normal;text-anchor:start;fill:none;fill-opacity:1;fill-rule:evenodd;stroke:#000000;stroke-linecap:butt;stroke-linejoin:miter;stroke-miterlimit:10.43299961;stroke-dasharray:none;stroke-dashoffset:0;stroke-opacity:1"
       id="g4209"
       transform="matrix(-1.3696513,0,0,1.3696513,917.71965,213.8086)">
      <path
         style="fill:none;fill-rule:evenodd;stroke:#808080;stroke-width:2.82222223;stroke-linecap:round;stroke-linejoin:miter;stroke-miterlimit:10.43299961;stroke-dasharray:none;stroke-opacity:1"
         d="m 596.71385,267.77576 c -4.95798,-2.43793 -4.10893,-11.36038 -9.06691,-13.79831 -4.95798,-2.43793 -11.63397,3.69206 -16.59169,1.25411 -4.95772,-2.43795 -4.10775,-11.3596 -9.06552,-13.79763 -4.95777,-2.43803 -11.63451,3.69189 -16.59221,1.25385 -4.9577,-2.43804 -4.10749,-11.35949 -9.06513,-13.79744 -4.95764,-2.43795 -11.63383,3.69207 -16.59163,1.25414 -4.9578,-2.43793 -4.10819,-11.35993 -9.06599,-13.79786 -4.9578,-2.43793 -11.63383,3.69206 -16.59162,1.25413 -4.95779,-2.43793 -4.10808,-11.35981 -9.06592,-13.79782 -4.95784,-2.43801 -11.634,3.69189 -16.5921,1.2539 -4.9581,-2.43799 -9.06736,-13.79853 -9.06736,-13.79853"
         id="path4212"
         inkscape:connector-curvature="0"
         sodipodi:nodetypes="czzzzzzzzzzc" />
      <path
         sodipodi:nodetypes="czzzzzzzzzzzzzc"
         inkscape:connector-curvature="0"
         id="path4214"
         d="m 736.44258,123.35847 c -3.83288,3.97902 -0.029,12.20545 -3.86183,16.18434 -3.83284,3.97889 -12.07133,0.45049 -15.90422,4.4294 -3.8329,3.97891 -0.0291,12.20545 -3.86205,16.18458 -3.83296,3.97913 -12.0722,0.45125 -15.90516,4.43039 -3.83295,3.97912 -0.0292,12.20572 -3.86207,16.1846 -3.83289,3.97888 -12.07109,0.45035 -15.90409,4.42926 -3.83298,3.9789 -0.0295,12.20619 -3.86247,16.18501 -3.83298,3.97884 -12.07091,0.45016 -15.90378,4.42895 -3.83288,3.97881 -0.0291,12.2056 -3.86203,16.18456 -3.8329,3.97896 -12.07154,0.45067 -15.90444,4.42964 -3.83291,3.97896 -0.0291,12.20559 -3.86203,16.18454 -3.8329,3.97895 -12.0714,0.45061 -15.90439,4.42959 -3.83299,3.97897 -0.0293,12.2057 -3.86239,16.18492 -3.83306,3.97923 -15.90551,4.43075 -15.90551,4.43075"
         style="fill:none;fill-rule:evenodd;stroke:#808080;stroke-width:2.82222223;stroke-linecap:round;stroke-linejoin:miter;stroke-miterlimit:10.43299961;stroke-dasharray:none;stroke-opacity:1"
         inkscape:transform-center-x="-104.34216"
         inkscape:transform-center-y="109.65066" />
      <path
         sodipodi:nodetypes="czzzzzzzzzzzzzzzzzzzc"
         inkscape:connector-curvature="0"
         id="path4216"
         d="m 737.92971,122.12079 c 0,0 -10.60255,-6.04567 -15.96085,-4.69969 -5.35831,1.34599 -6.39564,10.24846 -11.75394,11.59451 -5.35831,1.346 -10.60268,-6.04565 -15.96099,-4.69964 -5.3583,1.346 -6.39542,10.24827 -11.75389,11.59446 -5.3585,1.34617 -10.60397,-6.04546 -15.96248,-4.69928 -5.35847,1.34616 -6.3956,10.24842 -11.75392,11.59448 -5.35833,1.34603 -10.603,-6.04567 -15.96121,-4.69958 -5.3582,1.34608 -6.39491,10.24817 -11.75315,11.59428 -5.35826,1.3461 -10.60307,-6.04556 -15.96154,-4.69953 -5.35847,1.34606 -6.396,10.24857 -11.75446,11.59461 -5.35847,1.34604 -10.60335,-6.04563 -15.96158,-4.6995 -5.35821,1.34613 -6.39466,10.24803 -11.75295,11.59423 -5.35828,1.34619 -10.60391,-6.04558 -15.96212,-4.69936 -5.35823,1.34621 -6.39441,10.24798 -11.75255,11.59412 -5.35814,1.34611 -10.60321,-6.04562 -15.96151,-4.69953 -5.35829,1.34609 -6.39517,10.24826 -11.75349,11.59433 -5.35828,1.3461 -10.60319,-6.0456 -15.96148,-4.69951 -5.3583,1.3461 -6.39505,10.24817 -11.75338,11.59437 -5.35834,1.34615 -10.6034,-6.04548 -15.96199,-4.6994 -5.35861,1.3461 -11.75493,11.59476 -11.75493,11.59476"
         style="font-style:normal;font-variant:normal;font-weight:normal;font-stretch:normal;letter-spacing:normal;word-spacing:normal;text-anchor:start;fill:none;fill-opacity:1;fill-rule:evenodd;stroke:#808080;stroke-width:2.82222223;stroke-linecap:round;stroke-linejoin:miter;stroke-miterlimit:10.43299961;stroke-dasharray:none;stroke-dashoffset:0;stroke-opacity:1"
         inkscape:transform-center-x="-147.59209"
         inkscape:transform-center-y="39.104544" />
    </g>
    <g
       id="g4218"
       style="font-style:normal;font-variant:normal;font-weight:normal;font-stretch:normal;letter-spacing:normal;word-spacing:normal;text-anchor:start;fill:none;fill-opacity:1;fill-rule:evenodd;stroke:#ffffff;stroke-width:3.76296306;stroke-linecap:butt;stroke-linejoin:miter;stroke-miterlimit:10.43299961;stroke-dasharray:none;stroke-dashoffset:0;stroke-opacity:1"
       transform="matrix(1.3696513,0,0,-1.3696513,-722.14674,741.12625)">
      <path
         style="fill:none;fill-rule:evenodd;stroke:#ffffff;stroke-width:3.76296306;stroke-linecap:round;stroke-linejoin:miter;stroke-miterlimit:10.43299961;stroke-dasharray:none;stroke-opacity:1"
         d="m 596.71385,267.77576 c -4.95798,-2.43793 -4.10893,-11.36038 -9.06691,-13.79831 -4.95798,-2.43793 -11.63397,3.69206 -16.59169,1.25411 -4.95772,-2.43795 -4.10775,-11.3596 -9.06552,-13.79763 -4.95777,-2.43803 -11.63451,3.69189 -16.59221,1.25385 -4.9577,-2.43804 -4.10749,-11.35949 -9.06513,-13.79744 -4.95764,-2.43795 -11.63383,3.69207 -16.59163,1.25414 -4.9578,-2.43793 -4.10819,-11.35993 -9.06599,-13.79786 -4.9578,-2.43793 -11.63383,3.69206 -16.59162,1.25413 -4.95779,-2.43793 -4.10808,-11.35981 -9.06592,-13.79782 -4.95784,-2.43801 -11.634,3.69189 -16.5921,1.2539 -4.9581,-2.43799 -9.06736,-13.79853 -9.06736,-13.79853"
         id="path4220"
         inkscape:connector-curvature="0"
         sodipodi:nodetypes="czzzzzzzzzzc" />
      <path
         sodipodi:nodetypes="czzzzzzzzzzzzzc"
         inkscape:connector-curvature="0"
         id="path4222"
         d="m 736.44258,123.35847 c -3.83288,3.97902 -0.029,12.20545 -3.86183,16.18434 -3.83284,3.97889 -12.07133,0.45049 -15.90422,4.4294 -3.8329,3.97891 -0.0291,12.20545 -3.86205,16.18458 -3.83296,3.97913 -12.0722,0.45125 -15.90516,4.43039 -3.83295,3.97912 -0.0292,12.20572 -3.86207,16.1846 -3.83289,3.97888 -12.07109,0.45035 -15.90409,4.42926 -3.83298,3.9789 -0.0295,12.20619 -3.86247,16.18501 -3.83298,3.97884 -12.07091,0.45016 -15.90378,4.42895 -3.83288,3.97881 -0.0291,12.2056 -3.86203,16.18456 -3.8329,3.97896 -12.07154,0.45067 -15.90444,4.42964 -3.83291,3.97896 -0.0291,12.20559 -3.86203,16.18454 -3.8329,3.97895 -12.0714,0.45061 -15.90439,4.42959 -3.83299,3.97897 -0.0293,12.2057 -3.86239,16.18492 -3.83306,3.97923 -15.90551,4.43075 -15.90551,4.43075"
         style="fill:none;fill-rule:evenodd;stroke:#ffffff;stroke-width:3.76296306;stroke-linecap:round;stroke-linejoin:miter;stroke-miterlimit:10.43299961;stroke-dasharray:none;stroke-opacity:1"
         inkscape:transform-center-x="-104.34216"
         inkscape:transform-center-y="109.65066" />
      <path
         sodipodi:nodetypes="czzzzzzzzzzzzzzzzzzzc"
         inkscape:connector-curvature="0"
         id="path4224"
         d="m 737.92971,122.12079 c 0,0 -10.60255,-6.04567 -15.96085,-4.69969 -5.35831,1.34599 -6.39564,10.24846 -11.75394,11.59451 -5.35831,1.346 -10.60268,-6.04565 -15.96099,-4.69964 -5.3583,1.346 -6.39542,10.24827 -11.75389,11.59446 -5.3585,1.34617 -10.60397,-6.04546 -15.96248,-4.69928 -5.35847,1.34616 -6.3956,10.24842 -11.75392,11.59448 -5.35833,1.34603 -10.603,-6.04567 -15.96121,-4.69958 -5.3582,1.34608 -6.39491,10.24817 -11.75315,11.59428 -5.35826,1.3461 -10.60307,-6.04556 -15.96154,-4.69953 -5.35847,1.34606 -6.396,10.24857 -11.75446,11.59461 -5.35847,1.34604 -10.60335,-6.04563 -15.96158,-4.6995 -5.35821,1.34613 -6.39466,10.24803 -11.75295,11.59423 -5.35828,1.34619 -10.60391,-6.04558 -15.96212,-4.69936 -5.35823,1.34621 -6.39441,10.24798 -11.75255,11.59412 -5.35814,1.34611 -10.60321,-6.04562 -15.96151,-4.69953 -5.35829,1.34609 -6.39517,10.24826 -11.75349,11.59433 -5.35828,1.3461 -10.60319,-6.0456 -15.96148,-4.69951 -5.3583,1.3461 -6.39505,10.24817 -11.75338,11.59437 -5.35834,1.34615 -10.6034,-6.04548 -15.96199,-4.6994 -5.35861,1.3461 -11.75493,11.59476 -11.75493,11.59476"
         style="font-style:normal;font-variant:normal;font-weight:normal;font-stretch:normal;letter-spacing:normal;word-spacing:normal;text-anchor:start;fill:none;fill-opacity:1;fill-rule:evenodd;stroke:#ffffff;stroke-width:3.76296306;stroke-linecap:round;stroke-linejoin:miter;stroke-miterlimit:10.43299961;stroke-dasharray:none;stroke-dashoffset:0;stroke-opacity:1"
         inkscape:transform-center-x="-147.59209"
         inkscape:transform-center-y="39.104544" />
    </g>
    <g
       id="g4204"
       style="font-style:normal;font-variant:normal;font-weight:normal;font-stretch:normal;letter-spacing:normal;word-spacing:normal;text-anchor:start;fill:none;fill-opacity:1;fill-rule:evenodd;stroke:#000000;stroke-linecap:butt;stroke-linejoin:miter;stroke-miterlimit:10.43299961;stroke-dasharray:none;stroke-dashoffset:0;stroke-opacity:1"
       transform="matrix(1.3696513,0,0,-1.3696513,-722.14674,741.12625)">
      <path
         sodipodi:nodetypes="czzzzzzzzzzc"
         inkscape:connector-curvature="0"
         id="path4651"
         d="m 596.71385,267.77576 c -4.95798,-2.43793 -4.10893,-11.36038 -9.06691,-13.79831 -4.95798,-2.43793 -11.63397,3.69206 -16.59169,1.25411 -4.95772,-2.43795 -4.10775,-11.3596 -9.06552,-13.79763 -4.95777,-2.43803 -11.63451,3.69189 -16.59221,1.25385 -4.9577,-2.43804 -4.10749,-11.35949 -9.06513,-13.79744 -4.95764,-2.43795 -11.63383,3.69207 -16.59163,1.25414 -4.9578,-2.43793 -4.10819,-11.35993 -9.06599,-13.79786 -4.9578,-2.43793 -11.63383,3.69206 -16.59162,1.25413 -4.95779,-2.43793 -4.10808,-11.35981 -9.06592,-13.79782 -4.95784,-2.43801 -11.634,3.69189 -16.5921,1.2539 -4.9581,-2.43799 -9.06736,-13.79853 -9.06736,-13.79853"
         style="fill:none;fill-opacity:1;fill-rule:evenodd;stroke:#808080;stroke-width:2.82222223;stroke-linecap:round;stroke-linejoin:miter;stroke-miterlimit:10.43299961;stroke-dasharray:none;stroke-opacity:1" />
      <path
         inkscape:transform-center-y="109.65066"
         inkscape:transform-center-x="-104.34216"
         style="fill:none;fill-rule:evenodd;stroke:#808080;stroke-width:2.82222223;stroke-linecap:round;stroke-linejoin:miter;stroke-miterlimit:10.43299961;stroke-dasharray:none;stroke-opacity:1"
         d="m 736.44258,123.35847 c -3.83288,3.97902 -0.029,12.20545 -3.86183,16.18434 -3.83284,3.97889 -12.07133,0.45049 -15.90422,4.4294 -3.8329,3.97891 -0.0291,12.20545 -3.86205,16.18458 -3.83296,3.97913 -12.0722,0.45125 -15.90516,4.43039 -3.83295,3.97912 -0.0292,12.20572 -3.86207,16.1846 -3.83289,3.97888 -12.07109,0.45035 -15.90409,4.42926 -3.83298,3.9789 -0.0295,12.20619 -3.86247,16.18501 -3.83298,3.97884 -12.07091,0.45016 -15.90378,4.42895 -3.83288,3.97881 -0.0291,12.2056 -3.86203,16.18456 -3.8329,3.97896 -12.07154,0.45067 -15.90444,4.42964 -3.83291,3.97896 -0.0291,12.20559 -3.86203,16.18454 -3.8329,3.97895 -12.0714,0.45061 -15.90439,4.42959 -3.83299,3.97897 -0.0293,12.2057 -3.86239,16.18492 -3.83306,3.97923 -15.90551,4.43075 -15.90551,4.43075"
         id="path4653"
         inkscape:connector-curvature="0"
         sodipodi:nodetypes="czzzzzzzzzzzzzc" />
      <path
         inkscape:transform-center-y="39.104544"
         inkscape:transform-center-x="-147.59209"
         style="font-style:normal;font-variant:normal;font-weight:normal;font-stretch:normal;letter-spacing:normal;word-spacing:normal;text-anchor:start;fill:none;fill-opacity:1;fill-rule:evenodd;stroke:#808080;stroke-width:2.82222223;stroke-linecap:round;stroke-linejoin:miter;stroke-miterlimit:10.43299961;stroke-dasharray:none;stroke-dashoffset:0;stroke-opacity:1"
         d="m 737.92971,122.12079 c 0,0 -10.60255,-6.04567 -15.96085,-4.69969 -5.35831,1.34599 -6.39564,10.24846 -11.75394,11.59451 -5.35831,1.346 -10.60268,-6.04565 -15.96099,-4.69964 -5.3583,1.346 -6.39542,10.24827 -11.75389,11.59446 -5.3585,1.34617 -10.60397,-6.04546 -15.96248,-4.69928 -5.35847,1.34616 -6.3956,10.24842 -11.75392,11.59448 -5.35833,1.34603 -10.603,-6.04567 -15.96121,-4.69958 -5.3582,1.34608 -6.39491,10.24817 -11.75315,11.59428 -5.35826,1.3461 -10.60307,-6.04556 -15.96154,-4.69953 -5.35847,1.34606 -6.396,10.24857 -11.75446,11.59461 -5.35847,1.34604 -10.60335,-6.04563 -15.96158,-4.6995 -5.35821,1.34613 -6.39466,10.24803 -11.75295,11.59423 -5.35828,1.34619 -10.60391,-6.04558 -15.96212,-4.69936 -5.35823,1.34621 -6.39441,10.24798 -11.75255,11.59412 -5.35814,1.34611 -10.60321,-6.04562 -15.96151,-4.69953 -5.35829,1.34609 -6.39517,10.24826 -11.75349,11.59433 -5.35828,1.3461 -10.60319,-6.0456 -15.96148,-4.69951 -5.3583,1.3461 -6.39505,10.24817 -11.75338,11.59437 -5.35834,1.34615 -10.6034,-6.04548 -15.96199,-4.6994 -5.35861,1.3461 -11.75493,11.59476 -11.75493,11.59476"
         id="path4545-9"
         inkscape:connector-curvature="0"
         sodipodi:nodetypes="czzzzzzzzzzzzzzzzzzzc" />
    </g>
    <path
       style="font-style:normal;font-variant:normal;font-weight:normal;font-stretch:normal;letter-spacing:normal;word-spacing:normal;text-anchor:start;fill:none;fill-opacity:1;fill-rule:evenodd;stroke:#cccccc;stroke-width:3.8654604;stroke-linecap:butt;stroke-linejoin:miter;stroke-miterlimit:10.43299961;stroke-dasharray:none;stroke-dashoffset:0;stroke-opacity:1"
       d="M -80.47028,385.77568 270.95316,557.58271"
       id="path4535"
       inkscape:connector-curvature="0" />
    <path
       style="font-style:normal;font-variant:normal;font-weight:normal;font-stretch:normal;letter-spacing:normal;word-spacing:normal;text-anchor:start;fill:none;fill-opacity:1;fill-rule:evenodd;stroke:#ffffff;stroke-width:5.15394735;stroke-linecap:round;stroke-linejoin:miter;stroke-miterlimit:10.43299961;stroke-dasharray:none;stroke-dashoffset:0;stroke-opacity:1"
       d="m 283.83823,388.35266 c 0,0 -15.93342,-5.05711 -22.72392,-1.71814 -6.79048,3.33898 -5.62736,15.55955 -12.41787,18.89856 -6.79052,3.33901 -15.9336,-5.05705 -22.7241,-1.71803 -6.7905,3.33901 -5.6271,15.55923 -12.41779,18.89851 -6.7907,3.33929 -15.93527,-5.05642 -22.72596,-1.71713 -6.79068,3.3393 -5.62732,15.55949 -12.41784,18.89855 -6.79053,3.33906 -15.93403,-5.05698 -22.72438,-1.7179 -6.79034,3.33907 -5.62647,15.55894 -12.41684,18.89807 -6.79039,3.33912 -15.93409,-5.05683 -22.7248,-1.71771 -6.7907,3.33911 -5.6278,15.55975 -12.4185,18.89887 -6.79071,3.33911 -15.934484,-5.05684 -22.724832,-1.7177 -6.790348,3.33915 -5.626185,15.5587 -12.416602,18.89795 -6.790416,3.33925 -15.935226,-5.0566 -22.725538,-1.71734 -6.790326,3.33927 -5.62583,15.55854 -12.416065,18.89768 -6.790249,3.33914 -15.934292,-5.05685 -22.724759,-1.71773 -6.7904545,3.33911 -5.6267834,15.55914 -12.4172378,18.89826 -6.7904544,3.33911 -15.9342912,-5.05684 -22.7247332,-1.71772 -6.790441,3.33911 -5.626641,15.55898 -12.417147,18.89819 -6.790519,3.33923 -15.934523,-5.0566 -22.725403,-1.71739 -6.790867,3.33919 -12.419119,18.89916 -12.419119,18.89916"
       id="path4228"
       inkscape:connector-curvature="0"
       sodipodi:nodetypes="czzzzzzzzzzzzzzzzzzzc" />
    <path
       sodipodi:nodetypes="czzzzzzzzzzzzzzzzzzzc"
       inkscape:connector-curvature="0"
       id="path4545"
       d="m 283.83823,388.35266 c 0,0 -15.93342,-5.05711 -22.72392,-1.71814 -6.79048,3.33898 -5.62736,15.55955 -12.41787,18.89856 -6.79052,3.33901 -15.9336,-5.05705 -22.7241,-1.71803 -6.7905,3.33901 -5.6271,15.55923 -12.41779,18.89851 -6.7907,3.33929 -15.93527,-5.05642 -22.72596,-1.71713 -6.79068,3.3393 -5.62732,15.55949 -12.41784,18.89855 -6.79053,3.33906 -15.93403,-5.05698 -22.72438,-1.7179 -6.79034,3.33907 -5.62647,15.55894 -12.41684,18.89807 -6.79039,3.33912 -15.93409,-5.05683 -22.7248,-1.71771 -6.7907,3.33911 -5.6278,15.55975 -12.4185,18.89887 -6.79071,3.33911 -15.934484,-5.05684 -22.724832,-1.7177 -6.790348,3.33915 -5.626185,15.5587 -12.416602,18.89795 -6.790416,3.33925 -15.935226,-5.0566 -22.725538,-1.71734 -6.790326,3.33927 -5.62583,15.55854 -12.416065,18.89768 -6.790249,3.33914 -15.934292,-5.05685 -22.724759,-1.71773 -6.7904545,3.33911 -5.6267834,15.55914 -12.4172378,18.89826 -6.7904544,3.33911 -15.9342912,-5.05684 -22.7247332,-1.71772 -6.790441,3.33911 -5.626641,15.55898 -12.417147,18.89819 -6.790519,3.33923 -15.934523,-5.0566 -22.725403,-1.71739 -6.790867,3.33919 -12.419119,18.89916 -12.419119,18.89916"
       style="font-style:normal;font-variant:normal;font-weight:normal;font-stretch:normal;letter-spacing:normal;word-spacing:normal;text-anchor:start;fill:none;fill-opacity:1;fill-rule:evenodd;stroke:#808080;stroke-width:3.8654604;stroke-linecap:round;stroke-linejoin:miter;stroke-miterlimit:10.43299961;stroke-dasharray:none;stroke-dashoffset:0;stroke-opacity:1" />
    <g
       id="g4171"
       transform="matrix(2.7001013,0,0,2.7001013,-1548.0799,-678.39447)"
       style="font-style:normal;font-variant:normal;font-weight:normal;font-stretch:normal;letter-spacing:normal;word-spacing:normal;text-anchor:start;fill:none;fill-opacity:1;fill-rule:evenodd;stroke:#000000;stroke-width:0.50725925;stroke-linecap:butt;stroke-linejoin:miter;stroke-miterlimit:10.43299961;stroke-dasharray:none;stroke-dashoffset:0;stroke-opacity:1">
      <g
         id="g4173"
         transform="matrix(0.57142857,0,0,-0.57142857,-100,600)"
         xml:space="preserve"
         stroke-miterlimit="10.433"
         font-style="normal"
         font-variant="normal"
         font-weight="normal"
         font-stretch="normal"
         font-size-adjust="none"
         letter-spacing="normal"
         word-spacing="normal"
         style="font-style:normal;font-variant:normal;font-weight:normal;font-stretch:normal;letter-spacing:normal;word-spacing:normal;text-anchor:start;fill:none;fill-opacity:1;fill-rule:evenodd;stroke:#000000;stroke-width:0.50725925;stroke-linecap:butt;stroke-linejoin:miter;stroke-miterlimit:10.43299961;stroke-dasharray:none;stroke-dashoffset:0;stroke-opacity:1"><polygon
           points="1074,311.55 1074,397.74 1087.2,397.74 1087.2,401.18 1070.6,401.18 1070.6,311.55 "
           id="polygon4175"
           style="fill:#000000;stroke-width:0" /><polygon
           points="1087.2,221.84 1087.2,225.28 1074,225.28 1074,311.48 1070.6,311.48 1070.6,221.84 "
           id="polygon4177"
           style="fill:#000000;stroke-width:0" /><path
           d="m 1106.1,378.23 0,0.17 -0.1,0.17 -0.1,0.16 -0.1,0.16 -0.1,0.16 -0.1,0.16 -0.1,0.15 -0.1,0.14 -0.2,0.14 -0.1,0.14 -0.1,0.14 -0.1,0.13 -0.1,0.12 -0.2,0.12 -0.1,0.11 -0.1,0.11 -0.2,0.11 -0.1,0.09 -0.2,0.1 -0.1,0.08 -0.2,0.08 -0.2,0.08 -0.1,0.06 -0.2,0.07 -0.2,0.05 -0.2,0.05 -0.2,0.04 -0.1,0.03 -0.2,0.03 -0.2,0.02 -0.2,0.01 -0.2,0 0,-1.09 c 3.2,0 3.9,-4.08 3.9,-4.37 0,-0.32 -0.1,-0.61 -0.1,-0.86 l -2.5,-9.77 c -0.2,-0.89 -0.2,-0.98 -1,-1.84 -2.2,-2.74 -4.2,-3.53 -5.6,-3.53 -2.5,0 -3.2,2.73 -3.2,4.68 0,2.49 1.6,8.61 2.7,10.91 1.6,2.94 3.8,4.78 5.8,4.78 l 0,1.09 c -5.9,0 -12,-7.31 -12,-14.59 0,-4.69 2.7,-7.97 6.6,-7.97 1,0 3.5,0.2 6.5,3.74 0.4,-2.1 2.1,-3.74 4.5,-3.74 1.7,0 2.9,1.14 3.7,2.74 0.8,1.79 1.5,4.84 1.5,4.93 0,0.5 -0.5,0.5 -0.6,0.5 -0.5,0 -0.6,-0.2 -0.7,-0.9 -0.9,-3.24 -1.8,-6.17 -3.8,-6.17 -1.4,0 -1.5,1.29 -1.5,2.29 0,1.1 0.1,1.49 0.6,3.69 0.6,2.09 0.7,2.59 1.1,4.48 l 1.8,6.97 c 0.4,1.39 0.4,1.5 0.4,1.69 0,0.86 -0.6,1.36 -1.5,1.36 -1.2,0 -1.9,-1.11 -2.1,-2.2 z"
           id="path4179"
           inkscape:connector-curvature="0"
           style="fill:#000000;stroke-width:0" /><path
           d="m 1125.5,374 0,0.04 0,0.04 0,0.04 0,0.04 0,0.04 0,0.04 0,0.04 0,0.03 0,0.04 0,0.03 0,0.03 0,0.03 0,0.03 0,0.03 0,0.03 0,0.02 0,0.03 0,0.02 0,0.02 0,0.03 0,0.04 -0.1,0.04 0,0.03 0,0.03 0,0.03 0,0.03 -0.1,0.02 0,0.02 0,0.01 -0.1,0.02 0,0.01 -0.1,0.01 0,0.01 0,0 0,0.01 -0.1,0 0,0 0,0.01 0,0 -0.1,0 0,0 0,0 -0.1,0.01 0,0 0,0 -0.1,0 0,0 -0.1,0 0,0 0,0 -0.1,0 0,0 c -2.3,-2.2 -5.4,-2.23 -6.9,-2.23 l 0,-1.25 c 0.9,0 3.2,0 5.1,0.96 l 0,-17.76 c 0,-1.16 0,-1.61 -3.5,-1.61 l -1.3,0 0,-1.25 c 0.6,0.03 4.9,0.14 6.2,0.14 1.1,0 5.5,-0.11 6.2,-0.14 l 0,1.25 -1.3,0 c -3.5,0 -3.5,0.45 -3.5,1.61 z"
           id="path4181"
           inkscape:connector-curvature="0"
           style="fill:#000000;stroke-width:0" /><path
           d="m 1145.3,374 0,0.04 0,0.04 0,0.04 0,0.04 0,0.04 0,0.04 0,0.04 0,0.03 0,0.04 0,0.03 0,0.03 0,0.03 0,0.03 0,0.03 0,0.03 0,0.02 0,0.03 0,0.02 0,0.02 0,0.03 0,0.04 -0.1,0.04 0,0.03 0,0.03 0,0.03 0,0.03 -0.1,0.02 0,0.02 0,0.01 -0.1,0.02 0,0.01 -0.1,0.01 0,0.01 0,0 0,0.01 -0.1,0 0,0 0,0.01 0,0 -0.1,0 0,0 0,0 -0.1,0.01 0,0 0,0 -0.1,0 0,0 -0.1,0 0,0 0,0 -0.1,0 0,0 c -2.3,-2.2 -5.4,-2.23 -6.9,-2.23 l 0,-1.25 c 0.9,0 3.2,0 5.1,0.96 l 0,-17.76 c 0,-1.16 0,-1.61 -3.5,-1.61 l -1.3,0 0,-1.25 c 0.6,0.03 4.9,0.14 6.2,0.14 1.1,0 5.5,-0.11 6.2,-0.14 l 0,1.25 -1.3,0 c -3.5,0 -3.5,0.45 -3.5,1.61 z"
           id="path4183"
           inkscape:connector-curvature="0"
           style="fill:#000000;stroke-width:0" /><path
           d="m 1224.5,378.23 -0.1,0.17 -0.1,0.17 -0.1,0.16 -0.1,0.16 -0.1,0.16 -0.1,0.16 -0.1,0.15 -0.1,0.14 -0.1,0.14 -0.1,0.14 -0.2,0.14 -0.1,0.13 -0.1,0.12 -0.2,0.12 -0.1,0.11 -0.1,0.11 -0.2,0.11 -0.1,0.09 -0.2,0.1 -0.1,0.08 -0.2,0.08 -0.1,0.08 -0.2,0.06 -0.2,0.07 -0.2,0.05 -0.1,0.05 -0.2,0.04 -0.2,0.03 -0.2,0.03 -0.2,0.02 -0.2,0.01 -0.2,0 0,-1.09 c 3.3,0 4,-4.08 4,-4.37 0,-0.32 -0.1,-0.61 -0.2,-0.86 l -2.5,-9.77 c -0.2,-0.89 -0.2,-0.98 -1,-1.84 -2.2,-2.74 -4.2,-3.53 -5.6,-3.53 -2.5,0 -3.2,2.73 -3.2,4.68 0,2.49 1.6,8.61 2.7,10.91 1.6,2.94 3.8,4.78 5.8,4.78 l 0,1.09 c -5.8,0 -12,-7.31 -12,-14.59 0,-4.69 2.7,-7.97 6.6,-7.97 1,0 3.5,0.2 6.5,3.74 0.4,-2.1 2.1,-3.74 4.5,-3.74 1.7,0 2.9,1.14 3.7,2.74 0.8,1.79 1.5,4.84 1.5,4.93 0,0.5 -0.5,0.5 -0.6,0.5 -0.5,0 -0.5,-0.2 -0.7,-0.9 -0.8,-3.24 -1.8,-6.17 -3.8,-6.17 -1.3,0 -1.5,1.29 -1.5,2.29 0,1.1 0.1,1.49 0.7,3.69 0.5,2.09 0.6,2.59 1.1,4.48 l 1.7,6.97 c 0.4,1.39 0.4,1.5 0.4,1.69 0,0.86 -0.6,1.36 -1.4,1.36 -1.2,0 -2,-1.11 -2.1,-2.2 z"
           id="path4185"
           inkscape:connector-curvature="0"
           style="fill:#000000;stroke-width:0" /><path
           d="m 1243.8,374 0,0.04 0,0.04 0,0.04 0,0.04 0,0.04 0,0.04 0,0.04 0,0.03 0,0.04 0,0.03 0,0.03 0,0.03 0,0.03 0,0.03 0,0.03 0,0.02 0,0.03 0,0.02 0,0.02 0,0.03 0,0.04 0,0.04 -0.1,0.03 0,0.03 0,0.03 0,0.03 0,0.02 -0.1,0.02 0,0.01 -0.1,0.02 0,0.01 0,0.01 -0.1,0.01 0,0 0,0.01 0,0 -0.1,0 0,0.01 0,0 -0.1,0 0,0 0,0 0,0.01 -0.1,0 0,0 -0.1,0 0,0 0,0 -0.1,0 0,0 -0.1,0 0,0 c -2.2,-2.2 -5.4,-2.23 -6.8,-2.23 l 0,-1.25 c 0.8,0 3.1,0 5,0.96 l 0,-17.76 c 0,-1.16 0,-1.61 -3.5,-1.61 l -1.3,0 0,-1.25 c 0.6,0.03 4.9,0.14 6.2,0.14 1.1,0 5.5,-0.11 6.2,-0.14 l 0,1.25 -1.3,0 c -3.5,0 -3.5,0.45 -3.5,1.61 z"
           id="path4187"
           inkscape:connector-curvature="0"
           style="fill:#000000;stroke-width:0" /><path
           d="m 1269.6,358.18 -1.2,0 c -0.1,-0.76 -0.5,-2.82 -0.9,-3.17 -0.3,-0.2 -3,-0.2 -3.5,-0.2 l -6.4,0 c 3.6,3.23 4.9,4.2 7,5.84 2.5,2.06 5,4.22 5,7.53 0,4.22 -3.7,6.8 -8.2,6.8 -4.3,0 -7.3,-3.03 -7.3,-6.23 0,-1.79 1.5,-1.96 1.9,-1.96 0.8,0 1.8,0.6 1.8,1.85 0,0.62 -0.2,1.84 -2,1.84 1.1,2.47 3.4,3.23 5.1,3.23 3.5,0 5.3,-2.7 5.3,-5.53 0,-3.03 -2.2,-5.43 -3.3,-6.68 l -8.4,-8.3 c -0.4,-0.31 -0.4,-0.39 -0.4,-1.36 l 14.4,0 z"
           id="path4189"
           inkscape:connector-curvature="0"
           style="fill:#000000;stroke-width:0" /><path
           d="m 1342.8,378.23 -0.1,0.17 -0.1,0.17 -0.1,0.16 -0.1,0.16 -0.1,0.16 -0.1,0.16 -0.1,0.15 -0.1,0.14 -0.1,0.14 -0.1,0.14 -0.1,0.14 -0.2,0.13 -0.1,0.12 -0.1,0.12 -0.2,0.11 -0.1,0.11 -0.2,0.11 -0.1,0.09 -0.1,0.1 -0.2,0.08 -0.2,0.08 -0.1,0.08 -0.2,0.06 -0.2,0.07 -0.1,0.05 -0.2,0.05 -0.2,0.04 -0.2,0.03 -0.2,0.03 -0.2,0.02 -0.2,0.01 -0.2,0 0,-1.09 c 3.3,0 4,-4.08 4,-4.37 0,-0.32 -0.1,-0.61 -0.2,-0.86 l -2.5,-9.77 c -0.2,-0.89 -0.2,-0.98 -1,-1.84 -2.1,-2.74 -4.2,-3.53 -5.6,-3.53 -2.5,0 -3.2,2.73 -3.2,4.68 0,2.49 1.6,8.61 2.8,10.91 1.5,2.94 3.8,4.78 5.7,4.78 l 0,1.09 c -5.8,0 -12,-7.31 -12,-14.59 0,-4.69 2.7,-7.97 6.6,-7.97 1,0 3.5,0.2 6.5,3.74 0.4,-2.1 2.1,-3.74 4.5,-3.74 1.8,0 2.9,1.14 3.7,2.74 0.9,1.79 1.5,4.84 1.5,4.93 0,0.5 -0.4,0.5 -0.6,0.5 -0.5,0 -0.5,-0.2 -0.7,-0.9 -0.8,-3.24 -1.7,-6.17 -3.8,-6.17 -1.3,0 -1.5,1.29 -1.5,2.29 0,1.1 0.1,1.49 0.7,3.69 0.5,2.09 0.6,2.59 1.1,4.48 l 1.8,6.97 c 0.3,1.39 0.3,1.5 0.3,1.69 0,0.86 -0.6,1.36 -1.4,1.36 -1.2,0 -2,-1.11 -2.1,-2.2 z"
           id="path4191"
           inkscape:connector-curvature="0"
           style="fill:#000000;stroke-width:0" /><path
           d="m 1362.2,374 -0.1,0.04 0,0.04 0,0.04 0,0.04 0,0.04 0,0.04 0,0.04 0,0.03 0,0.04 0,0.03 0,0.03 0,0.03 0,0.03 0,0.03 0,0.03 0,0.02 0,0.03 0,0.02 0,0.02 0,0.03 0,0.04 0,0.04 0,0.03 -0.1,0.03 0,0.03 0,0.03 0,0.02 -0.1,0.02 0,0.01 0,0.02 -0.1,0.01 0,0.01 0,0.01 -0.1,0 0,0.01 0,0 0,0 -0.1,0.01 0,0 0,0 -0.1,0 0,0 0,0.01 -0.1,0 0,0 0,0 -0.1,0 0,0 -0.1,0 0,0 0,0 -0.1,0 c -2.2,-2.2 -5.4,-2.23 -6.8,-2.23 l 0,-1.25 c 0.8,0 3.1,0 5,0.96 l 0,-17.76 c 0,-1.16 0,-1.61 -3.5,-1.61 l -1.3,0 0,-1.25 c 0.7,0.03 4.9,0.14 6.2,0.14 1.1,0 5.5,-0.11 6.3,-0.14 l 0,1.25 -1.4,0 c -3.4,0 -3.4,0.45 -3.4,1.61 z"
           id="path4193"
           inkscape:connector-curvature="0"
           style="fill:#000000;stroke-width:0" /><path
           d="m 1379.8,363.48 0.2,-0.01 0.3,-0.01 0.2,-0.03 0.3,-0.04 0.2,-0.05 0.2,-0.06 0.3,-0.07 0.2,-0.08 0.2,-0.1 0.2,-0.1 0.2,-0.12 0.2,-0.12 0.1,-0.14 0.2,-0.15 0.2,-0.16 0.1,-0.17 0.2,-0.18 0.1,-0.19 0.2,-0.21 0.1,-0.21 0.1,-0.22 0.1,-0.24 0.1,-0.25 0.1,-0.25 0.1,-0.27 0.1,-0.28 0,-0.29 0.1,-0.3 0,-0.31 0,-0.32 0.1,-0.34 0,-0.34 c 0,-4.33 -2.6,-5.61 -4.6,-5.61 -1.4,0 -4.4,0.38 -5.9,2.44 1.6,0.06 2,1.22 2,1.95 0,1.11 -0.8,1.91 -1.9,1.91 -1,0 -1.9,-0.6 -1.9,-2.02 0,-3.28 3.6,-5.4 7.8,-5.4 4.8,0 8.2,3.25 8.2,6.73 0,2.72 -2.2,5.44 -6.1,6.24 3.7,1.32 5,3.93 5,6.06 0,2.75 -3.2,4.81 -7,4.81 -3.9,0 -6.9,-1.89 -6.9,-4.67 0,-1.19 0.8,-1.85 1.9,-1.85 1,0 1.7,0.8 1.7,1.77 0,1.02 -0.7,1.75 -1.7,1.81 1.2,1.55 3.6,1.92 4.9,1.92 1.5,0 3.7,-0.76 3.7,-3.79 0,-1.47 -0.5,-3.06 -1.4,-4.14 -1.1,-1.33 -2.1,-1.41 -3.8,-1.5 -0.9,-0.08 -1,-0.08 -1.1,-0.11 -0.1,0 -0.4,-0.06 -0.4,-0.46 0,-0.48 0.3,-0.48 0.9,-0.48 z"
           id="path4195"
           inkscape:connector-curvature="0"
           style="fill:#000000;stroke-width:0" /><path
           d="m 1106.1,318.35 0,0.17 -0.1,0.17 -0.1,0.16 -0.1,0.16 -0.1,0.16 -0.1,0.16 -0.1,0.15 -0.1,0.14 -0.2,0.15 -0.1,0.13 -0.1,0.14 -0.1,0.13 -0.1,0.12 -0.2,0.12 -0.1,0.11 -0.1,0.11 -0.2,0.11 -0.1,0.09 -0.2,0.1 -0.1,0.08 -0.2,0.08 -0.2,0.08 -0.1,0.06 -0.2,0.07 -0.2,0.05 -0.2,0.05 -0.2,0.04 -0.1,0.03 -0.2,0.03 -0.2,0.02 -0.2,0.01 -0.2,0.01 0,-1.1 c 3.2,0 3.9,-4.08 3.9,-4.37 0,-0.32 -0.1,-0.61 -0.1,-0.86 l -2.5,-9.77 c -0.2,-0.89 -0.2,-0.98 -1,-1.84 -2.2,-2.74 -4.2,-3.53 -5.6,-3.53 -2.5,0 -3.2,2.73 -3.2,4.68 0,2.49 1.6,8.61 2.7,10.91 1.6,2.94 3.8,4.78 5.8,4.78 l 0,1.1 c -5.9,0 -12,-7.32 -12,-14.6 0,-4.69 2.7,-7.97 6.6,-7.97 1,0 3.5,0.21 6.5,3.74 0.4,-2.1 2.1,-3.74 4.5,-3.74 1.7,0 2.9,1.14 3.7,2.74 0.8,1.79 1.5,4.84 1.5,4.93 0,0.5 -0.5,0.5 -0.6,0.5 -0.5,0 -0.6,-0.2 -0.7,-0.9 -0.9,-3.24 -1.8,-6.17 -3.8,-6.17 -1.4,0 -1.5,1.29 -1.5,2.29 0,1.1 0.1,1.49 0.6,3.69 0.6,2.09 0.7,2.59 1.1,4.49 l 1.8,6.96 c 0.4,1.39 0.4,1.5 0.4,1.69 0,0.86 -0.6,1.36 -1.5,1.36 -1.2,0 -1.9,-1.11 -2.1,-2.2 z"
           id="path4197"
           inkscape:connector-curvature="0"
           style="fill:#000000;stroke-width:0" /><path
           d="m 1131.4,298.42 -1.2,0 c 0,-0.76 -0.4,-2.83 -0.9,-3.17 -0.2,-0.2 -2.9,-0.2 -3.4,-0.2 l -6.4,0 c 3.6,3.23 4.9,4.2 6.9,5.84 2.6,2.06 5,4.22 5,7.53 0,4.22 -3.6,6.8 -8.1,6.8 -4.3,0 -7.3,-3.03 -7.3,-6.24 0,-1.78 1.5,-1.95 1.9,-1.95 0.8,0 1.8,0.59 1.8,1.85 0,0.62 -0.2,1.84 -2,1.84 1.1,2.47 3.4,3.23 5.1,3.23 3.4,0 5.3,-2.7 5.3,-5.53 0,-3.03 -2.2,-5.44 -3.3,-6.69 l -8.4,-8.29 c -0.4,-0.32 -0.4,-0.39 -0.4,-1.36 l 14.4,0 z"
           id="path4199"
           inkscape:connector-curvature="0"
           style="fill:#000000;stroke-width:0" /><path
           d="m 1145.3,314.23 0,0.05 0,0.04 0,0.04 0,0.04 0,0.04 0,0.04 0,0.04 0,0.03 0,0.03 0,0.04 0,0.03 0,0.03 0,0.03 0,0.03 0,0.02 0,0.03 0,0.03 0,0.02 0,0.02 0,0.03 0,0.04 -0.1,0.03 0,0.04 0,0.03 0,0.03 0,0.02 -0.1,0.03 0,0.02 0,0.01 -0.1,0.02 0,0.01 -0.1,0.01 0,0.01 0,0 0,0.01 -0.1,0 0,0 0,0.01 0,0 -0.1,0 0,0 0,0 -0.1,0 0,0.01 0,0 -0.1,0 0,0 -0.1,0 0,0 0,0 -0.1,0 0,0 c -2.3,-2.2 -5.4,-2.24 -6.9,-2.24 l 0,-1.25 c 0.9,0 3.2,0 5.1,0.97 l 0,-17.76 c 0,-1.16 0,-1.61 -3.5,-1.61 l -1.3,0 0,-1.25 c 0.6,0.03 4.9,0.14 6.2,0.14 1.1,0 5.5,-0.11 6.2,-0.14 l 0,1.25 -1.3,0 c -3.5,0 -3.5,0.45 -3.5,1.61 z"
           id="path4201"
           inkscape:connector-curvature="0"
           style="fill:#000000;stroke-width:0" /><path
           d="m 1224.5,318.35 -0.1,0.17 -0.1,0.17 -0.1,0.16 -0.1,0.16 -0.1,0.16 -0.1,0.16 -0.1,0.15 -0.1,0.14 -0.1,0.15 -0.1,0.13 -0.2,0.14 -0.1,0.13 -0.1,0.12 -0.2,0.12 -0.1,0.11 -0.1,0.11 -0.2,0.11 -0.1,0.09 -0.2,0.1 -0.1,0.08 -0.2,0.08 -0.1,0.08 -0.2,0.06 -0.2,0.07 -0.2,0.05 -0.1,0.05 -0.2,0.04 -0.2,0.03 -0.2,0.03 -0.2,0.02 -0.2,0.01 -0.2,0.01 0,-1.1 c 3.3,0 4,-4.08 4,-4.37 0,-0.32 -0.1,-0.61 -0.2,-0.86 l -2.5,-9.77 c -0.2,-0.89 -0.2,-0.98 -1,-1.84 -2.2,-2.74 -4.2,-3.53 -5.6,-3.53 -2.5,0 -3.2,2.73 -3.2,4.68 0,2.49 1.6,8.61 2.7,10.91 1.6,2.94 3.8,4.78 5.8,4.78 l 0,1.1 c -5.8,0 -12,-7.32 -12,-14.6 0,-4.69 2.7,-7.97 6.6,-7.97 1,0 3.5,0.21 6.5,3.74 0.4,-2.1 2.1,-3.74 4.5,-3.74 1.7,0 2.9,1.14 3.7,2.74 0.8,1.79 1.5,4.84 1.5,4.93 0,0.5 -0.5,0.5 -0.6,0.5 -0.5,0 -0.5,-0.2 -0.7,-0.9 -0.8,-3.24 -1.8,-6.17 -3.8,-6.17 -1.3,0 -1.5,1.29 -1.5,2.29 0,1.1 0.1,1.49 0.7,3.69 0.5,2.09 0.6,2.59 1.1,4.49 l 1.7,6.96 c 0.4,1.39 0.4,1.5 0.4,1.69 0,0.86 -0.6,1.36 -1.4,1.36 -1.2,0 -2,-1.11 -2.1,-2.2 z"
           id="path4203"
           inkscape:connector-curvature="0"
           style="fill:#000000;stroke-width:0" /><path
           d="m 1249.8,298.42 -1.2,0 c -0.1,-0.76 -0.5,-2.83 -0.9,-3.17 -0.3,-0.2 -3,-0.2 -3.5,-0.2 l -6.4,0 c 3.7,3.23 4.9,4.2 7,5.84 2.5,2.06 5,4.22 5,7.53 0,4.22 -3.7,6.8 -8.2,6.8 -4.3,0 -7.3,-3.03 -7.3,-6.24 0,-1.78 1.5,-1.95 1.9,-1.95 0.8,0 1.9,0.59 1.9,1.85 0,0.62 -0.3,1.84 -2.1,1.84 1.1,2.47 3.4,3.23 5.1,3.23 3.5,0 5.3,-2.7 5.3,-5.53 0,-3.03 -2.2,-5.44 -3.3,-6.69 l -8.4,-8.29 c -0.4,-0.32 -0.4,-0.39 -0.4,-1.36 l 14.4,0 z"
           id="path4205"
           inkscape:connector-curvature="0"
           style="fill:#000000;stroke-width:0" /><path
           d="m 1269.6,298.42 -1.2,0 c -0.1,-0.76 -0.5,-2.83 -0.9,-3.17 -0.3,-0.2 -3,-0.2 -3.5,-0.2 l -6.4,0 c 3.6,3.23 4.9,4.2 7,5.84 2.5,2.06 5,4.22 5,7.53 0,4.22 -3.7,6.8 -8.2,6.8 -4.3,0 -7.3,-3.03 -7.3,-6.24 0,-1.78 1.5,-1.95 1.9,-1.95 0.8,0 1.8,0.59 1.8,1.85 0,0.62 -0.2,1.84 -2,1.84 1.1,2.47 3.4,3.23 5.1,3.23 3.5,0 5.3,-2.7 5.3,-5.53 0,-3.03 -2.2,-5.44 -3.3,-6.69 l -8.4,-8.29 c -0.4,-0.32 -0.4,-0.39 -0.4,-1.36 l 14.4,0 z"
           id="path4207"
           inkscape:connector-curvature="0"
           style="fill:#000000;stroke-width:0" /><path
           d="m 1342.8,318.35 -0.1,0.17 -0.1,0.17 -0.1,0.16 -0.1,0.16 -0.1,0.16 -0.1,0.16 -0.1,0.15 -0.1,0.14 -0.1,0.15 -0.1,0.13 -0.1,0.14 -0.2,0.13 -0.1,0.12 -0.1,0.12 -0.2,0.11 -0.1,0.11 -0.2,0.11 -0.1,0.09 -0.1,0.1 -0.2,0.08 -0.2,0.08 -0.1,0.08 -0.2,0.06 -0.2,0.07 -0.1,0.05 -0.2,0.05 -0.2,0.04 -0.2,0.03 -0.2,0.03 -0.2,0.02 -0.2,0.01 -0.2,0.01 0,-1.1 c 3.3,0 4,-4.08 4,-4.37 0,-0.32 -0.1,-0.61 -0.2,-0.86 l -2.5,-9.77 c -0.2,-0.89 -0.2,-0.98 -1,-1.84 -2.1,-2.74 -4.2,-3.53 -5.6,-3.53 -2.5,0 -3.2,2.73 -3.2,4.68 0,2.49 1.6,8.61 2.8,10.91 1.5,2.94 3.8,4.78 5.7,4.78 l 0,1.1 c -5.8,0 -12,-7.32 -12,-14.6 0,-4.69 2.7,-7.97 6.6,-7.97 1,0 3.5,0.21 6.5,3.74 0.4,-2.1 2.1,-3.74 4.5,-3.74 1.8,0 2.9,1.14 3.7,2.74 0.9,1.79 1.5,4.84 1.5,4.93 0,0.5 -0.4,0.5 -0.6,0.5 -0.5,0 -0.5,-0.2 -0.7,-0.9 -0.8,-3.24 -1.7,-6.17 -3.8,-6.17 -1.3,0 -1.5,1.29 -1.5,2.29 0,1.1 0.1,1.49 0.7,3.69 0.5,2.09 0.6,2.59 1.1,4.49 l 1.8,6.96 c 0.3,1.39 0.3,1.5 0.3,1.69 0,0.86 -0.6,1.36 -1.4,1.36 -1.2,0 -2,-1.11 -2.1,-2.2 z"
           id="path4209"
           inkscape:connector-curvature="0"
           style="fill:#000000;stroke-width:0" /><path
           d="m 1368.1,298.42 -1.2,0 c -0.1,-0.76 -0.5,-2.83 -0.9,-3.17 -0.3,-0.2 -3,-0.2 -3.5,-0.2 l -6.4,0 c 3.7,3.23 4.9,4.2 7,5.84 2.6,2.06 5,4.22 5,7.53 0,4.22 -3.7,6.8 -8.2,6.8 -4.3,0 -7.2,-3.03 -7.2,-6.24 0,-1.78 1.5,-1.95 1.8,-1.95 0.9,0 1.9,0.59 1.9,1.85 0,0.62 -0.3,1.84 -2.1,1.84 1.1,2.47 3.5,3.23 5.1,3.23 3.5,0 5.3,-2.7 5.3,-5.53 0,-3.03 -2.2,-5.44 -3.3,-6.69 l -8.4,-8.29 c -0.3,-0.32 -0.3,-0.39 -0.3,-1.36 l 14.3,0 z"
           id="path4211"
           inkscape:connector-curvature="0"
           style="fill:#000000;stroke-width:0" /><path
           d="m 1379.8,303.72 0.2,-0.01 0.3,-0.01 0.2,-0.03 0.3,-0.04 0.2,-0.05 0.2,-0.06 0.3,-0.07 0.2,-0.08 0.2,-0.1 0.2,-0.1 0.2,-0.12 0.2,-0.13 0.1,-0.13 0.2,-0.15 0.2,-0.16 0.1,-0.17 0.2,-0.18 0.1,-0.19 0.2,-0.21 0.1,-0.21 0.1,-0.23 0.1,-0.23 0.1,-0.25 0.1,-0.26 0.1,-0.26 0.1,-0.28 0,-0.29 0.1,-0.3 0,-0.31 0,-0.33 0.1,-0.33 0,-0.34 c 0,-4.33 -2.6,-5.61 -4.6,-5.61 -1.4,0 -4.4,0.38 -5.9,2.44 1.6,0.06 2,1.22 2,1.95 0,1.11 -0.8,1.91 -1.9,1.91 -1,0 -1.9,-0.6 -1.9,-2.02 0,-3.28 3.6,-5.4 7.8,-5.4 4.8,0 8.2,3.24 8.2,6.73 0,2.72 -2.2,5.44 -6.1,6.23 3.7,1.33 5,3.94 5,6.07 0,2.75 -3.2,4.81 -7,4.81 -3.9,0 -6.9,-1.89 -6.9,-4.67 0,-1.19 0.8,-1.85 1.9,-1.85 1,0 1.7,0.8 1.7,1.77 0,1.01 -0.7,1.75 -1.7,1.81 1.2,1.55 3.6,1.92 4.9,1.92 1.5,0 3.7,-0.76 3.7,-3.79 0,-1.47 -0.5,-3.07 -1.4,-4.14 -1.1,-1.33 -2.1,-1.41 -3.8,-1.5 -0.9,-0.08 -1,-0.08 -1.1,-0.11 -0.1,0 -0.4,-0.07 -0.4,-0.46 0,-0.48 0.3,-0.48 0.9,-0.48 z"
           id="path4213"
           inkscape:connector-curvature="0"
           style="fill:#000000;stroke-width:0" /><path
           d="m 1106.1,258.59 0,0.17 -0.1,0.17 -0.1,0.16 -0.1,0.17 -0.1,0.15 -0.1,0.16 -0.1,0.15 -0.1,0.15 -0.2,0.14 -0.1,0.14 -0.1,0.13 -0.1,0.13 -0.1,0.12 -0.2,0.12 -0.1,0.12 -0.1,0.11 -0.2,0.1 -0.1,0.1 -0.2,0.09 -0.1,0.08 -0.2,0.09 -0.2,0.07 -0.1,0.07 -0.2,0.06 -0.2,0.05 -0.2,0.05 -0.2,0.04 -0.1,0.04 -0.2,0.02 -0.2,0.02 -0.2,0.01 -0.2,0.01 0,-1.1 c 3.2,0 3.9,-4.07 3.9,-4.37 0,-0.31 -0.1,-0.61 -0.1,-0.86 l -2.5,-9.77 c -0.2,-0.89 -0.2,-0.98 -1,-1.84 -2.2,-2.74 -4.2,-3.53 -5.6,-3.53 -2.5,0 -3.2,2.73 -3.2,4.69 0,2.48 1.6,8.6 2.7,10.9 1.6,2.94 3.8,4.78 5.8,4.78 l 0,1.1 c -5.9,0 -12,-7.32 -12,-14.6 0,-4.68 2.7,-7.97 6.6,-7.97 1,0 3.5,0.21 6.5,3.74 0.4,-2.1 2.1,-3.74 4.5,-3.74 1.7,0 2.9,1.14 3.7,2.74 0.8,1.8 1.5,4.84 1.5,4.94 0,0.5 -0.5,0.5 -0.6,0.5 -0.5,0 -0.6,-0.21 -0.7,-0.91 -0.9,-3.23 -1.8,-6.17 -3.8,-6.17 -1.4,0 -1.5,1.29 -1.5,2.29 0,1.1 0.1,1.49 0.6,3.69 0.6,2.1 0.7,2.6 1.1,4.49 l 1.8,6.97 c 0.4,1.39 0.4,1.5 0.4,1.68 0,0.86 -0.6,1.36 -1.5,1.36 -1.2,0 -1.9,-1.11 -2.1,-2.2 z"
           id="path4215"
           inkscape:connector-curvature="0"
           style="fill:#000000;stroke-width:0" /><path
           d="m 1123.4,243.96 0.2,0 0.3,-0.02 0.2,-0.03 0.2,-0.04 0.3,-0.05 0.2,-0.06 0.2,-0.07 0.2,-0.08 0.2,-0.1 0.2,-0.1 0.2,-0.12 0.2,-0.12 0.2,-0.14 0.2,-0.15 0.2,-0.16 0.1,-0.17 0.2,-0.18 0.1,-0.19 0.1,-0.21 0.2,-0.21 0.1,-0.22 0.1,-0.24 0.1,-0.25 0.1,-0.25 0.1,-0.27 0,-0.28 0.1,-0.29 0,-0.3 0.1,-0.31 0,-0.32 0,-0.33 0,-0.35 c 0,-4.33 -2.5,-5.61 -4.5,-5.61 -1.4,0 -4.5,0.38 -5.9,2.44 1.6,0.06 2,1.22 2,1.95 0,1.11 -0.8,1.91 -1.9,1.91 -1,0 -2,-0.59 -2,-2.02 0,-3.28 3.6,-5.4 7.9,-5.4 4.8,0 8.2,3.25 8.2,6.73 0,2.72 -2.3,5.44 -6.1,6.24 3.6,1.32 5,3.93 5,6.06 0,2.75 -3.2,4.81 -7.1,4.81 -3.8,0 -6.8,-1.89 -6.8,-4.67 0,-1.19 0.8,-1.84 1.8,-1.84 1.1,0 1.8,0.79 1.8,1.76 0,1.02 -0.7,1.75 -1.8,1.81 1.2,1.55 3.6,1.93 4.9,1.93 1.6,0 3.8,-0.77 3.8,-3.8 0,-1.47 -0.5,-3.06 -1.4,-4.14 -1.1,-1.33 -2.1,-1.41 -3.9,-1.5 -0.8,-0.08 -0.9,-0.08 -1.1,-0.11 -0.1,0 -0.3,-0.06 -0.3,-0.45 0,-0.49 0.3,-0.49 0.9,-0.49 z"
           id="path4217"
           inkscape:connector-curvature="0"
           style="fill:#000000;stroke-width:0" /><path
           d="m 1145.3,254.48 0,0.04 0,0.04 0,0.05 0,0.04 0,0.03 0,0.04 0,0.04 0,0.03 0,0.04 0,0.03 0,0.03 0,0.03 0,0.03 0,0.03 0,0.03 0,0.02 0,0.03 0,0.02 0,0.03 0,0.02 0,0.04 -0.1,0.04 0,0.03 0,0.03 0,0.03 0,0.03 -0.1,0.02 0,0.02 0,0.02 -0.1,0.01 0,0.01 -0.1,0.01 0,0.01 0,0 0,0.01 -0.1,0 0,0 0,0.01 0,0 -0.1,0 0,0 0,0.01 -0.1,0 0,0 0,0 -0.1,0 0,0 -0.1,0 0,0 0,0 -0.1,0 0,0 c -2.3,-2.2 -5.4,-2.23 -6.9,-2.23 l 0,-1.25 c 0.9,0 3.2,0 5.1,0.97 l 0,-17.77 c 0,-1.16 0,-1.61 -3.5,-1.61 l -1.3,0 0,-1.25 c 0.6,0.03 4.9,0.14 6.2,0.14 1.1,0 5.5,-0.11 6.2,-0.14 l 0,1.25 -1.3,0 c -3.5,0 -3.5,0.45 -3.5,1.61 z"
           id="path4219"
           inkscape:connector-curvature="0"
           style="fill:#000000;stroke-width:0" /><path
           d="m 1224.5,258.59 -0.1,0.17 -0.1,0.17 -0.1,0.16 -0.1,0.17 -0.1,0.15 -0.1,0.16 -0.1,0.15 -0.1,0.15 -0.1,0.14 -0.1,0.14 -0.2,0.13 -0.1,0.13 -0.1,0.12 -0.2,0.12 -0.1,0.12 -0.1,0.11 -0.2,0.1 -0.1,0.1 -0.2,0.09 -0.1,0.08 -0.2,0.09 -0.1,0.07 -0.2,0.07 -0.2,0.06 -0.2,0.05 -0.1,0.05 -0.2,0.04 -0.2,0.04 -0.2,0.02 -0.2,0.02 -0.2,0.01 -0.2,0.01 0,-1.1 c 3.3,0 4,-4.07 4,-4.37 0,-0.31 -0.1,-0.61 -0.2,-0.86 l -2.5,-9.77 c -0.2,-0.89 -0.2,-0.98 -1,-1.84 -2.2,-2.74 -4.2,-3.53 -5.6,-3.53 -2.5,0 -3.2,2.73 -3.2,4.69 0,2.48 1.6,8.6 2.7,10.9 1.6,2.94 3.8,4.78 5.8,4.78 l 0,1.1 c -5.8,0 -12,-7.32 -12,-14.6 0,-4.68 2.7,-7.97 6.6,-7.97 1,0 3.5,0.21 6.5,3.74 0.4,-2.1 2.1,-3.74 4.5,-3.74 1.7,0 2.9,1.14 3.7,2.74 0.8,1.8 1.5,4.84 1.5,4.94 0,0.5 -0.5,0.5 -0.6,0.5 -0.5,0 -0.5,-0.21 -0.7,-0.91 -0.8,-3.23 -1.8,-6.17 -3.8,-6.17 -1.3,0 -1.5,1.29 -1.5,2.29 0,1.1 0.1,1.49 0.7,3.69 0.5,2.1 0.6,2.6 1.1,4.49 l 1.7,6.97 c 0.4,1.39 0.4,1.5 0.4,1.68 0,0.86 -0.6,1.36 -1.4,1.36 -1.2,0 -2,-1.11 -2.1,-2.2 z"
           id="path4221"
           inkscape:connector-curvature="0"
           style="fill:#000000;stroke-width:0" /><path
           d="m 1241.7,243.96 0.2,0 0.3,-0.02 0.2,-0.03 0.3,-0.04 0.2,-0.05 0.2,-0.06 0.2,-0.07 0.3,-0.08 0.2,-0.1 0.2,-0.1 0.2,-0.12 0.1,-0.12 0.2,-0.14 0.2,-0.15 0.2,-0.16 0.1,-0.17 0.2,-0.18 0.1,-0.19 0.2,-0.21 0.1,-0.21 0.1,-0.22 0.1,-0.24 0.1,-0.25 0.1,-0.25 0.1,-0.27 0.1,-0.28 0,-0.29 0.1,-0.3 0,-0.31 0,-0.32 0,-0.33 0,-0.35 c 0,-4.33 -2.5,-5.61 -4.5,-5.61 -1.4,0 -4.5,0.38 -5.9,2.44 1.6,0.06 2,1.22 2,1.95 0,1.11 -0.8,1.91 -1.9,1.91 -1,0 -2,-0.59 -2,-2.02 0,-3.28 3.7,-5.4 7.9,-5.4 4.8,0 8.2,3.25 8.2,6.73 0,2.72 -2.3,5.44 -6.1,6.24 3.7,1.32 5,3.93 5,6.06 0,2.75 -3.2,4.81 -7,4.81 -3.9,0 -6.9,-1.89 -6.9,-4.67 0,-1.19 0.8,-1.84 1.8,-1.84 1.1,0 1.8,0.79 1.8,1.76 0,1.02 -0.7,1.75 -1.8,1.81 1.3,1.55 3.7,1.93 4.9,1.93 1.6,0 3.8,-0.77 3.8,-3.8 0,-1.47 -0.5,-3.06 -1.4,-4.14 -1.1,-1.33 -2.1,-1.41 -3.9,-1.5 -0.8,-0.08 -0.9,-0.08 -1.1,-0.11 0,0 -0.3,-0.06 -0.3,-0.45 0,-0.49 0.3,-0.49 0.9,-0.49 z"
           id="path4223"
           inkscape:connector-curvature="0"
           style="fill:#000000;stroke-width:0" /><path
           d="m 1269.6,238.66 -1.2,0 c -0.1,-0.76 -0.5,-2.82 -0.9,-3.17 -0.3,-0.2 -3,-0.2 -3.5,-0.2 l -6.4,0 c 3.6,3.23 4.9,4.2 7,5.84 2.5,2.07 5,4.22 5,7.53 0,4.22 -3.7,6.8 -8.2,6.8 -4.3,0 -7.3,-3.03 -7.3,-6.23 0,-1.78 1.5,-1.96 1.9,-1.96 0.8,0 1.8,0.6 1.8,1.85 0,0.62 -0.2,1.84 -2,1.84 1.1,2.47 3.4,3.24 5.1,3.24 3.5,0 5.3,-2.71 5.3,-5.54 0,-3.03 -2.2,-5.43 -3.3,-6.68 l -8.4,-8.3 c -0.4,-0.31 -0.4,-0.39 -0.4,-1.36 l 14.4,0 z"
           id="path4225"
           inkscape:connector-curvature="0"
           style="fill:#000000;stroke-width:0" /><path
           d="m 1342.8,258.59 -0.1,0.17 -0.1,0.17 -0.1,0.16 -0.1,0.17 -0.1,0.15 -0.1,0.16 -0.1,0.15 -0.1,0.15 -0.1,0.14 -0.1,0.14 -0.1,0.13 -0.2,0.13 -0.1,0.12 -0.1,0.12 -0.2,0.12 -0.1,0.11 -0.2,0.1 -0.1,0.1 -0.1,0.09 -0.2,0.08 -0.2,0.09 -0.1,0.07 -0.2,0.07 -0.2,0.06 -0.1,0.05 -0.2,0.05 -0.2,0.04 -0.2,0.04 -0.2,0.02 -0.2,0.02 -0.2,0.01 -0.2,0.01 0,-1.1 c 3.3,0 4,-4.07 4,-4.37 0,-0.31 -0.1,-0.61 -0.2,-0.86 l -2.5,-9.77 c -0.2,-0.89 -0.2,-0.98 -1,-1.84 -2.1,-2.74 -4.2,-3.53 -5.6,-3.53 -2.5,0 -3.2,2.73 -3.2,4.69 0,2.48 1.6,8.6 2.8,10.9 1.5,2.94 3.8,4.78 5.7,4.78 l 0,1.1 c -5.8,0 -12,-7.32 -12,-14.6 0,-4.68 2.7,-7.97 6.6,-7.97 1,0 3.5,0.21 6.5,3.74 0.4,-2.1 2.1,-3.74 4.5,-3.74 1.8,0 2.9,1.14 3.7,2.74 0.9,1.8 1.5,4.84 1.5,4.94 0,0.5 -0.4,0.5 -0.6,0.5 -0.5,0 -0.5,-0.21 -0.7,-0.91 -0.8,-3.23 -1.7,-6.17 -3.8,-6.17 -1.3,0 -1.5,1.29 -1.5,2.29 0,1.1 0.1,1.49 0.7,3.69 0.5,2.1 0.6,2.6 1.1,4.49 l 1.8,6.97 c 0.3,1.39 0.3,1.5 0.3,1.68 0,0.86 -0.6,1.36 -1.4,1.36 -1.2,0 -2,-1.11 -2.1,-2.2 z"
           id="path4227"
           inkscape:connector-curvature="0"
           style="fill:#000000;stroke-width:0" /><path
           d="m 1360,243.96 0.3,0 0.2,-0.02 0.2,-0.03 0.3,-0.04 0.2,-0.05 0.2,-0.06 0.3,-0.07 0.2,-0.08 0.2,-0.1 0.2,-0.1 0.2,-0.12 0.2,-0.12 0.2,-0.14 0.1,-0.15 0.2,-0.16 0.2,-0.17 0.1,-0.18 0.1,-0.19 0.2,-0.21 0.1,-0.21 0.1,-0.22 0.1,-0.24 0.1,-0.25 0.1,-0.25 0.1,-0.27 0.1,-0.28 0,-0.29 0.1,-0.3 0,-0.31 0,-0.32 0.1,-0.33 0,-0.35 c 0,-4.33 -2.5,-5.61 -4.6,-5.61 -1.3,0 -4.4,0.38 -5.9,2.44 1.6,0.06 2,1.22 2,1.95 0,1.11 -0.8,1.91 -1.9,1.91 -1,0 -1.9,-0.59 -1.9,-2.02 0,-3.28 3.6,-5.4 7.8,-5.4 4.8,0 8.2,3.25 8.2,6.73 0,2.72 -2.2,5.44 -6.1,6.24 3.7,1.32 5,3.93 5,6.06 0,2.75 -3.2,4.81 -7,4.81 -3.9,0 -6.9,-1.89 -6.9,-4.67 0,-1.19 0.8,-1.84 1.9,-1.84 1,0 1.7,0.79 1.7,1.76 0,1.02 -0.7,1.75 -1.7,1.81 1.2,1.55 3.6,1.93 4.9,1.93 1.5,0 3.7,-0.77 3.7,-3.8 0,-1.47 -0.5,-3.06 -1.4,-4.14 -1.1,-1.33 -2.1,-1.41 -3.8,-1.5 -0.9,-0.08 -1,-0.08 -1.1,-0.11 -0.1,0 -0.4,-0.06 -0.4,-0.45 0,-0.49 0.3,-0.49 0.9,-0.49 z"
           id="path4229"
           inkscape:connector-curvature="0"
           style="fill:#000000;stroke-width:0" /><path
           d="m 1379.8,243.96 0.2,0 0.3,-0.02 0.2,-0.03 0.3,-0.04 0.2,-0.05 0.2,-0.06 0.3,-0.07 0.2,-0.08 0.2,-0.1 0.2,-0.1 0.2,-0.12 0.2,-0.12 0.1,-0.14 0.2,-0.15 0.2,-0.16 0.1,-0.17 0.2,-0.18 0.1,-0.19 0.2,-0.21 0.1,-0.21 0.1,-0.22 0.1,-0.24 0.1,-0.25 0.1,-0.25 0.1,-0.27 0.1,-0.28 0,-0.29 0.1,-0.3 0,-0.31 0,-0.32 0.1,-0.33 0,-0.35 c 0,-4.33 -2.6,-5.61 -4.6,-5.61 -1.4,0 -4.4,0.38 -5.9,2.44 1.6,0.06 2,1.22 2,1.95 0,1.11 -0.8,1.91 -1.9,1.91 -1,0 -1.9,-0.59 -1.9,-2.02 0,-3.28 3.6,-5.4 7.8,-5.4 4.8,0 8.2,3.25 8.2,6.73 0,2.72 -2.2,5.44 -6.1,6.24 3.7,1.32 5,3.93 5,6.06 0,2.75 -3.2,4.81 -7,4.81 -3.9,0 -6.9,-1.89 -6.9,-4.67 0,-1.19 0.8,-1.84 1.9,-1.84 1,0 1.7,0.79 1.7,1.76 0,1.02 -0.7,1.75 -1.7,1.81 1.2,1.55 3.6,1.93 4.9,1.93 1.5,0 3.7,-0.77 3.7,-3.8 0,-1.47 -0.5,-3.06 -1.4,-4.14 -1.1,-1.33 -2.1,-1.41 -3.8,-1.5 -0.9,-0.08 -1,-0.08 -1.1,-0.11 -0.1,0 -0.4,-0.06 -0.4,-0.45 0,-0.49 0.3,-0.49 0.9,-0.49 z"
           id="path4231"
           inkscape:connector-curvature="0"
           style="fill:#000000;stroke-width:0" /><polygon
           points="1409.7,311.55 1409.7,401.18 1393.1,401.18 1393.1,397.74 1406.2,397.74 1406.2,311.55 "
           id="polygon4233"
           style="fill:#000000;stroke-width:0" /><polygon
           points="1393.1,225.28 1393.1,221.84 1409.7,221.84 1409.7,311.48 1406.2,311.48 1406.2,225.28 "
           id="polygon4235"
           style="fill:#000000;stroke-width:0" /></g>    </g>
    <path
       inkscape:connector-curvature="0"
       id="path4182"
       d="m 165.21633,637.85686 c 0,0 7.08925,-7.99993 11.85722,-8 4.76798,-7e-5 7.08993,8.00003 11.85797,8 4.76804,-3e-5 7.08976,-8.00006 11.85765,-8 4.7679,7e-5 7.08917,8.00002 11.85695,8 4.76777,-10e-6 7.08899,-7.99996 11.8568,-8 4.76782,-3e-5 7.08952,8.00013 11.8572,8 4.76768,-1.2e-4 7.08821,-7.9999 11.85586,-8 4.76765,-10e-5 7.08903,7.99993 11.85694,8 4.76792,8e-5 7.08984,-8.00006 11.85778,-8 4.76793,7e-5 11.85707,8 11.85707,8"
       style="font-style:normal;font-variant:normal;font-weight:normal;font-stretch:normal;letter-spacing:normal;word-spacing:normal;text-anchor:start;fill:#000000;fill-opacity:0;fill-rule:evenodd;stroke:#808080;stroke-width:3;stroke-linecap:round;stroke-linejoin:miter;stroke-miterlimit:10.43299961;stroke-dasharray:none;stroke-dashoffset:0;stroke-opacity:1"
       sodipodi:nodetypes="czzzzzzzzzc" />
    <path
       style="font-style:normal;font-variant:normal;font-weight:normal;font-stretch:normal;letter-spacing:normal;word-spacing:normal;text-anchor:start;fill:none;fill-opacity:1;fill-rule:evenodd;stroke:#cccccc;stroke-width:3;stroke-linecap:round;stroke-linejoin:miter;stroke-miterlimit:10.43299961;stroke-dasharray:none;stroke-dashoffset:0;stroke-opacity:1"
       d="m -116.78359,633.85686 c 0,0 4.54577,0 11.8572,0 3.41099,0 7.423892,0 11.857982,0 3.69494,0 7.68236,0 11.85765,0 3.82165,0 7.8007,0 11.85694,0 3.90458,0 7.8807,0 11.85681,0 3.97625,0 7.9525,0 11.8572,0 4.05588,0 8.03455,0 11.85585,0 4.17504,0 8.16222,0 11.85695,0 4.43402,0 8.44685,0 11.85777,0 7.3113506,0 11.8570806,0 11.8570806,0"
       id="path4290"
       inkscape:connector-curvature="0" />
    <g
       style="font-style:normal;font-variant:normal;font-weight:normal;font-stretch:normal;letter-spacing:normal;word-spacing:normal;text-anchor:start;fill:none;fill-opacity:1;fill-rule:evenodd;stroke:#000000;stroke-linecap:butt;stroke-linejoin:miter;stroke-miterlimit:10.43299961;stroke-dasharray:none;stroke-dashoffset:0;stroke-opacity:1"
       id="g4346"
       transform="matrix(1.0629921,0,0,-1.0629921,-626.16346,1052.7002)">
      <g
         id="g4348"
         transform="matrix(0.57142857,0,0,-0.57142857,-100,600)"
         xml:space="preserve"
         stroke-miterlimit="10.433"
         font-style="normal"
         font-variant="normal"
         font-weight="normal"
         font-stretch="normal"
         font-size-adjust="none"
         letter-spacing="normal"
         word-spacing="normal"
         style="font-style:normal;font-variant:normal;font-weight:normal;font-stretch:normal;letter-spacing:normal;word-spacing:normal;text-anchor:start;fill:none;fill-opacity:1;fill-rule:evenodd;stroke:#000000;stroke-linecap:butt;stroke-linejoin:miter;stroke-miterlimit:10.43299961;stroke-dasharray:none;stroke-dashoffset:0;stroke-opacity:1"><path
           d="m 1241.1,357.89 13.9,0 c 0.7,0 1.7,0 1.7,1 0,1 -1,1 -1.7,1 l -13.9,0 0,13.96 c 0,0.69 0,1.64 -1,1.64 -0.9,0 -0.9,-0.95 -0.9,-1.64 l 0,-13.96 -14,0 c -0.7,0 -1.6,0 -1.6,-1 0,-1 0.9,-1 1.6,-1 l 14,0 0,-13.93 c 0,-0.71 0,-1.66 0.9,-1.66 1,0 1,0.95 1,1.66 z"
           id="path4350"
           inkscape:connector-curvature="0"
           style="fill:#000000;stroke-width:0" /></g>    </g>
    <g
       style="font-style:normal;font-variant:normal;font-weight:normal;font-stretch:normal;letter-spacing:normal;word-spacing:normal;text-anchor:start;fill:none;fill-opacity:1;fill-rule:evenodd;stroke:#000000;stroke-linecap:butt;stroke-linejoin:miter;stroke-miterlimit:10.43299961;stroke-dasharray:none;stroke-dashoffset:0;stroke-opacity:1"
       id="g4466"
       transform="matrix(1.0629921,0,0,-1.0629921,-347.18298,1053.4247)">
      <g
         word-spacing="normal"
         letter-spacing="normal"
         font-size-adjust="none"
         font-stretch="normal"
         font-weight="normal"
         font-variant="normal"
         font-style="normal"
         stroke-miterlimit="10.433"
         xml:space="preserve"
         transform="matrix(0.57142857,0,0,-0.57142857,-100,600)"
         id="g4468"
         style="font-style:normal;font-variant:normal;font-weight:normal;font-stretch:normal;letter-spacing:normal;word-spacing:normal;text-anchor:start;fill:none;fill-opacity:1;fill-rule:evenodd;stroke:#000000;stroke-linecap:butt;stroke-linejoin:miter;stroke-miterlimit:10.43299961;stroke-dasharray:none;stroke-dashoffset:0;stroke-opacity:1"><path
           id="path4470"
           d="m 1253.6,357.89 0.1,0.01 0.2,0 0.2,0 0,0.01 0.1,0 0.1,0.01 0.1,0.01 0,0.01 0.1,0.01 0.1,0.01 0.1,0.02 0,0.02 0.1,0.02 0,0.02 0.1,0.03 0.1,0.03 0,0.04 0.1,0.04 0,0.04 0,0.05 0.1,0.05 0,0.02 0,0.03 0,0.03 0.1,0.03 0,0.03 0,0.04 0,0.03 0,0.03 0,0.04 0,0.04 0,0.04 0,0.04 0,0.04 0,0.04 0,0.05 0,0.04 c 0,1 -0.9,1 -1.7,1 l -27,0 c -0.8,0 -1.7,0 -1.7,-1 0,-1 0.9,-1 1.7,-1 z"
           inkscape:connector-curvature="0"
           style="fill:#000000;stroke-width:0" /></g>    </g>
    <g
       transform="matrix(1.67,0,0,1.6700001,-514.48936,-75.726328)"
       id="g4249" />
  </g>
</svg>
