<?xml version="1.0" encoding="UTF-8" standalone="no"?>
<!-- Created with Inkscape (http://www.inkscape.org/) -->

<svg
   xmlns:dc="http://purl.org/dc/elements/1.1/"
   xmlns:cc="http://creativecommons.org/ns#"
   xmlns:rdf="http://www.w3.org/1999/02/22-rdf-syntax-ns#"
   xmlns:svg="http://www.w3.org/2000/svg"
   xmlns="http://www.w3.org/2000/svg"
   xmlns:sodipodi="http://sodipodi.sourceforge.net/DTD/sodipodi-0.dtd"
   xmlns:inkscape="http://www.inkscape.org/namespaces/inkscape"
   width="800"
   height="400"
   viewBox="0 0 799.99996 399.99999"
   id="svg2"
   version="1.1"
   inkscape:version="0.91 r13725"
   sodipodi:docname="falksches_schema.svg"
   inkscape:export-filename="/home/kfickel/Dokumente/source/LA-VM/img/falksches_schema.png"
   inkscape:export-xdpi="90"
   inkscape:export-ydpi="90">
  <sodipodi:namedview
     id="base"
     pagecolor="#ffffff"
     bordercolor="#666666"
     borderopacity="1.0"
     inkscape:pageopacity="0.0"
     inkscape:pageshadow="2"
     inkscape:zoom="0.7"
     inkscape:cx="-29.207662"
     inkscape:cy="308.1448"
     inkscape:document-units="px"
     inkscape:current-layer="content"
     showgrid="false"
     inkscape:window-width="1366"
     inkscape:window-height="704"
     inkscape:window-x="0"
     inkscape:window-y="27"
     inkscape:window-maximized="1"
     showguides="true"
     inkscape:guide-bbox="true"
     fit-margin-top="0"
     fit-margin-left="0"
     fit-margin-right="0"
     fit-margin-bottom="0"
     units="px" />
  <defs
     id="defs4" />
  <metadata
     id="metadata7">
    <rdf:RDF>
      <cc:Work
         rdf:about="">
        <dc:format>image/svg+xml</dc:format>
        <dc:type
           rdf:resource="http://purl.org/dc/dcmitype/StillImage" />
        <dc:title></dc:title>
      </cc:Work>
    </rdf:RDF>
  </metadata>
  <g
     id="layer1"
     inkscape:groupmode="layer"
     inkscape:label="Ebene 1"
     transform="translate(304.64383,-295.28543)">
    <g
       id="g4141"
       transform="translate(-525.71429,-122.85714)">
      <g
         word-spacing="normal"
         letter-spacing="normal"
         font-size-adjust="none"
         font-stretch="normal"
         font-weight="normal"
         font-variant="normal"
         font-style="normal"
         stroke-miterlimit="10.433"
         xml:space="preserve"
         transform="matrix(1.0629921,0,0,-1.0629921,-186.02362,789.27165)"
         id="content"
         style="font-style:normal;font-variant:normal;font-weight:normal;font-stretch:normal;letter-spacing:normal;word-spacing:normal;text-anchor:start;fill:none;fill-opacity:1;fill-rule:evenodd;stroke:#000000;stroke-linecap:butt;stroke-linejoin:miter;stroke-miterlimit:10.43299961;stroke-dasharray:none;stroke-dashoffset:0;stroke-opacity:1"><rect
           ry="27.615797"
           transform="scale(1,-1)"
           y="-136.48787"
           x="587.49689"
           height="55.231594"
           width="165.69479"
           id="rect4623"
           style="fill:none;fill-opacity:1;stroke:#000000;stroke-width:1.88148153;stroke-linecap:round;stroke-miterlimit:4;stroke-dasharray:none;stroke-opacity:1" /><rect
           ry="27.615797"
           transform="scale(1,-1)"
           y="-300.21576"
           x="795.40979"
           height="101.38403"
           width="55.231594"
           id="rect4621"
           style="fill:none;fill-opacity:1;stroke:#000000;stroke-width:1.88148153;stroke-linecap:round;stroke-miterlimit:4;stroke-dasharray:none;stroke-opacity:1" /><rect
           style="fill:none;fill-opacity:1;stroke:#000000;stroke-width:1.88148153;stroke-linecap:round;stroke-miterlimit:4;stroke-dasharray:none;stroke-opacity:1"
           id="rect4619"
           width="55.231594"
           height="55.231594"
           x="795.40979"
           y="-136.48787"
           transform="scale(1,-1)"
           ry="27.615797" /><path
           style="fill:#000000;stroke-width:0"
           d="m 779.87381,300.90782 0,-26.07201 0,-53.48297 0,-26.08506 14.7338,0 0,3.05148 -11.71657,0 0,23.03358 0,53.48297 0,23.01892 11.71657,0 0,3.05309 -14.7338,0 z m 317.50709,0 0,-3.05309 11.6269,0 0,-76.50189 0,-23.03358 -11.6269,0 0,-3.05148 14.7338,0 0,79.56803 0,26.07201 -14.7338,0 z m -273.13285,-7.42561 c -2.74279,-2.83157 -6.63072,-2.8313 -8.04211,-2.8313 l 0,-1.3765 c 0.8877,0 3.49717,5.7e-4 5.77843,1.1547 l 0,-22.91453 c 0,-1.59507 -0.12522,-2.12182 -4.10182,-2.12182 l -1.41071,0 0,-1.37325 c 1.54447,0.13936 5.38844,0.13863 7.15484,0.13863 1.77525,0 5.61781,5.6e-4 7.17118,-0.13863 l 0,1.37325 -1.41887,0 c -3.97666,0 -4.11972,0.48502 -4.11972,2.12182 l 0,24.81293 0,0.0457 0,0.0523 0,0.044 0,0.0456 0,0.044 0,0.044 0,0.0359 0,0.044 0,0.0359 0,0.0359 0,0.0343 -0.008,0.0359 0,0.0359 0,0.0261 0,0.0359 -0.0101,0.0261 0,0.062 -0.008,0.0538 -0.018,0.044 -0.008,0.044 -0.018,0.0456 -0.0101,0.0343 -0.0259,0.0359 -0.018,0.0278 -0.0259,0.0261 -0.0281,0.0261 -0.0344,0.0277 -0.0355,0.0164 -0.0355,0.0179 -0.018,0.0101 -0.0259,0 -0.0259,0.008 -0.018,0.0101 -0.0276,0 -0.0259,0.008 -0.0259,0.008 -0.0276,0 -0.0344,0 -0.0276,0.0101 -0.0355,0 -0.0259,0 -0.0355,0.008 -0.0344,0 -0.0355,0 -0.0439,0 -0.0355,0 -0.0439,0 -0.0456,0.0101 -0.0439,0 -0.0439,0 -0.0439,0 z m 109.95058,0 c -5.0063,0 -8.28183,-4.0838 -8.28183,-8.01602 0,-2.47649 2.21937,-2.47573 2.34369,-2.47575 0.76334,0 2.3077,0.53288 2.3077,2.34366 0,1.15393 -0.79025,2.30776 -2.34357,2.30776 -0.34624,0 -0.44329,-5.7e-4 -0.5676,-0.0457 1.0119,2.86706 3.39083,4.50951 5.95616,4.50951 4.02981,0 5.93814,-3.59529 5.93814,-7.21685 0,-3.5328 -2.21837,-7.0278 -4.64165,-9.77415 l -8.48563,-9.45774 c -0.506,-0.48553 -0.50724,-0.56874 -0.50724,-1.63745 l 16.41368,0 1.24277,7.69798 -1.11076,0 c -0.22193,-1.33145 -0.52323,-3.27296 -0.96703,-3.93869 -0.31961,-0.34706 -3.23061,-0.34739 -4.19814,-0.34739 l -7.96211,0 4.68563,4.54866 c 6.88806,6.10247 9.55241,8.48836 9.55241,12.90878 0,5.05065 -3.97778,8.59335 -9.37462,8.59335 z m 123.52477,0 c -4.4383,0 -7.8107,-2.66286 -7.8107,-6.01811 0,-1.46461 0.9755,-2.30778 2.2181,-2.30778 1.4203,0 2.3078,0.97665 2.3078,2.26373 0,2.20133 -2.1301,2.20012 -2.7514,2.20012 1.3314,2.16583 4.2606,2.75301 5.8583,2.75301 1.7753,0 4.2616,-0.97652 4.2616,-4.95313 0,-0.54145 -0.089,-3.09818 -1.2427,-5.05099 -1.3314,-2.12144 -2.8409,-2.2462 -3.9061,-2.30123 -0.3551,-0.0416 -1.4194,-0.12558 -1.7745,-0.12558 -0.355,-0.0416 -0.6213,-0.083 -0.6213,-0.52679 0,-0.48553 0.266,-0.48601 1.0649,-0.48601 l 1.9522,0 c 3.5507,0 5.2369,-3.00917 5.2369,-7.35059 0,-6.00573 -3.0181,-7.29514 -4.971,-7.29514 -1.9528,0 -5.2358,0.74857 -6.8336,3.35645 1.5978,-0.20859 2.9292,0.76298 2.9292,2.44149 0,1.59419 -1.1541,2.4676 -2.4856,2.4676 -1.0651,0 -2.4855,-0.60999 -2.4855,-2.56545 0,-4.02186 4.1718,-6.93469 8.9652,-6.93469 5.4146,0 9.4088,4.02234 9.4088,8.52974 0,3.63397 -2.7511,7.0736 -7.3669,8.00296 l 0.3539,0.11742 0.3556,0.12721 0.2659,0.13863 0.3555,0.15004 0.2658,0.15984 0.3556,0.16962 0.2658,0.17777 0.2659,0.18919 0.2674,0.1957 0.2659,0.20714 0.2658,0.21364 0.2675,0.22182 0.2657,0.22995 0.1779,0.23975 0.2658,0.23975 0.1779,0.25769 0.1776,0.25767 0.2658,0.26584 0.1779,0.26748 0.088,0.28378 0.1779,0.28378 0.1776,0.28378 0.088,0.29358 0.1778,0.30171 0.09,0.30172 0.088,0.30172 0.088,0.30989 0,0.31966 0.09,0.31966 0,0.31965 0.088,0.31967 0,0.32781 c 0,3.62155 -3.9053,6.10783 -8.166,6.10783 z M 827.96659,240.9207 c -0.39943,0 -0.53219,5.6e-4 -0.8872,-0.53984 l -13.58076,-20.73561 0,-1.37323 11.76064,0 0,-3.84247 c 0,-1.59508 -0.0795,-2.07944 -3.35485,-2.07944 l -0.93291,0 0,-1.37323 c 1.81966,0.13847 4.11988,0.13863 5.98391,0.13863 1.85518,0 4.19825,-1.6e-4 6.00012,-0.13863 l 0,1.37323 -0.92305,0 c -3.27537,0 -3.3646,0.48436 -3.3646,2.07944 l 0,3.84247 4.42958,0 0,1.37323 -4.42958,0 0,20.12401 c 0,0.88764 -1.1e-4,1.15144 -0.7013,1.15144 z m 113.43097,-0.48603 c -0.0444,0 -0.1238,-1.5e-4 -0.34573,-0.13862 -0.88764,-0.40211 -3.05349,-1.27538 -6.01814,-1.27538 -1.76646,0 -3.80011,0.30525 -5.88606,1.23461 -0.34618,0.12515 -0.44363,0.12558 -0.52352,0.12558 -0.44379,0 -0.44351,-0.34777 -0.44351,-1.05521 l 0,-13.09308 c 0,-0.79001 0,-1.15144 0.6213,-1.15144 0.31071,0 0.39172,0.14009 0.56923,0.40284 0.4881,0.70744 2.12058,3.09387 5.70659,3.09387 2.29904,0 3.40816,-2.03877 3.75434,-2.82966 0.71898,-1.6359 0.80731,-3.35705 0.80731,-5.57614 0,-1.53916 0,-4.20182 -1.07309,-6.06053 -1.04742,-1.72024 -2.68975,-2.87043 -4.73135,-2.87043 -3.23094,0 -5.73428,2.34363 -6.49762,4.9515 0.13308,-0.0416 0.27507,-0.0831 0.76323,-0.0831 1.45575,0 2.20176,1.10898 2.20176,2.16261 0,1.06781 -0.74601,2.16423 -2.20176,2.16423 -0.6302,0 -2.18374,-0.30638 -2.18374,-2.34527 0,-3.79997 3.0541,-8.08451 8.01599,-8.08451 5.12164,0 9.64046,4.24363 9.64046,9.86059 l -0.0101,0.49092 -0.0259,0.48437 -0.054,0.47786 -0.0701,0.47133 -0.0978,0.46481 -0.10764,0.45667 -0.13208,0.44687 -0.14192,0.4371 -0.16958,0.4273 -0.17773,0.41751 -0.19416,0.40448 -0.22182,0.39305 -0.23156,0.38164 -0.23971,0.36533 -0.2659,0.35391 -0.27563,0.3376 -0.2838,0.32456 -0.30164,0.30498 -0.31966,0.2903 -0.32782,0.27237 -0.33768,0.25605 -0.35541,0.23485 -0.36374,0.21692 -0.37348,0.1957 -0.3817,0.17615 -0.39955,0.15494 -0.39786,0.13374 -0.4094,0.10926 -0.42573,0.0865 -0.42572,0.062 -0.43535,0.0391 -0.45342,0.0114 c -2.12148,0 -4.01991,-0.70574 -5.6088,-2.24578 l 0,8.61292 c 0.88759,-0.26273 2.34312,-0.56756 3.75445,-0.56756 5.4412,0 8.52971,4.02182 8.52971,4.60411 0,0.26362 -0.12408,0.48438 -0.44363,0.48438 z m 118.98904,0 c -5.6809,0 -11.7166,-5.71351 -11.7166,-15.47748 0,-11.8171 5.1472,-14.95072 9.3192,-14.95072 4.882,0 9.0548,4.16063 9.0548,9.98617 0,5.61695 -3.9064,9.87363 -8.8771,9.87363 -2.9293,0 -4.6151,-2.25996 -5.5027,-4.3823 l 0,1.05358 c 0,11.19218 5.5033,12.7881 7.7224,12.7881 1.0651,0 2.9295,-0.26444 3.906,-1.77608 -0.6213,0 -2.3974,0.002 -2.3974,-1.98158 0,-1.37317 1.0655,-2.04028 2.0419,-2.04028 0.7102,0 2.0419,0.40322 2.0419,2.12346 0,2.66289 -1.9531,4.7835 -5.5924,4.7835 z m -234.85175,-4.29911 0,-16.49031 -10.78529,0 10.78529,16.49031 z m 232.63205,-7.29515 c 0.7102,0 2.7524,-1.4e-4 4.0838,-2.74647 0.7989,-1.6226 0.7992,-3.88342 0.7992,-6.04748 0,-2.12145 0,-4.33986 -0.711,-5.93495 -1.3315,-2.6487 -3.3734,-2.87043 -4.3497,-2.87043 -2.8405,0 -4.1716,2.64833 -4.4378,3.31405 -0.799,2.08062 -0.7992,5.61675 -0.7992,6.42096 0,3.43958 1.4202,7.86432 5.4147,7.86432 z m -481.18853,-43.16737 0,-79.55498 0,-79.527295 14.73543,0 0,3.051468 -11.68233,0 0,76.516597 0,76.46113 11.68233,0 0,3.05308 -14.73543,0 z m 172.61889,0 0,-3.05308 11.68071,0 0,-76.5019 0,-76.475827 -11.68071,0 0,-3.051468 14.73381,0 0,79.568065 0,79.51421 -14.73381,0 z m 30.27655,0 0,-79.55498 0,-79.527295 14.7338,0 0,3.051468 -11.71657,0 0,76.516597 0,76.46113 11.71657,0 0,3.05308 -14.7338,0 z m 317.50709,0 0,-3.05308 11.6269,0 0,-76.5019 0,-76.475827 -11.6269,0 0,-3.051468 14.7338,0 0,79.568065 0,79.51421 -14.7338,0 z m -269.57578,-7.13693 c -0.35501,0 -0.53218,-1e-5 -0.88725,-0.54148 l -13.58071,-20.73396 0,-1.3765 11.80631,0 0,-3.84411 c 0,-1.58886 -0.0902,-2.07615 -3.37439,-2.07615 l -0.9753,0 0,-1.37651 c 1.86402,0.14203 4.17201,0.14189 6.03609,0.14189 1.86403,0 4.17107,1.4e-4 5.94631,-0.14189 l 0,1.37651 -0.8872,0 c -3.28431,0 -3.37281,0.48729 -3.37281,2.07615 l 0,3.84411 4.43774,0 0,1.3765 -4.43774,0 0,20.12236 c 0,0.88765 0,1.15308 -0.71105,1.15308 z M 620.286,178.04847 c -2.65402,0 -5.88484,-1.15417 -7.7045,-5.2728 -1.41134,-3.05347 -1.63255,-6.50556 -1.63255,-10.03834 0,-3.31976 0.1766,-7.29633 1.99626,-10.6516 1.89953,-3.57716 5.13093,-4.46547 7.29676,-4.46547 2.37887,0 5.74354,0.92351 7.69634,5.13091 1.41135,3.05345 1.63256,6.48886 1.63256,9.98616 l 0,0.6654 -0.008,0.65727 -0.0179,0.66542 -0.0277,0.65726 -0.044,0.66542 -0.0521,0.65727 -0.0719,0.65562 -0.0799,0.64911 -0.10601,0.65564 -0.12558,0.63932 -0.14189,0.64748 -0.16798,0.63117 -0.18594,0.63933 -0.2218,0.62138 -0.24953,0.62138 -0.13211,0.30987 -0.14188,0.31151 c -2.02381,4.25177 -5.65527,4.96129 -7.51042,4.96129 z m 101.6883,0 c -2.75167,-2.83156 -6.63077,-2.83129 -8.0421,-2.83129 l 0,-1.37652 c 0.88763,0 3.48828,5.6e-4 5.77838,1.15471 l 0,-22.90964 c 0,-1.59774 -0.12446,-2.12182 -4.10994,-2.12182 l -1.41075,0 0,-1.37651 c 1.55336,0.14203 5.39573,0.14189 7.15324,0.14189 1.77527,0 5.61945,1.4e-4 7.17282,-0.14189 l 0,1.37651 -1.41239,0 c -3.98548,0 -4.11809,0.48857 -4.11809,2.12182 l 0,24.80967 0,0.0523 0,0.044 0,0.0456 0,0.044 0,0.044 0,0.044 0,0.0359 0,0.044 -0.008,0.0359 0,0.0359 0,0.0359 0,0.0343 0,0.0359 0,0.0359 -0.0101,0.0261 0,0.0359 -0.008,0.0538 -0.0101,0.0523 -0.008,0.044 -0.0101,0.0456 -0.0164,0.044 -0.0179,0.0359 -0.0179,0.0343 -0.0179,0.0359 -0.0261,0.0277 -0.0359,0.0163 -0.0277,0.0277 -0.0343,0.0179 -0.0359,0.0179 -0.0261,0.008 -0.0179,0.008 -0.0277,0 -0.0261,0.0101 -0.0179,0.008 -0.0261,0 -0.0261,0.0101 -0.0359,0 -0.0277,0.008 -0.0261,0 -0.0359,0 -0.0343,0.0101 -0.0359,0 -0.0359,0 -0.0359,0 -0.0359,0.008 -0.044,0 -0.0343,0 -0.0456,0 -0.044,0 -0.044,0 -0.044,0 z m 219.53738,0 c 0,0 -0.0892,1.1e-4 -0.35548,-0.1419 -0.88764,-0.39943 -3.01813,-1.26886 -6.03609,-1.26886 -1.68658,0 -3.72794,0.30097 -5.85837,1.23299 -0.35501,0.12426 -0.44278,0.12393 -0.53156,0.12393 -0.44386,0 -0.44364,-0.34509 -0.44364,-1.0552 l 0,-13.09309 c 0,-0.78999 0,-1.15307 0.62132,-1.15307 0.35506,0 0.4439,0.14055 0.62147,0.39796 0.44379,0.71011 2.12991,3.09875 5.68052,3.09875 2.30782,0 3.3732,-2.04128 3.72822,-2.83127 0.71015,-1.63326 0.79926,-3.35543 0.79926,-5.57452 0,-1.5356 0,-4.19811 -1.06667,-6.06215 -1.06522,-1.71314 -2.66211,-2.86717 -4.70359,-2.86717 -3.19553,0 -5.76958,2.34347 -6.47967,4.95313 0.0888,-0.0443 0.26556,-0.0897 0.70941,-0.0897 1.50895,0 2.21966,1.10959 2.21966,2.16587 0,1.06516 -0.71071,2.16586 -2.21966,2.16586 -0.62142,0 -2.12998,-0.31095 -2.12998,-2.34364 0,-3.79907 3.01752,-8.08613 7.98824,-8.08613 5.14833,0 9.67626,4.24348 9.67626,9.86221 l 0,0.48766 -0.0896,0.48764 0,0.47133 -0.0879,0.47949 -0.0897,0.46156 -0.0879,0.45176 -0.17779,0.4534 -0.17773,0.43546 -0.0879,0.42567 -0.17785,0.41752 -0.2659,0.40773 -0.17767,0.38979 -0.26579,0.38328 -0.17784,0.36369 -0.26741,0.35391 -0.2659,0.33761 -0.35557,0.31966 -0.26584,0.3115 -0.35389,0.29193 -0.26747,0.26585 -0.35384,0.25769 -0.35563,0.23975 -0.35553,0.21363 -0.44363,0.19572 -0.35546,0.17615 -0.354,0.15167 -0.4452,0.13373 -0.35395,0.11416 -0.44357,0.0799 -0.44363,0.0717 -0.4452,0.0359 -0.44368,0.008 c -2.13027,0 -3.99463,-0.70131 -5.59243,-2.24579 l 0,8.61944 c 0.8876,-0.26629 2.30817,-0.57735 3.72834,-0.57735 5.41457,0 8.52154,4.03041 8.52154,4.60737 0,0.26629 -0.0888,0.48765 -0.44363,0.48765 z m 118.67592,0 c -5.6809,0 -11.6269,-5.71678 -11.6269,-15.48077 0,-11.81442 5.0591,-14.94744 9.2311,-14.94744 4.882,0 9.0532,4.16327 9.0532,9.98617 0,5.61872 -3.9047,9.87036 -8.8754,9.87036 -2.9292,0 -4.6151,-2.25524 -5.5027,-4.38556 l 0,1.05684 c 0,11.19308 5.5016,12.79136 7.7207,12.79136 1.0651,0 2.9298,-0.2671 3.9061,-1.77607 -0.6213,0 -2.3958,1.9e-4 -2.3958,-1.98811 0,-1.36696 1.0655,-2.03213 2.0419,-2.03213 0.7101,0 2.0402,0.39982 2.0402,2.12183 0,2.66292 -1.9531,4.78352 -5.5924,4.78352 z m -439.94563,-0.98509 c 1.45572,0 4.37644,-0.79002 5.21081,-5.17493 0.44382,-2.46762 0.44362,-5.84025 0.44362,-8.60966 0,-3.32863 -1.7e-4,-6.33009 -0.47951,-9.15276 -0.66572,-4.2074 -3.19549,-5.53863 -5.17492,-5.53863 -1.72202,0 -4.34089,1.1098 -5.1309,5.35269 -0.48819,2.65403 -0.48764,6.72017 -0.48764,9.3387 0,2.83156 -2.4e-4,5.74315 0.3637,8.12201 0.8255,5.27255 4.1453,5.66258 5.25484,5.66258 z m 205.16734,-3.32056 0,-16.48215 -10.82937,0 10.82937,16.48215 z m 232.56029,-7.28699 c 0.7101,0 2.7508,3e-4 4.0822,-2.75138 0.7989,-1.62436 0.7992,-3.87837 0.7992,-6.04421 0,-2.12144 0,-4.34045 -0.7095,-5.9382 -1.3315,-2.64515 -3.3734,-2.86717 -4.3497,-2.86717 -2.8405,0 -4.1715,2.64505 -4.4377,3.31078 -0.799,2.08594 -0.7992,5.61811 -0.7992,6.42587 0,3.43514 1.4202,7.86431 5.4147,7.86431 z M 494.88077,126.78027 c -0.7101,0 -0.86902,-0.3064 -1.15305,-0.75022 l -15.37475,-25.8241 -0.16799,-0.270732 -0.16962,-0.25932 -0.16799,-0.24464 -0.15982,-0.23159 -0.16799,-0.22018 -0.15984,-0.20875 -0.1696,-0.19571 -0.168,-0.1843 -0.15982,-0.17289 -0.16799,-0.163082 -0.16963,-0.15331 -0.15982,-0.14352 -0.16799,-0.1321 -0.16962,-0.12396 -0.16797,-0.11416 -0.16799,-0.10602 -0.16962,-0.0978 -0.16798,-0.0897 -0.16962,-0.0816 -0.16799,-0.075 -0.16962,-0.0668 -0.16798,-0.062 -0.17776,-0.0554 -0.16799,-0.0489 -0.17777,-0.0424 -0.16799,-0.0376 -0.17777,-0.0326 -0.17778,-0.0294 -0.35553,-0.044 -0.3637,-0.0294 c -0.54145,-0.0416 -0.93125,-0.0413 -0.93125,-0.887222 0,-0.26364 0.22138,-0.48602 0.56755,-0.48602 1.19832,0 2.5744,0.13864 3.80822,0.13864 1.45572,0 3.00847,-0.13864 4.41981,-0.13864 0.26629,0 0.84319,5.4e-4 0.84319,0.84645 0,0.485532 -0.3995,0.526792 -0.7013,0.526792 -1.02966,0.0834 -2.08595,0.44425 -2.08595,1.53959 0,0.541462 0.26705,1.026012 0.61323,1.635842 l 3.37276,5.673982 11.09518,0 c 0.0976,-0.92935 0.7013,-6.949172 0.7013,-7.392994 0,-1.33146 -2.299,-1.45642 -3.16889,-1.45642 -0.63022,0 -1.07478,4.1e-4 -1.07478,-0.887222 0,-0.48554 0.53352,-0.48602 0.63117,-0.48602 1.80191,0 3.71063,0.13864 5.51254,0.13864 1.10954,0 3.90555,-0.13864 5.01509,-0.13864 0.25742,0 0.78937,-4.1e-4 0.78937,0.88723 0,0.485532 -0.44308,0.486012 -1.01118,0.486012 -2.75167,0 -2.75196,0.30532 -2.8851,1.59505 l -2.69918,27.627914 c -0.0976,0.88762 -0.0975,1.06825 -0.8432,1.06825 z m 230.81204,-1.29333 c -0.40832,0 -0.53217,-5.6e-4 -0.88722,-0.54145 l -13.58072,-20.7356 0,-1.37163 11.7606,0 0,-3.842452 c 0,-1.595082 -0.0884,-2.081072 -3.35482,-2.081072 l -0.93289,0 0,-1.371612 c 1.81966,0.13848 4.11893,0.13863 5.97408,0.13863 1.86405,0 4.20808,-1.5e-4 6.00998,-0.13863 l 0,1.371612 -0.93289,0 c -3.27538,0 -3.35483,0.48599 -3.35483,2.081072 l 0,3.842452 4.42959,0 0,1.37163 -4.42959,0 0,20.12563 c 0,0.88762 -6e-5,1.15142 -0.70129,1.15142 z m 224.96183,0 c -0.44374,0 -0.53213,-5.6e-4 -0.88715,-0.54145 l -13.58076,-20.7356 0,-1.37163 11.71662,0 0,-3.842452 c 0,-1.595082 -0.0902,-2.081072 -3.37444,-2.081072 l -0.88715,0 0,-1.371612 c 1.77525,0.13848 4.08391,0.13863 5.94795,0.13863 1.86402,0 4.17201,-1.5e-4 6.03609,-0.13863 l 0,1.371612 -0.97699,0 c -3.2842,0 -3.28471,0.48599 -3.28471,2.081072 l 0,3.842452 4.34975,0 0,1.37163 -4.34975,0 0,20.12563 c 0,0.88762 0,1.15142 -0.70946,1.15142 z m -537.50613,-0.16308 c -0.83437,0 -1.27865,-5.6e-4 -1.27865,-0.88885 0,-0.48554 0.38972,-0.48439 1.23298,-0.48439 0.0799,0 0.93262,-5.7e-4 1.67822,-0.0831 0.79,-0.0976 1.18895,-0.13973 1.18895,-0.70781 0,-0.18019 -0.0358,-0.32009 -0.17777,-0.84646 l -5.92027,-23.743022 -0.044,-0.15984 -0.0359,-0.15004 -0.044,-0.141902 -0.0359,-0.137 -0.0359,-0.1272 -0.044,-0.1207 -0.044,-0.11416 -0.044,-0.10601 -0.044,-0.10112 -0.0538,-0.093 -0.062,-0.0881 -0.062,-0.0816 -0.0717,-0.0767 -0.0701,-0.0701 -0.0897,-0.0652 -0.0881,-0.0587 -0.0978,-0.0538 -0.1158,-0.0506 -0.1158,-0.044 -0.1321,-0.0391 -0.14189,-0.0376 -0.0799,-0.0164 -0.0799,-0.0146 -0.0799,-0.0146 -0.0897,-0.0131 -0.0881,-0.0131 -0.0881,-0.0114 -0.0978,-0.0114 -0.10765,-0.0101 -0.0962,-0.008 -0.1158,-0.008 -0.10764,-0.008 -0.11416,-0.006 -0.12558,-0.006 -0.12395,-0.006 -0.12396,-0.006 -0.13373,-0.003 -0.14189,-0.003 -0.14189,-0.002 -0.15005,-0.002 -0.15168,-0.002 -0.15004,-0.002 -0.15983,0 c -0.75449,0 -1.19873,4.1e-4 -1.19873,-0.887212 0,-0.48554 0.40873,-0.48601 1.19873,-0.48601 l 15.78249,0 c 6.98568,0 12.20421,5.214186 12.20421,9.555596 0,3.17596 -2.56588,5.74134 -6.85316,6.22687 4.60683,0.84592 9.25063,4.12055 9.25063,8.32263 0,3.27359 -2.92975,6.10292 -8.23782,6.10292 l -14.84958,0 z m 206.56015,-0.32293 c -5.00626,0 -8.27206,-4.07757 -8.27206,-8.016 0,-2.46852 2.21937,-2.46923 2.34364,-2.46923 0.76336,0 2.29798,0.52667 2.29798,2.34364 0,1.15126 -0.78866,2.30288 -2.34201,2.30288 -0.34618,0 -0.44493,-5.5e-4 -0.5692,-0.0424 1.0119,2.87061 3.40067,4.50788 5.96592,4.50788 4.021,0 5.92843,-3.59218 5.92843,-7.21197 0,-3.53633 -2.21837,-7.03194 -4.64162,-9.77739 l -8.48571,-9.459374 c -0.49707,-0.48553 -0.49743,-0.568 -0.49743,-1.635822 l 16.40386,0 1.25091,7.696356 -1.10902,0 c -0.22191,-1.33146 -0.5331,-3.272972 -0.97693,-3.938692 -0.31953,-0.34706 -3.23048,-0.34739 -4.198,-0.34739 l -7.96219,0 4.68729,4.550292 c 6.89693,6.10249 9.55885,8.48808 9.55885,12.91203 0,5.04889 -3.98589,8.58522 -9.38271,8.58522 z m 193.27298,0 c -2.75168,-2.82889 -6.56812,-2.82966 -7.98829,-2.82966 l 0,-1.37323 c 0.88765,0 3.46239,1.7e-4 5.77026,1.15144 l 0,-22.911262 c 0,-1.595082 -0.0896,-2.123482 -4.08386,-2.123482 l -1.42056,0 0,-1.371612 c 1.50895,0.13848 5.41451,0.13863 7.10104,0.13863 1.77535,0 5.68176,-1.5e-4 7.19077,-0.13863 l 0,1.371612 -1.42057,0 c -3.99434,0 -4.0838,0.48667 -4.0838,2.123482 l 0,24.811292 0,0.0489 0,0.0473 0,0.0456 0,0.044 0,0.044 0,0.0424 0,0.0407 0,0.0391 0,0.0392 0,0.0359 0,0.0359 0,0.0343 0,0.0343 0,0.0325 0,0.0309 0,0.0294 0,0.0571 -0.0881,0.0521 0,0.0489 0,0.044 0,0.0424 0,0.0376 0,0.0326 -0.0881,0.031 0,0.0277 0,0.0261 -0.0898,0.0213 0,0.0196 0,0.0164 -0.0881,0.008 0,0.006 0,0.008 0,0.006 -0.0898,0.006 0,0.003 0,0.006 -0.088,0.003 0,0.003 0,0.003 -0.0898,0.003 0,0.002 0,0.003 -0.0881,0.002 0,0.002 -0.0881,0.002 0,0.002 -0.0896,0 -0.0881,0.002 -0.0898,0 z m 21.21505,0 c -4.34941,0 -7.98824,-3.27348 -7.98824,-7.39299 0,-0.79089 0.0881,-2.78696 1.9522,-4.86668 0.53263,-0.52726 2.13077,-1.63689 3.2847,-2.38605 -2.57417,-1.27553 -6.39162,-3.75844 -6.39162,-8.14158 0,-4.687614 4.52726,-7.642546 9.14296,-7.642546 4.97077,0 9.23106,3.675594 9.23106,8.405816 0,1.58088 -0.53319,3.5788 -2.21965,5.4375 -0.79887,0.92848 -1.50761,1.37106 -4.34806,3.13301 l 0.26584,0.15657 0.26583,0.1582 0.35558,0.1631 0.26584,0.16635 0.26578,0.17126 0.26753,0.17612 0.26584,0.17779 0.17773,0.18266 0.26584,0.18593 0.26584,0.18917 0.17779,0.1941 0.26748,0.19733 0.17609,0.20223 0.1778,0.20552 0.17778,0.20874 0.26584,0.21202 0.0898,0.21691 0.17773,0.22018 0.17616,0.22343 0.17773,0.2267 0.0897,0.2316 0.0881,0.23648 0.17779,0.23812 0.088,0.24137 0.0898,0.24628 0.0881,0.24953 0,0.25278 0.0898,0.25771 0.088,0.26093 0,0.26258 0,0.2691 0,0.27074 c 0,4.07691 -3.9051,6.60199 -7.98829,6.60199 z m 89.02906,0 c -4.97071,0 -8.25413,-4.07757 -8.25413,-8.016 0,-2.46852 2.21899,-2.46923 2.30778,-2.46923 0.79886,0 2.30776,0.52667 2.30776,2.34364 0,1.15126 -0.79876,2.30288 -2.30776,2.30288 -0.35502,0 -0.44454,-5.5e-4 -0.53332,-0.0424 0.97649,2.87061 3.37383,4.50788 5.94799,4.50788 3.99435,0 5.94636,-3.59218 5.94636,-7.21197 0,-3.53633 -2.21819,-7.03194 -4.70358,-9.77739 l -8.43355,-9.459384 c -0.53258,-0.48553 -0.53168,-0.568 -0.53168,-1.635832 l 16.42179,0 1.24278,7.696356 -1.15468,0 c -0.17756,-1.33145 -0.53212,-3.272962 -0.8872,-3.938682 -0.35513,-0.34706 -3.28521,-0.3474 -4.26164,-0.3474 l -7.98823,0 4.70516,4.550292 c 6.92352,6.10249 9.58659,8.48809 9.58659,12.91204 0,5.04889 -3.99581,8.58521 -9.41044,8.58521 z m 124.44775,0 c -2.7516,-2.82889 -6.6578,-2.82966 -8.0781,-2.82966 l 0,-1.37323 c 0.8878,0 3.5497,1.7e-4 5.7688,1.15144 l 0,-22.911262 c 0,-1.595082 -0.088,-2.123482 -4.0823,-2.123482 l -1.4205,0 0,-1.371612 c 1.5977,0.13848 5.4155,0.13863 7.1907,0.13863 1.7753,0 5.5914,-1.5e-4 7.1891,-0.13863 l 0,1.371612 -1.4205,0 c -3.9943,0 -4.172,0.48667 -4.172,2.123482 l 0,24.811292 0,0.0489 0,0.0473 0,0.0456 0,0.044 0,0.044 0,0.0424 0,0.0407 0,0.0391 0,0.0392 0,0.0359 0,0.0359 0,0.0343 0,0.0343 0,0.0325 0,0.0309 0,0.0294 0,0.0571 0,0.0521 0,0.0489 0,0.044 0,0.0424 -0.088,0.0376 0,0.0326 0,0.031 0,0.0277 -0.09,0.0261 0,0.0213 0,0.0196 -0.088,0.0164 0,0.008 0,0.006 -0.088,0.008 0,0.006 0,0.006 -0.09,0.003 0,0.006 0,0.003 0,0.003 -0.088,0.003 0,0.003 -0.09,0.002 0,0.003 0,0.002 -0.088,0.002 0,0.002 -0.09,0.002 -0.088,0 0,0.002 -0.088,0 z m 21.0357,0 c -4.4382,0 -7.8105,-2.6636 -7.8105,-6.01974 0,-1.45662 0.977,-2.30124 2.2197,-2.30124 1.4203,0 2.3077,0.97072 2.3077,2.26047 0,2.20487 -2.1316,2.20501 -2.753,2.20501 1.3315,2.16404 4.2606,2.74648 5.8583,2.74648 1.7753,0 4.2616,-0.97134 4.2616,-4.95149 0,-0.54057 -0.089,-3.09301 -1.2427,-5.04935 -1.3315,-2.12146 -2.8409,-2.24622 -3.906,-2.30125 -0.3551,-0.0418 -1.4195,-0.12557 -1.7746,-0.12557 -0.355,-0.0416 -0.6213,-0.083 -0.6213,-0.5268 0,-0.48553 0.2662,-0.48602 1.065,-0.48602 l 1.8641,0 c 3.6394,0 5.325,-3.00916 5.325,-7.35058 0,-6.004854 -3.1063,-7.295146 -5.059,-7.295146 -1.8641,0 -5.1479,0.748582 -6.7456,3.356444 1.5977,-0.20859 2.9291,0.76299 2.9291,2.441512 0,1.59507 -1.1541,2.46921 -2.4855,2.46921 -1.0652,0 -2.4855,-0.61161 -2.4855,-2.56707 0,-4.021874 4.172,-6.934716 8.9652,-6.934716 5.4145,0 9.4087,4.022344 9.4087,8.529766 0,3.63398 -2.7511,7.0736 -7.3668,8.00296 l 0.3539,0.11742 0.3555,0.12884 0.2658,0.13863 0.3556,0.14842 0.2658,0.15983 0.3557,0.16961 0.2658,0.17941 0.2674,0.18755 0.2658,0.19735 0.2658,0.20548 0.2659,0.21366 0.2676,0.22343 0.2657,0.22997 0.1779,0.23812 0.2657,0.24464 0.1778,0.25116 0.1778,0.25931 0.2658,0.26422 0.1778,0.27236 0.088,0.27726 0.1777,0.28214 0.1778,0.28869 0.088,0.29356 0.1778,0.29846 0.09,0.30335 0.088,0.30662 0.09,0.31151 0,0.31313 0.088,0.31966 0,0.31967 0.088,0.32454 0,0.32619 c 0,3.61978 -3.9055,6.10293 -8.166,6.10293 z m -647.0228,-1.05031 5.69846,0 c 3.88784,0 4.81125,-2.60815 4.81125,-4.55029 0,-3.89672 -3.79836,-8.09918 -9.19518,-8.09918 l -6.44542,0 2.73507,10.97124 c 0.39943,1.53916 0.47853,1.67823 2.39582,1.67823 z m 412.51029,-0.0587 c 3.19553,0 6.0361,-2.30369 6.0361,-5.49296 0,-2.51111 -1.6868,-4.63274 -4.34969,-6.1861 l -5.50274,3.53749 c -2.04159,1.33144 -2.21971,2.82996 -2.21971,3.57824 0,2.70463 2.92934,4.56333 6.03604,4.56333 z m -341.82754,-2.59154 1.42053,-14.60333 -10.14599,0 8.72546,14.60333 z m 230.89194,-0.59855 0,-16.49192 -10.79347,0 10.79347,16.49192 z m 224.90799,0 0,-16.49192 -10.74127,0 10.74127,16.49192 z m -428.31881,-9.35834 c -0.63023,0 -1.45642,-5.5e-4 -1.45642,-0.88884 0,-0.87343 0.82658,-0.87254 1.4923,-0.87254 l 26.40632,0 0.12559,0 0.13211,0.002 0.12394,0.003 0.062,0.003 0.0718,0.004 0.062,0.006 0.062,0.006 0.062,0.0101 0.062,0.0101 0.062,0.0131 0.0538,0.0131 0.062,0.0179 0.0538,0.0196 0.0538,0.0213 0.0522,0.0245 0.0538,0.0278 0.044,0.0294 0.044,0.0343 0.044,0.0375 0.0359,0.0391 0.0359,0.0457 0.0179,0.0228 0.0179,0.0245 0.008,0.0261 0.0179,0.0261 0.0101,0.0277 0.008,0.0277 0.0179,0.031 0.008,0.0294 0.0101,0.0326 0.008,0.0343 0,0.0325 0.0101,0.0359 0,0.0359 0.008,0.0392 0,0.0391 0,0.0391 c 0,0.88762 -0.84231,0.88885 -1.4548,0.88885 l -26.48786,0 z m -103.56059,-1.0128 8.3536,0 c 4.24289,0 5.08523,-3.27376 5.08523,-5.17329 0,-4.38314 -3.93183,-8.668384 -9.15113,-8.668384 l -6.01813,0 c -0.61247,0 -0.70973,5.5e-4 -0.96713,0.0424 -0.44382,0.0416 -0.57735,0.0832 -0.57735,0.44361 0,0.12428 -10e-5,0.22119 0.2218,1.01117 l 3.05311,12.344494 z m 416.13098,-0.64095 5.41463,-3.43962 c 1.24271,-0.84592 3.37281,-2.1779 3.37281,-4.86831 0,-3.273614 -3.37209,-5.576156 -7.01141,-5.576156 -3.72806,0 -6.9233,2.746424 -6.9233,6.407926 0,2.56614 1.41922,5.39554 5.14727,7.47616 z M 454.53002,108.5139 c -1.2782,0 -2.34364,-1.05391 -2.34364,-2.34365 0,-1.27553 1.06544,-2.34364 2.34364,-2.34364 1.28708,0 2.342,1.06811 2.342,2.34364 l 0,0.12069 -0.008,0.11743 -0.0179,0.11742 -0.0179,0.11579 -0.0261,0.11255 -0.0359,0.11089 -0.0359,0.10928 -0.044,0.10601 -0.044,0.10439 -0.0538,0.10111 -0.0523,0.0978 -0.0637,0.0946 -0.0701,0.0913 -0.062,0.0897 -0.0799,0.0848 -0.0717,0.0816 -0.0881,0.0783 -0.0799,0.0735 -0.0897,0.0701 -0.0962,0.0637 -0.0897,0.062 -0.0978,0.0571 -0.10601,0.0521 -0.0978,0.0473 -0.10602,0.0407 -0.1158,0.0376 -0.106,0.031 -0.1158,0.0277 -0.11579,0.0196 -0.11579,0.0146 -0.11417,0.0101 -0.12395,0.003 z m 65.35613,-5.74251 c -0.66572,0 -1.4923,4.2e-4 -1.4923,-0.88722 0,-0.88762 0.82619,-0.88722 1.45642,-0.88722 l 26.48787,0 0.062,0 0.0523,0 0.12395,0.002 0.12558,0.006 0.062,0.003 0.062,0.003 0.062,0.006 0.0538,0.008 0.062,0.008 0.062,0.0114 0.062,0.0114 0.0538,0.0146 0.062,0.0179 0.0522,0.0197 0.0538,0.0213 0.044,0.0261 0.0538,0.0261 0.044,0.0326 0.044,0.0343 0.044,0.0376 0.0359,0.0407 0.0179,0.0213 0.0179,0.0228 0.0179,0.0245 0.0179,0.0245 0.008,0.0261 0.0179,0.0261 0.0101,0.0294 0.008,0.0294 0.0179,0.0294 0.008,0.031 0.0101,0.0343 0.008,0.0327 0,0.0343 0.0101,0.0359 0,0.0376 0.008,0.0376 0,0.0408 0,0.0407 c 0,0.88763 -0.84359,0.88723 -1.50045,0.88723 l -26.40633,0 z M 638.46431,71.95827 c -2.75166,-2.828904 -6.62913,-2.829664 -8.04046,-2.829664 l 0,-1.373232 c 0.88763,0 3.48827,1.7e-4 5.77838,1.151422 l 0,-22.912891 c 0,-1.59499 -0.1252,-2.12184 -4.10178,-2.12184 l -1.42055,0 0,-1.373239 c 1.55336,0.138741 5.39664,0.138631 7.16303,0.138631 1.77528,0 5.61129,1.1e-4 7.16466,-0.138631 l 0,1.373239 -1.41238,0 c -3.9766,0 -4.11809,0.485306 -4.11809,2.12184 l 0,24.812923 0,0.049 0,0.0456 0,0.0473 0,0.044 0,0.044 0,0.0424 0,0.0408 0,0.0391 0,0.0375 0,0.0375 -0.0101,0.0359 0,0.0343 0,0.0343 0,0.031 0,0.031 -0.008,0.031 -0.008,0.0571 0,0.0522 -0.0179,0.049 -0.0101,0.044 -0.0179,0.0408 -0.0179,0.0375 -0.0164,0.0343 -0.0179,0.031 -0.0277,0.0277 -0.0261,0.0244 -0.0359,0.0229 -0.0359,0.0196 -0.0343,0.0162 -0.0277,0.008 -0.0164,0.006 -0.0277,0.007 -0.0179,0.006 -0.0261,0.005 -0.0261,0.005 -0.0277,0.005 -0.0261,0.003 -0.0359,0.005 -0.0261,0.003 -0.0359,0.003 -0.0359,0.001 -0.0261,0.003 -0.0359,0.001 -0.044,10e-4 -0.0359,0.001 -0.0343,0 -0.0457,0.001 -0.044,0 -0.044,10e-4 -0.044,0 -0.0457,0 z m 99.15871,0 c -5.00624,0 -8.28181,-4.079216 -8.28181,-8.017643 0,-2.468509 2.21931,-2.467591 2.34361,-2.467591 0.76335,0 2.29797,0.52754 2.29797,2.34364 0,1.151263 -0.78867,2.301231 -2.34199,2.301231 -0.34618,0 -0.44492,5.64e-4 -0.56923,-0.04081 1.0119,2.871499 3.40068,4.507891 5.96596,4.507891 4.02097,0 5.93819,-3.592194 5.93819,-7.211968 0,-3.536341 -2.21927,-7.032874 -4.6514,-9.779045 l -8.48571,-9.457721 c -0.49705,-0.485448 -0.4974,-0.569536 -0.4974,-1.637453 l 16.40381,0 1.25094,7.697975 -1.10901,0 c -0.22193,-1.331448 -0.53314,-3.27296 -0.97695,-3.938691 -0.31065,-0.346707 -3.23048,-0.347383 -4.19802,-0.347383 l -7.96217,0 4.68726,4.550285 c 6.89696,6.102515 9.55889,8.48808 9.55889,12.912049 0,5.04887 -3.985,8.585204 -9.37294,8.585204 z m 102.78756,0 c -2.39666,0 -4.52692,-0.804282 -6.47967,-2.787264 -1.7753,-1.997162 -2.84108,-3.856756 -2.84108,-7.171179 0,-5.520479 3.90635,-9.860591 8.87713,-9.860591 2.66289,0 4.52629,1.857191 5.50273,4.423073 l 0,-1.414014 c 0,-10.346453 -4.52693,-12.385256 -7.10104,-12.385256 -0.79887,0 -3.19581,0.09717 -4.34969,1.595041 1.95281,0 2.30777,1.275916 2.30777,2.038662 0,1.359234 -1.06556,2.023984 -2.04193,2.023984 -0.71009,0 -2.0403,-0.388202 -2.0403,-2.121841 0,-2.954227 2.39604,-4.770461 6.12415,-4.770461 5.68086,0 11.09515,6.00561 11.09515,15.519905 0,11.900257 -5.05888,14.909941 -9.05322,14.909941 z m 101.63446,0 c -2.75162,-2.828904 -6.6578,-2.829664 -8.07797,-2.829664 l 0,-1.373232 c 0.88759,0 3.46238,1.7e-4 5.77026,1.151422 l 0,-22.912891 c 0,-1.59499 -0.0895,-2.12184 -4.08386,-2.12184 l -1.42056,0 0,-1.373239 c 1.50901,0.138741 5.41451,0.138631 7.10104,0.138631 1.7753,0 5.68175,1.1e-4 7.19076,-0.138631 l 0,1.373239 -1.42056,0 c -3.9944,0 -4.08386,0.485306 -4.08386,2.12184 l 0,24.812923 0,0.049 0,0.0456 0,0.0473 0,0.044 0,0.044 0,0.0424 0,0.0408 0,0.0391 0,0.0375 0,0.0375 0,0.0359 0,0.0343 0,0.0343 0,0.031 0,0.031 0,0.031 0,0.0571 0,0.0522 -0.0879,0.049 0,0.044 0,0.0408 0,0.0375 0,0.0343 -0.0898,0.031 0,0.0277 0,0.0244 0,0.0229 -0.0879,0.0196 0,0.0162 -0.0879,0.008 0,0.006 0,0.007 0,0.006 -0.0897,0.005 0,0.005 0,0.005 -0.0879,0.003 0,0.005 0,0.003 -0.0897,0.003 0,0.001 0,0.003 -0.0879,0.001 0,10e-4 -0.0898,0.001 0,0.001 -0.0879,0 0,10e-4 -0.0879,0 z m 20.59212,0 c -4.97078,0 -8.25413,-4.079216 -8.25413,-8.017643 0,-2.468509 2.21892,-2.467591 2.3077,-2.467591 0.79894,0 2.30783,0.52754 2.30783,2.34364 0,1.151263 -0.79881,2.301231 -2.30783,2.301231 -0.35501,0 -0.44446,5.64e-4 -0.53336,-0.04081 0.97637,2.871499 3.37394,4.507891 5.94805,4.507891 3.9944,0 5.85836,-3.592194 5.85836,-7.211968 0,-3.536341 -2.21898,-7.032874 -4.61558,-9.779045 l -8.4335,-9.457742 c -0.53258,-0.485447 -0.53167,-0.569535 -0.53167,-1.637453 l 16.42015,0 1.24277,7.697973 -1.15309,0 c -0.17757,-1.331441 -0.53314,-3.272958 -0.97699,-3.938689 -0.26624,-0.346706 -3.19542,-0.347383 -4.17185,-0.347383 l -7.98824,0 4.70359,4.550289 c 6.92352,6.102515 9.58658,8.488075 9.58658,12.91205 0,5.048866 -3.99423,8.5852 -9.40879,8.5852 z m 102.16764,0 c -2.7517,-2.828904 -6.6579,-2.829664 -8.078,-2.829664 l 0,-1.373232 c 0.8877,0 3.5504,1.7e-4 5.8582,1.151422 l 0,-22.912891 c 0,-1.59499 -0.1774,-2.12184 -4.1719,-2.12184 l -1.4205,0 0,-1.373239 c 1.5978,0.138741 5.4156,0.138631 7.1908,0.138631 1.7753,0 5.5914,1.1e-4 7.1891,-0.138631 l 0,1.373239 -1.4205,0 c -3.9943,0 -4.172,0.485306 -4.172,2.12184 l 0,24.812923 0,0.049 0,0.0456 0,0.0473 0,0.044 0,0.044 0,0.0424 0,0.0408 0,0.0391 0,0.0375 0,0.0375 0,0.0359 0,0.0343 0,0.0343 0,0.031 0,0.031 0,0.031 0,0.0571 0,0.0522 0,0.049 0,0.044 0,0.0408 -0.088,0.0375 0,0.0343 0,0.031 0,0.0277 -0.09,0.0244 0,0.0229 0,0.0196 -0.088,0.0162 0,0.008 0,0.006 -0.088,0.007 0,0.006 0,0.005 0,0.005 -0.09,0.005 0,0.003 0,0.005 -0.088,0.003 0,0.003 0,0.001 -0.09,0.003 0,0.001 -0.088,10e-4 0,0.001 -0.09,0 0,0.001 -0.088,10e-4 -0.088,0 z m 27.8709,0 c -0.089,0 -0.178,-1.6e-4 -0.3555,-0.13864 -0.8877,-0.402092 -3.0164,-1.277012 -6.0345,-1.277012 -1.7752,0 -3.8184,0.30525 -5.8599,1.23462 -0.3551,0.125152 -0.4429,0.125572 -0.5316,0.125572 -0.4439,0 -0.4437,-0.347752 -0.4437,-1.055202 l 0,-13.091455 c 0,-0.790525 0,-1.15144 0.6214,-1.15144 0.2662,0 0.3541,0.137671 0.5316,0.401213 0.5326,0.707265 2.1309,3.093872 5.7703,3.093872 2.2191,0 3.3732,-2.039051 3.7282,-2.829671 0.7101,-1.636526 0.7992,-3.357049 0.7992,-5.576135 0,-1.53949 3e-4,-4.202084 -1.0649,-6.060522 -1.0652,-1.719796 -2.6637,-2.870431 -4.7052,-2.870431 -3.2843,0 -5.769,2.344067 -6.5678,4.951496 0.1776,-0.04164 0.2649,-0.08318 0.7975,-0.08318 1.4202,0 2.2197,1.108542 2.2197,2.162608 0,1.067905 -0.7995,2.164241 -2.2197,2.164241 -0.6214,0 -2.218,-0.304836 -2.218,-2.34364 0,-3.800152 3.1056,-8.086143 8.0763,-8.086143 5.0595,0 9.5867,4.243504 9.5867,9.860594 l 0,0.490906 0,0.484377 -0.088,0.479496 0,0.471344 -0.09,0.463174 -0.1761,0.456661 -0.09,0.446883 -0.1779,0.43708 -0.1778,0.428934 -0.176,0.415884 -0.1779,0.406106 -0.1776,0.39305 -0.2659,0.380006 -0.2676,0.366961 -0.2658,0.352285 -0.2658,0.339229 -0.2659,0.322926 -0.2674,0.306615 -0.3539,0.2903 -0.3555,0.272365 -0.3556,0.254427 -0.3556,0.236479 -0.3539,0.21529 -0.3555,0.197335 -0.3555,0.174512 -0.4436,0.156571 -0.3539,0.132103 -0.4452,0.109274 -0.4437,0.08807 -0.354,0.06198 -0.4452,0.03749 -0.4435,0.01306 c -2.1304,0 -4.083,-0.707643 -5.6806,-2.247421 l 0,8.612937 c 0.8876,-0.26275 2.3962,-0.56757 3.8164,-0.56757 5.4145,0 8.5216,4.021814 8.5216,4.604114 0,0.26363 -0.1774,0.486012 -0.4437,0.486012 z M 840.41058,70.847608 c 2.04153,0 3.54987,-1.512112 4.25996,-3.495094 0.53257,-1.414887 0.70941,-4.201905 0.70941,-6.239915 0,-3.661941 -1.50811,-7.96219 -5.32494,-7.96219 -0.79882,0 -2.75168,0.0011 -4.17191,2.788889 -0.79888,1.636622 -0.79916,3.855692 -0.79916,6.019753 0,2.385078 5.7e-4,4.464493 0.97695,6.101295 1.15387,2.204892 2.84073,2.787262 4.34969,2.787262 z M 597.29647,54.440472 c -0.75449,0 -1.5445,4.17e-4 -1.5445,-0.887222 0,-0.887634 0.79001,-0.887229 1.5445,-0.887229 l 23.92242,0 0.14189,0 0.14189,0.0017 0.13211,0.0034 0.0717,0.0034 0.0719,0.005 0.062,0.0064 0.0701,0.0064 0.062,0.0098 0.062,0.0098 0.062,0.01306 0.0637,0.01469 0.062,0.01796 0.0522,0.01959 0.0538,0.02122 0.0538,0.02612 0.0523,0.0277 0.044,0.03097 0.0457,0.03423 0.0343,0.0375 0.0457,0.04076 0.0261,0.04402 0.0179,0.02449 0.0179,0.02444 0.008,0.02612 0.0179,0.02775 0.0101,0.0277 0.0164,0.02933 0.0101,0.02938 0.008,0.03097 0.0101,0.03265 0.008,0.03423 0,0.03423 0.0101,0.03586 0,0.0375 0.008,0.03749 0,0.04076 0,0.04076 c 0,0.887645 -0.80702,0.887228 -1.55265,0.887228 l -23.92242,0 z m 100.64939,0 c -0.74563,0 -1.53634,4.17e-4 -1.53634,-0.887222 0,-0.887634 0.79071,-0.887229 1.53634,-0.887229 l 23.9208,0 0.14189,0 0.14353,0.0017 0.14188,0.0034 0.0701,0.0034 0.062,0.005 0.0719,0.0064 0.062,0.0064 0.0701,0.0098 0.0637,0.0098 0.062,0.01306 0.062,0.01469 0.0522,0.01796 0.062,0.01959 0.0538,0.02122 0.044,0.02612 0.0538,0.0277 0.044,0.03097 0.044,0.03423 0.0457,0.0375 0.0343,0.04076 0.0359,0.04402 0.0179,0.02449 0.008,0.02444 0.0179,0.02612 0.0101,0.02775 0.0179,0.0277 0.008,0.02933 0.0101,0.02938 0.008,0.03097 0.008,0.03265 0.0101,0.03423 0.008,0.03423 0,0.03586 0.0101,0.0375 0,0.03749 0,0.04076 0,0.04076 c 0,0.887645 -0.79978,0.887228 -1.55428,0.887228 l -23.9208,0 z m 102.16612,0 c -0.79887,0 -1.5983,4.17e-4 -1.5983,-0.887222 0,-0.887634 0.79943,-0.887229 1.5983,-0.887229 l 23.87682,0 0.17773,0 0.0881,0.0017 0.17774,0.0034 0.0898,0.0034 0,0.005 0.0881,0.0064 0.0881,0.0064 0.0898,0.0098 0,0.0098 0.088,0.01306 0.0898,0.01469 0,0.01796 0.0881,0.01959 0.0897,0.02122 0,0.02612 0.088,0.0277 0,0.03097 0.0881,0.03423 0,0.0375 0.0897,0.04076 0,0.04402 0,0.02449 0,0.02444 0.0881,0.02612 0,0.02775 0,0.0277 0,0.02933 0,0.02938 0,0.03097 0,0.03265 0,0.03423 0,0.03423 0,0.03586 0.0896,0.0375 0,0.03749 0,0.04076 0,0.04076 c 0,0.887645 -0.79944,0.887228 -1.59831,0.887228 l -23.87681,0 z m 100.74563,0 c -0.79886,0 -1.59667,4.17e-4 -1.59667,-0.887222 0,-0.887634 0.79781,-0.887229 1.59667,-0.887229 l 23.8784,0 0.17779,0 0.0879,0.0017 0.17786,0.0034 0.0879,0.0034 0.0898,0.005 0,0.0064 0.0878,0.0064 0.0879,0.0098 0,0.0098 0.0897,0.01306 0.0879,0.01469 0.0897,0.01796 0,0.01959 0.0879,0.02122 0,0.02612 0.0898,0.0277 0,0.03097 0.0879,0.03423 0,0.0375 0.0879,0.04076 0,0.04402 0,0.02449 0.0898,0.02444 0,0.02612 0,0.02775 0,0.0277 0,0.02933 0,0.02938 0,0.03097 0,0.03265 0,0.03423 0.0879,0.03423 0,0.03586 0,0.0375 0,0.03749 0,0.04076 0,0.04076 c 0,0.887645 -0.79787,0.887228 -1.59668,0.887228 l -23.87845,0 z m 122.75969,0 c -0.7101,0 -1.5085,4.17e-4 -1.5085,-0.887222 0,-0.887634 0.7984,-0.887229 1.5085,-0.887229 l 23.9665,0 0.09,0 0.1762,0.0017 0.09,0.0034 0.088,0.0034 0.09,0.005 0.088,0.0064 0.09,0.0064 0,0.0098 0.088,0.0098 0.088,0.01306 0,0.01469 0.09,0.01796 0.088,0.01959 0,0.02122 0.09,0.02612 0,0.0277 0.088,0.03097 0,0.03423 0.088,0.0375 0,0.04076 0.09,0.04402 0,0.02449 0,0.02444 0,0.02612 0,0.02775 0,0.0277 0.088,0.02933 0,0.02938 0,0.03097 0,0.03265 0,0.03423 0,0.03423 0,0.03586 0,0.0375 0,0.03749 0,0.04076 0,0.04076 c 0,0.887645 -0.7985,0.887228 -1.5086,0.887228 l -23.9664,0 z"
           id="polygon4581"
           inkscape:connector-curvature="0" /></g>    </g>
  </g>
</svg>
