<?xml version="1.0" encoding="UTF-8" standalone="no"?>
<!-- Created with Inkscape (http://www.inkscape.org/) -->

<svg
   xmlns:dc="http://purl.org/dc/elements/1.1/"
   xmlns:cc="http://creativecommons.org/ns#"
   xmlns:rdf="http://www.w3.org/1999/02/22-rdf-syntax-ns#"
   xmlns:svg="http://www.w3.org/2000/svg"
   xmlns="http://www.w3.org/2000/svg"
   xmlns:sodipodi="http://sodipodi.sourceforge.net/DTD/sodipodi-0.dtd"
   xmlns:inkscape="http://www.inkscape.org/namespaces/inkscape"
   inkscape:version="0.91 r13725"
   version="1.1"
   id="svg2"
   viewBox="0 0 800.00001 200"
   height="200"
   width="800"
   sodipodi:docname="permutationen01.svg">
  <sodipodi:namedview
     inkscape:window-maximized="1"
     inkscape:window-y="27"
     inkscape:window-x="0"
     inkscape:window-height="704"
     inkscape:window-width="1366"
     showgrid="false"
     inkscape:current-layer="content"
     inkscape:document-units="px"
     inkscape:cy="248.5869"
     inkscape:cx="449.79669"
     inkscape:zoom="0.7"
     inkscape:pageshadow="2"
     inkscape:pageopacity="0.0"
     borderopacity="1.0"
     bordercolor="#666666"
     pagecolor="#ffffff"
     id="base"
     units="px" />
  <defs
     id="defs4">
    <marker
       inkscape:isstock="true"
       style="overflow:visible"
       id="marker6099"
       refX="0"
       refY="0"
       orient="auto"
       inkscape:stockid="TriangleOutM">
      <path
         inkscape:connector-curvature="0"
         transform="scale(0.4,0.4)"
         style="fill:#000000;fill-opacity:1;fill-rule:evenodd;stroke:#000000;stroke-width:1pt;stroke-opacity:1"
         d="m 5.77,0 -8.65,5 0,-10 8.65,5 z"
         id="path6101" />
    </marker>
    <marker
       inkscape:isstock="true"
       style="overflow:visible"
       id="marker5913"
       refX="0"
       refY="0"
       orient="auto"
       inkscape:stockid="TriangleOutM">
      <path
         inkscape:connector-curvature="0"
         transform="scale(0.4,0.4)"
         style="fill:#000000;fill-opacity:1;fill-rule:evenodd;stroke:#000000;stroke-width:1pt;stroke-opacity:1"
         d="m 5.77,0 -8.65,5 0,-10 8.65,5 z"
         id="path5915" />
    </marker>
  </defs>
  <metadata
     id="metadata7">
    <rdf:RDF>
      <cc:Work
         rdf:about="">
        <dc:format>image/svg+xml</dc:format>
        <dc:type
           rdf:resource="http://purl.org/dc/dcmitype/StillImage" />
        <dc:title></dc:title>
      </cc:Work>
    </rdf:RDF>
  </metadata>
  <g
     transform="translate(0,-852.36216)"
     inkscape:label="Ebene 1"
     inkscape:groupmode="layer"
     id="layer1">
    <g
       id="g8117"
       transform="matrix(2.1798632,0,0,2.1798633,-264.08141,-173.72202)">
      <g
         word-spacing="normal"
         letter-spacing="normal"
         font-size-adjust="none"
         font-stretch="normal"
         font-weight="normal"
         font-variant="normal"
         font-style="normal"
         stroke-miterlimit="10.433"
         xml:space="preserve"
         transform="matrix(0.28571429,0,0,-0.28571429,-50,600)"
         id="content"
         style="font-style:normal;font-variant:normal;font-weight:normal;font-stretch:normal;letter-spacing:normal;word-spacing:normal;text-anchor:start;fill:none;fill-opacity:1;fill-rule:evenodd;stroke:#000000;stroke-width:0.45874438;stroke-linecap:butt;stroke-linejoin:miter;stroke-miterlimit:10.43299961;stroke-dasharray:none;stroke-dashoffset:0;stroke-opacity:1"><path
           id="path8120"
           d="m 689.23,282.21 0,0.02 0,0.01 0,0.02 0,0.02 0,0.01 -0.01,0.02 0,0.02 0,0.01 -0.01,0.02 0,0.01 -0.01,0.01 0,0.02 -0.01,0.01 0,0.02 -0.01,0.01 -0.01,0.01 -0.01,0.03 -0.02,0.02 -0.01,0.03 -0.02,0.02 -0.02,0.03 -0.02,0.02 -0.02,0.03 -0.01,0.02 -0.01,0.01 c -1.84,1.84 -5.17,5.17 -8.51,10.56 -8.02,12.85 -11.66,29.05 -11.66,48.22 0,13.41 1.8,30.69 10.02,45.55 3.93,7.06 8.01,11.15 10.2,13.34 0.15,0.16 0.15,0.25 0.15,0.41 0,0.5 -0.34,0.5 -1.04,0.5 -0.71,0 -0.8,0 -1.55,-0.75 -16.69,-15.2 -21.92,-38.02 -21.92,-59 0,-19.58 4.48,-39.3 17.14,-54.2 1,-1.15 2.89,-3.19 4.94,-4.99 0.59,-0.59 0.68,-0.59 1.39,-0.59 0.7,0 1.04,0 1.04,0.5 z"
           inkscape:connector-curvature="0"
           style="fill:#000000;stroke-width:0" /><path
           id="path8122"
           d="m 769.2,391.29 0,0.05 0,0.06 0,0.05 0,0.05 0,0.05 0,0.05 0,0.04 0,0.05 0,0.04 -0.01,0.04 0,0.04 0,0.04 0,0.04 0,0.03 -0.01,0.04 0,0.03 -0.01,0.07 -0.01,0.06 -0.01,0.05 -0.01,0.05 -0.02,0.05 -0.02,0.04 -0.02,0.04 -0.02,0.03 -0.03,0.03 -0.03,0.03 -0.04,0.03 -0.04,0.02 -0.04,0.02 -0.03,0.01 -0.02,0 -0.03,0.01 -0.02,0.01 -0.03,0 -0.03,0.01 -0.03,0.01 -0.03,0 -0.04,0 -0.03,0.01 -0.04,0 -0.04,0 -0.03,0.01 -0.04,0 -0.05,0 -0.04,0 -0.04,0 -0.05,0 -0.05,0.01 -0.05,0 -0.05,0 -0.05,0 c -3.09,-3.19 -7.47,-3.19 -9.06,-3.19 l 0,-1.55 c 1,0 3.93,0 6.51,1.3 l 0,-25.81 c 0,-1.8 -0.14,-2.39 -4.62,-2.39 l -1.6,0 0,-1.55 c 1.75,0.15 6.08,0.15 8.06,0.15 2,0 6.33,0 8.08,-0.15 l 0,1.55 -1.59,0 c -4.49,0 -4.64,0.54 -4.64,2.39 z"
           inkscape:connector-curvature="0"
           style="fill:#000000;stroke-width:0" /><path
           id="path8124"
           d="m 912.93,363.24 5.28,5.13 c 7.76,6.87 10.76,9.56 10.76,14.54 0,5.69 -4.48,9.68 -10.56,9.68 -5.64,0 -9.33,-4.6 -9.33,-9.04 0,-2.78 2.5,-2.78 2.64,-2.78 0.86,0 2.6,0.6 2.6,2.64 0,1.3 -0.89,2.6 -2.64,2.6 -0.4,0 -0.5,0 -0.65,-0.05 1.15,3.24 3.83,5.08 6.72,5.08 4.53,0 6.69,-4.05 6.69,-8.13 0,-3.98 -2.5,-7.92 -5.23,-11.01 l -9.56,-10.66 c -0.57,-0.54 -0.57,-0.64 -0.57,-1.84 l 18.49,0 1.4,8.67 -1.25,0 c -0.25,-1.5 -0.59,-3.69 -1.09,-4.44 -0.36,-0.39 -3.64,-0.39 -4.73,-0.39 z"
           inkscape:connector-curvature="0"
           style="fill:#000000;stroke-width:0" /><path
           id="path8126"
           d="m 1029.4,362.04 0,0.13 0,0.14 0,0.13 0,0.13 0,0.12 -0.1,0.13 0,0.12 -0.1,0.12 0,0.12 -0.1,0.11 0,0.11 -0.1,0.11 -0.1,0.1 -0.1,0.1 0,0.1 -0.1,0.09 -0.1,0.09 -0.1,0.08 -0.1,0.08 -0.1,0.07 -0.1,0.07 -0.1,0.07 -0.2,0.06 -0.1,0.05 -0.1,0.05 -0.1,0.04 -0.1,0.04 -0.2,0.03 -0.1,0.02 -0.1,0.02 -0.2,0.01 -0.1,0 c -1.4,0 -2.6,-1.2 -2.6,-2.64 0,-1.44 1.2,-2.64 2.6,-2.64 1.4,0 2.6,1.2 2.6,2.64 z"
           inkscape:connector-curvature="0"
           style="fill:#000000;stroke-width:0" /><path
           id="path8128"
           d="m 1051.5,362.04 0,0.13 0,0.14 0,0.13 0,0.13 -0.1,0.12 0,0.13 -0.1,0.12 0,0.12 -0.1,0.12 0,0.11 -0.1,0.11 0,0.11 -0.1,0.1 -0.1,0.1 -0.1,0.1 -0.1,0.09 -0.1,0.09 -0.1,0.08 -0.1,0.08 -0.1,0.07 -0.1,0.07 -0.1,0.07 -0.1,0.06 -0.1,0.05 -0.1,0.05 -0.1,0.04 -0.2,0.04 -0.1,0.03 -0.1,0.02 -0.2,0.02 -0.1,0.01 -0.1,0 c -1.5,0 -2.7,-1.2 -2.7,-2.64 0,-1.44 1.2,-2.64 2.7,-2.64 1.4,0 2.6,1.2 2.6,2.64 z"
           inkscape:connector-curvature="0"
           style="fill:#000000;stroke-width:0" /><path
           id="path8130"
           d="m 1073.6,362.04 0,0.13 0,0.14 0,0.13 -0.1,0.13 0,0.12 0,0.13 -0.1,0.12 0,0.12 -0.1,0.12 0,0.11 -0.1,0.11 -0.1,0.11 0,0.1 -0.1,0.1 -0.1,0.1 -0.1,0.09 -0.1,0.09 -0.1,0.08 -0.1,0.08 -0.1,0.07 -0.1,0.07 -0.1,0.07 -0.1,0.06 -0.1,0.05 -0.1,0.05 -0.2,0.04 -0.1,0.04 -0.1,0.03 -0.1,0.02 -0.2,0.02 -0.1,0.01 -0.2,0 c -1.4,0 -2.6,-1.2 -2.6,-2.64 0,-1.44 1.2,-2.64 2.6,-2.64 1.5,0 2.7,1.2 2.7,2.64 z"
           inkscape:connector-curvature="0"
           style="fill:#000000;stroke-width:0" /><path
           id="path8132"
           d="m 1188.9,390.54 0,0.09 0,0.09 0,0.09 0,0.09 0,0.09 0,0.09 -0.1,0.08 0,0.08 0,0.08 -0.1,0.08 0,0.07 0,0.08 -0.1,0.07 0,0.07 -0.1,0.06 -0.1,0.06 0,0.06 -0.1,0.06 0,0.05 -0.1,0.05 -0.1,0.05 -0.1,0.04 0,0.04 -0.1,0.04 -0.1,0.03 -0.1,0.03 -0.1,0.02 -0.1,0.02 -0.1,0.02 -0.1,0.01 -0.1,0 -0.1,0.01 c -1.4,0 -2.7,-1.3 -2.7,-2.64 0,-0.96 0.7,-1.8 1.9,-1.8 1.1,0 2.6,1.14 2.6,2.64 z"
           inkscape:connector-curvature="0"
           style="fill:#000000;stroke-width:0" /><path
           id="path8134"
           d="m 1185.1,371.8 0.1,0.14 0,0.12 0.1,0.12 0,0.11 0.1,0.1 0,0.1 0.1,0.09 0,0.09 0,0.09 0.1,0.08 0,0.08 0,0.08 0,0.07 0.1,0.07 0,0.15 0.1,0.14 0,0.14 0.1,0.07 0,0.08 0,0.08 0,0.08 0.1,0.08 0,0.09 0,0.1 0.1,0.09 0,0.11 0.1,0.11 0,0.11 0,0.13 c 0.4,1 0.7,1.68 0.7,2.64 0,2.23 -1.6,4.07 -4.1,4.07 -4.7,0 -6.6,-7.21 -6.6,-7.67 0,-0.5 0.5,-0.5 0.6,-0.5 0.5,0 0.6,0.11 0.8,0.91 1.4,4.69 3.4,6.17 5.1,6.17 0.4,0 1.2,0 1.2,-1.59 0,-1.05 -0.3,-2.1 -0.6,-2.6 -0.3,-1.29 -2.6,-7.06 -3.4,-9.22 -0.5,-1.28 -1.1,-2.93 -1.1,-3.98 0,-2.33 1.7,-4.08 4.1,-4.08 4.6,0 6.5,7.22 6.5,7.67 0,0.5 -0.5,0.5 -0.6,0.5 -0.5,0 -0.5,-0.15 -0.8,-0.9 -0.9,-3.13 -2.5,-6.17 -5,-6.17 -0.9,0 -1.2,0.5 -1.2,1.64 0,1.25 0.3,1.95 1.4,4.98 z"
           inkscape:connector-curvature="0"
           style="fill:#000000;stroke-width:0" /><path
           id="path8136"
           d="m 1289.9,362.04 0,0.13 0,0.14 0,0.13 0,0.13 0,0.12 -0.1,0.13 0,0.12 -0.1,0.12 0,0.12 -0.1,0.11 0,0.11 -0.1,0.11 -0.1,0.1 -0.1,0.1 0,0.1 -0.1,0.09 -0.1,0.09 -0.1,0.08 -0.1,0.08 -0.1,0.07 -0.1,0.07 -0.1,0.07 -0.2,0.06 -0.1,0.05 -0.1,0.05 -0.1,0.04 -0.1,0.04 -0.2,0.03 -0.1,0.02 -0.1,0.02 -0.2,0.01 -0.1,0 c -1.4,0 -2.6,-1.2 -2.6,-2.64 0,-1.44 1.2,-2.64 2.6,-2.64 1.5,0 2.6,1.2 2.6,2.64 z"
           inkscape:connector-curvature="0"
           style="fill:#000000;stroke-width:0" /><path
           id="path8138"
           d="m 1312,362.04 0,0.13 0,0.14 0,0.13 0,0.13 -0.1,0.12 0,0.13 0,0.12 -0.1,0.12 0,0.12 -0.1,0.11 -0.1,0.11 0,0.11 -0.1,0.1 -0.1,0.1 -0.1,0.1 -0.1,0.09 0,0.09 -0.1,0.08 -0.1,0.08 -0.1,0.07 -0.2,0.07 -0.1,0.07 -0.1,0.06 -0.1,0.05 -0.1,0.05 -0.1,0.04 -0.2,0.04 -0.1,0.03 -0.1,0.02 -0.2,0.02 -0.1,0.01 -0.1,0 c -1.5,0 -2.7,-1.2 -2.7,-2.64 0,-1.44 1.2,-2.64 2.7,-2.64 1.4,0 2.6,1.2 2.6,2.64 z"
           inkscape:connector-curvature="0"
           style="fill:#000000;stroke-width:0" /><path
           id="path8140"
           d="m 1334.1,362.04 0,0.13 0,0.14 0,0.13 -0.1,0.13 0,0.12 0,0.13 -0.1,0.12 0,0.12 -0.1,0.12 0,0.11 -0.1,0.11 -0.1,0.11 0,0.1 -0.1,0.1 -0.1,0.1 -0.1,0.09 -0.1,0.09 -0.1,0.08 -0.1,0.08 -0.1,0.07 -0.1,0.07 -0.1,0.07 -0.1,0.06 -0.1,0.05 -0.1,0.05 -0.2,0.04 -0.1,0.04 -0.1,0.03 -0.1,0.02 -0.2,0.02 -0.1,0.01 -0.1,0 c -1.5,0 -2.7,-1.2 -2.7,-2.64 0,-1.44 1.2,-2.64 2.7,-2.64 1.4,0 2.6,1.2 2.6,2.64 z"
           inkscape:connector-curvature="0"
           style="fill:#000000;stroke-width:0" /><path
           id="path8142"
           d="m 1422.5,377.98 0,0 0.1,0 0.1,0 0.1,0 0,0 0.1,0.01 0.1,0 0.1,0.01 0.1,0.01 0.1,0.02 0.1,0.02 0.1,0.02 0.1,0.02 0.1,0.03 0.1,0.03 0.1,0.04 0.1,0.04 0.1,0.05 0.1,0.05 0.1,0.06 0.1,0.07 0.1,0.07 0,0.04 0,0.04 0.1,0.04 0,0.05 0,0.04 0.1,0.05 0,0.05 0,0.05 0.1,0.05 0,0.06 0,0.06 0,0.06 0,0.06 0.1,0.06 0,0.07 0,0.07 0,0.07 0,0.08 0,0.07 0,0.08 c 0,1.19 -1,1.19 -1.9,1.19 l -11.4,0 c -7.5,0 -13.1,-8.22 -13.1,-14.14 0,-4.39 3,-7.88 7.5,-7.88 l 0.1,1.1 c -2.5,0 -4.5,1.79 -4.5,5.37 0,1.5 0.6,5.59 2.4,8.53 2.1,3.44 5.1,4.13 6.8,4.13 4.1,0 4.5,-3.28 4.5,-4.83 0,-2.35 -1,-6.42 -2.6,-8.97 -2,-2.94 -4.7,-4.23 -6.6,-4.23 l 0,0 -0.1,-1.1 c 5.9,0 12.5,6.03 12.5,13.7 0,0.85 0,3.24 -1.5,5.43 z"
           inkscape:connector-curvature="0"
           style="fill:#000000;stroke-width:0" /><path
           id="path8144"
           d="m 1451.7,347.45 -0.1,0.02 0,0.03 0,0.01 0,0.02 0,0.01 0,0.02 0,0.01 0,0.02 0,0.02 0,0.02 0,0.02 0,0.03 0,0.02 -0.1,0.03 0,0.03 0,0.03 0,0.03 -0.1,0.04 0,0.02 0,0.02 0,0.02 0,0.02 0,0.02 -0.1,0.02 0,0.03 0,0.02 0,0.03 -0.1,0.02 0,0.03 0,0.03 0,0.03 -0.1,0.02 0,0.03 0,0.04 0,0.03 -0.1,0.03 0,0.03 0,0.04 -0.1,0.04 0,0.03 -0.1,0.04 0,0.04 c -6.2,6.28 -7.8,15.69 -7.8,23.31 0,8.67 1.9,17.35 8,23.56 0.7,0.61 0.7,0.71 0.7,0.86 0,0.35 -0.2,0.49 -0.5,0.49 -0.5,0 -5,-3.38 -8,-9.71 -2.5,-5.48 -3.1,-11.01 -3.1,-15.2 0,-3.89 0.6,-9.9 3.3,-15.55 3,-6.12 7.3,-9.35 7.8,-9.35 0.3,0 0.5,0.14 0.5,0.5 z"
           inkscape:connector-curvature="0"
           style="fill:#000000;stroke-width:0" /><path
           id="path8146"
           d="m 1468.6,390.54 0,0.09 0,0.09 0,0.09 0,0.09 0,0.09 0,0.09 -0.1,0.08 0,0.08 0,0.08 -0.1,0.08 0,0.07 0,0.08 -0.1,0.07 0,0.07 -0.1,0.06 -0.1,0.06 0,0.06 -0.1,0.06 0,0.05 -0.1,0.05 -0.1,0.05 -0.1,0.04 0,0.04 -0.1,0.04 -0.1,0.03 -0.1,0.03 -0.1,0.02 -0.1,0.02 -0.1,0.02 -0.1,0.01 -0.1,0 -0.1,0.01 c -1.4,0 -2.7,-1.3 -2.7,-2.64 0,-0.96 0.7,-1.8 1.9,-1.8 1.1,0 2.6,1.14 2.6,2.64 z"
           inkscape:connector-curvature="0"
           style="fill:#000000;stroke-width:0" /><path
           id="path8148"
           d="m 1464.8,371.8 0.1,0.14 0,0.12 0.1,0.12 0,0.11 0.1,0.1 0,0.1 0.1,0.09 0,0.09 0,0.09 0.1,0.08 0,0.08 0,0.08 0,0.07 0.1,0.07 0,0.15 0.1,0.14 0,0.14 0.1,0.07 0,0.08 0,0.08 0,0.08 0.1,0.08 0,0.09 0,0.1 0.1,0.09 0,0.11 0.1,0.11 0,0.11 0,0.13 c 0.4,1 0.7,1.68 0.7,2.64 0,2.23 -1.6,4.07 -4.1,4.07 -4.7,0 -6.6,-7.21 -6.6,-7.67 0,-0.5 0.5,-0.5 0.6,-0.5 0.5,0 0.6,0.11 0.8,0.91 1.4,4.69 3.4,6.17 5.1,6.17 0.4,0 1.2,0 1.2,-1.59 0,-1.05 -0.4,-2.1 -0.5,-2.6 -0.4,-1.29 -2.7,-7.06 -3.5,-9.22 -0.5,-1.28 -1.1,-2.93 -1.1,-3.98 0,-2.33 1.7,-4.08 4.1,-4.08 4.6,0 6.5,7.22 6.5,7.67 0,0.5 -0.5,0.5 -0.6,0.5 -0.5,0 -0.5,-0.15 -0.8,-0.9 -0.9,-3.13 -2.5,-6.17 -5,-6.17 -0.9,0 -1.3,0.5 -1.3,1.64 0,1.25 0.4,1.95 1.5,4.98 z"
           inkscape:connector-curvature="0"
           style="fill:#000000;stroke-width:0" /><path
           id="path8150"
           d="m 1486,371.85 0,0.37 0,0.39 0,0.39 0,0.41 0,0.84 -0.1,0.88 -0.1,0.92 -0.1,0.95 -0.1,0.97 -0.2,1 -0.2,1.03 -0.2,1.03 -0.3,1.05 -0.3,1.06 -0.3,1.07 -0.4,1.06 -0.2,0.54 -0.3,0.53 -0.2,0.53 -0.2,0.53 c -3,6.12 -7.3,9.36 -7.8,9.36 -0.3,0 -0.5,-0.19 -0.5,-0.49 0,-0.15 0,-0.25 0.9,-1.15 4.9,-4.92 7.8,-12.85 7.8,-23.27 0,-8.51 -1.9,-17.28 -8.1,-23.56 -0.6,-0.59 -0.6,-0.7 -0.6,-0.84 0,-0.3 0.2,-0.5 0.5,-0.5 0.5,0 4.9,3.39 7.9,9.71 2.5,5.47 3.1,11 3.1,15.19 z"
           inkscape:connector-curvature="0"
           style="fill:#000000;stroke-width:0" /><path
           id="path8152"
           d="m 1550.4,362.04 0,0.13 0,0.14 0,0.13 0,0.13 0,0.12 -0.1,0.13 0,0.12 -0.1,0.12 0,0.12 -0.1,0.11 0,0.11 -0.1,0.11 -0.1,0.1 -0.1,0.1 0,0.1 -0.1,0.09 -0.1,0.09 -0.1,0.08 -0.1,0.08 -0.1,0.07 -0.1,0.07 -0.1,0.07 -0.2,0.06 -0.1,0.05 -0.1,0.05 -0.1,0.04 -0.1,0.04 -0.2,0.03 -0.1,0.02 -0.1,0.02 -0.2,0.01 -0.1,0 c -1.4,0 -2.6,-1.2 -2.6,-2.64 0,-1.44 1.2,-2.64 2.6,-2.64 1.4,0 2.6,1.2 2.6,2.64 z"
           inkscape:connector-curvature="0"
           style="fill:#000000;stroke-width:0" /><path
           id="path8154"
           d="m 1572.5,362.04 0,0.13 0,0.14 0,0.13 0,0.13 -0.1,0.12 0,0.13 0,0.12 -0.1,0.12 0,0.12 -0.1,0.11 -0.1,0.11 0,0.11 -0.1,0.1 -0.1,0.1 -0.1,0.1 -0.1,0.09 0,0.09 -0.1,0.08 -0.1,0.08 -0.1,0.07 -0.2,0.07 -0.1,0.07 -0.1,0.06 -0.1,0.05 -0.1,0.05 -0.1,0.04 -0.2,0.04 -0.1,0.03 -0.1,0.02 -0.2,0.02 -0.1,0.01 -0.1,0 c -1.5,0 -2.7,-1.2 -2.7,-2.64 0,-1.44 1.2,-2.64 2.7,-2.64 1.4,0 2.6,1.2 2.6,2.64 z"
           inkscape:connector-curvature="0"
           style="fill:#000000;stroke-width:0" /><path
           id="path8156"
           d="m 1594.6,362.04 0,0.13 0,0.14 0,0.13 -0.1,0.13 0,0.12 0,0.13 -0.1,0.12 0,0.12 -0.1,0.12 0,0.11 -0.1,0.11 -0.1,0.11 0,0.1 -0.1,0.1 -0.1,0.1 -0.1,0.09 -0.1,0.09 -0.1,0.08 -0.1,0.08 -0.1,0.07 -0.1,0.07 -0.1,0.07 -0.1,0.06 -0.1,0.05 -0.1,0.05 -0.2,0.04 -0.1,0.04 -0.1,0.03 -0.1,0.02 -0.2,0.02 -0.1,0.01 -0.2,0 c -1.4,0 -2.6,-1.2 -2.6,-2.64 0,-1.44 1.2,-2.64 2.6,-2.64 1.5,0 2.7,1.2 2.7,2.64 z"
           inkscape:connector-curvature="0"
           style="fill:#000000;stroke-width:0" /><path
           id="path8158"
           d="m 1700.2,362.34 0,-0.08 -0.1,-0.07 0,-0.07 0,-0.08 0,-0.16 -0.1,-0.16 0,-0.16 0,-0.17 -0.1,-0.16 0,-0.15 0,-0.08 0,-0.07 -0.1,-0.08 0,-0.07 0,-0.06 0,-0.07 0,-0.06 0,-0.06 0,-0.06 0,-0.05 -0.1,-0.05 0,-0.04 0,-0.04 0,-0.04 0,-0.03 0,-0.02 c 0,-0.9 0.7,-1.35 1.5,-1.35 0.6,0 1.5,0.39 1.8,1.39 0.1,0.11 0.7,2.44 1,3.69 l 1.1,4.48 c 0.2,1.1 0.6,2.19 0.8,3.35 0.2,0.84 0.6,2.28 0.7,2.48 0.7,1.55 3.3,6.08 8.1,6.08 2.2,0 2.7,-1.84 2.7,-3.48 0,-3.1 -2.5,-9.47 -3.3,-11.61 -0.4,-1.14 -0.5,-1.75 -0.5,-2.3 0,-2.33 1.8,-4.08 4.1,-4.08 4.7,0 6.5,7.27 6.5,7.67 0,0.5 -0.4,0.5 -0.6,0.5 -0.4,0 -0.4,-0.15 -0.7,-0.9 -1,-3.38 -2.6,-6.17 -5.1,-6.17 -0.8,0 -1.2,0.5 -1.2,1.64 0,1.25 0.5,2.45 0.9,3.54 1,2.64 3.1,8.11 3.1,10.96 0,3.34 -2.2,5.32 -5.8,5.32 -4.5,0 -6.9,-3.18 -7.7,-4.32 -0.3,2.79 -2.3,4.32 -4.6,4.32 -2.3,0 -3.3,-1.93 -3.8,-2.82 -0.8,-1.71 -1.5,-4.64 -1.5,-4.85 0,-0.5 0.5,-0.5 0.6,-0.5 0.5,0 0.6,0.06 0.9,1.16 0.8,3.53 1.8,5.92 3.6,5.92 1,0 1.6,-0.64 1.6,-2.28 0,-1.05 -0.2,-1.61 -0.8,-4.19 z"
           inkscape:connector-curvature="0"
           style="fill:#000000;stroke-width:0" /><path
           id="path8160"
           d="m 741.73,318.1 0.07,0 0.07,0 0.07,0 0.08,0 0.09,0 0.09,0.01 0.09,0.01 0.1,0 0.09,0.02 0.1,0.01 0.1,0.02 0.11,0.02 0.1,0.02 0.1,0.03 0.1,0.03 0.1,0.04 0.1,0.04 0.1,0.05 0.09,0.05 0.09,0.06 0.08,0.07 0.09,0.07 0.03,0.04 0.04,0.04 0.04,0.04 0.03,0.05 0.03,0.04 0.03,0.05 0.03,0.05 0.03,0.05 0.03,0.06 0.02,0.05 0.02,0.06 0.02,0.06 0.02,0.06 0.02,0.07 0.01,0.06 0.01,0.07 0.01,0.07 0.01,0.08 0,0.07 0,0.08 c 0,1.19 -1.05,1.19 -1.94,1.19 l -11.35,0 c -7.54,0 -13.07,-8.22 -13.07,-14.14 0,-4.39 2.94,-7.88 7.47,-7.88 l 0.06,1.1 c -2.45,0 -4.43,1.79 -4.43,5.37 0,1.5 0.59,5.6 2.34,8.53 2.09,3.44 5.08,4.13 6.77,4.13 4.18,0 4.59,-3.28 4.59,-4.83 0,-2.34 -1,-6.42 -2.69,-8.97 -1.95,-2.94 -4.64,-4.23 -6.58,-4.23 l 0,0 -0.06,-1.1 c 5.89,0 12.52,6.03 12.52,13.71 0,0.84 0,3.23 -1.55,5.42 z"
           inkscape:connector-curvature="0"
           style="fill:#000000;stroke-width:0" /><path
           id="path8162"
           d="m 770.92,287.57 0,0.02 0,0.03 0,0.01 0,0.02 -0.01,0.01 0,0.02 -0.01,0.01 0,0.02 -0.01,0.02 -0.01,0.02 -0.01,0.02 -0.02,0.03 -0.01,0.02 -0.02,0.03 -0.02,0.03 -0.03,0.03 -0.02,0.03 -0.03,0.04 -0.02,0.02 -0.02,0.02 -0.01,0.02 -0.02,0.02 -0.02,0.02 -0.02,0.03 -0.02,0.02 -0.02,0.02 -0.03,0.03 -0.02,0.02 -0.03,0.03 -0.02,0.03 -0.03,0.03 -0.02,0.03 -0.03,0.03 -0.03,0.03 -0.03,0.03 -0.04,0.03 -0.03,0.04 -0.03,0.03 -0.04,0.04 -0.04,0.03 -0.03,0.04 -0.04,0.04 c -6.22,6.28 -7.81,15.69 -7.81,23.31 0,8.67 1.89,17.35 8.01,23.57 0.64,0.6 0.64,0.7 0.64,0.85 0,0.35 -0.19,0.49 -0.48,0.49 -0.5,0 -4.99,-3.38 -7.92,-9.7 -2.55,-5.49 -3.14,-11.02 -3.14,-15.21 0,-3.89 0.54,-9.9 3.28,-15.54 2.98,-6.13 7.28,-9.36 7.78,-9.36 0.29,0 0.48,0.14 0.48,0.5 z"
           inkscape:connector-curvature="0"
           style="fill:#000000;stroke-width:0" /><path
           id="path8164"
           d="m 788.4,331.41 0,0.05 -0.01,0.06 0,0.05 0,0.05 0,0.05 0,0.05 0,0.04 0,0.05 0,0.04 0,0.04 0,0.04 0,0.04 0,0.04 -0.01,0.03 0,0.04 0,0.03 -0.01,0.07 -0.01,0.06 -0.01,0.05 -0.02,0.05 -0.01,0.05 -0.02,0.04 -0.02,0.04 -0.03,0.03 -0.03,0.04 -0.03,0.02 -0.03,0.03 -0.04,0.02 -0.05,0.02 -0.02,0.01 -0.03,0.01 -0.02,0 -0.03,0.01 -0.03,0.01 -0.03,0 -0.03,0.01 -0.03,0 -0.03,0.01 -0.04,0 -0.03,0 -0.04,0.01 -0.04,0 -0.04,0 -0.04,0 -0.04,0 -0.05,0 -0.05,0.01 -0.04,0 -0.05,0 -0.05,0 -0.06,0 c -3.09,-3.19 -7.47,-3.19 -9.06,-3.19 l 0,-1.55 c 1,0 3.94,0 6.52,1.3 l 0,-25.81 c 0,-1.8 -0.14,-2.39 -4.63,-2.39 l -1.59,0 0,-1.55 c 1.75,0.16 6.08,0.16 8.06,0.16 2,0 6.33,0 8.08,-0.16 l 0,1.55 -1.6,0 c -4.48,0 -4.63,0.54 -4.63,2.39 z"
           inkscape:connector-curvature="0"
           style="fill:#000000;stroke-width:0" /><path
           id="path8166"
           d="m 813.1,311.97 0,0.37 0,0.39 -0.01,0.39 -0.02,0.41 -0.04,0.84 -0.06,0.88 -0.08,0.92 -0.11,0.95 -0.13,0.98 -0.16,1 -0.2,1.02 -0.23,1.03 -0.27,1.06 -0.3,1.05 -0.35,1.07 -0.39,1.07 -0.22,0.53 -0.22,0.53 -0.24,0.53 -0.25,0.53 c -2.98,6.12 -7.27,9.36 -7.77,9.36 -0.29,0 -0.5,-0.19 -0.5,-0.49 0,-0.15 0,-0.25 0.94,-1.15 4.89,-4.92 7.74,-12.85 7.74,-23.27 0,-8.51 -1.85,-17.28 -8.03,-23.56 -0.65,-0.59 -0.65,-0.7 -0.65,-0.84 0,-0.3 0.21,-0.5 0.5,-0.5 0.5,0 4.97,3.39 7.93,9.72 2.53,5.46 3.12,11 3.12,15.18 z"
           inkscape:connector-curvature="0"
           style="fill:#000000;stroke-width:0" /><path
           id="path8168"
           d="m 893.76,318.1 0.07,0 0.06,0 0.08,0 0.08,0 0.09,0 0.08,0.01 0.1,0.01 0.09,0 0.1,0.02 0.1,0.01 0.1,0.02 0.1,0.02 0.11,0.02 0.1,0.03 0.1,0.03 0.1,0.04 0.1,0.04 0.09,0.05 0.1,0.05 0.09,0.06 0.08,0.07 0.08,0.07 0.04,0.04 0.04,0.04 0.03,0.04 0.04,0.05 0.03,0.04 0.03,0.05 0.03,0.05 0.03,0.05 0.02,0.06 0.03,0.05 0.02,0.06 0.02,0.06 0.02,0.06 0.01,0.07 0.02,0.06 0.01,0.07 0.01,0.07 0,0.08 0.01,0.07 0,0.08 c 0,1.19 -1.05,1.19 -1.94,1.19 l -11.36,0 c -7.53,0 -13.06,-8.22 -13.06,-14.14 0,-4.39 2.94,-7.88 7.47,-7.88 l 0.06,1.1 c -2.45,0 -4.44,1.79 -4.44,5.37 0,1.5 0.6,5.6 2.35,8.53 2.09,3.44 5.07,4.13 6.76,4.13 4.19,0 4.6,-3.28 4.6,-4.83 0,-2.34 -1,-6.42 -2.69,-8.97 -1.95,-2.94 -4.64,-4.23 -6.58,-4.23 l 0,0 -0.06,-1.1 c 5.89,0 12.51,6.03 12.51,13.71 0,0.84 0,3.23 -1.54,5.42 z"
           inkscape:connector-curvature="0"
           style="fill:#000000;stroke-width:0" /><path
           id="path8170"
           d="m 922.95,287.57 0,0.02 0,0.03 0,0.01 -0.01,0.02 0,0.01 0,0.02 -0.01,0.01 -0.01,0.02 -0.01,0.02 -0.01,0.02 -0.01,0.02 -0.01,0.03 -0.02,0.02 -0.02,0.03 -0.02,0.03 -0.02,0.03 -0.03,0.03 -0.03,0.04 -0.01,0.02 -0.02,0.02 -0.02,0.02 -0.02,0.02 -0.01,0.02 -0.02,0.03 -0.03,0.02 -0.02,0.02 -0.02,0.03 -0.02,0.02 -0.03,0.03 -0.02,0.03 -0.03,0.03 -0.03,0.03 -0.03,0.03 -0.03,0.03 -0.03,0.03 -0.03,0.03 -0.03,0.04 -0.04,0.03 -0.03,0.04 -0.04,0.03 -0.04,0.04 -0.04,0.04 c -6.21,6.28 -7.81,15.69 -7.81,23.31 0,8.67 1.89,17.35 8.02,23.57 0.64,0.6 0.64,0.7 0.64,0.85 0,0.35 -0.19,0.49 -0.48,0.49 -0.5,0 -4.99,-3.38 -7.93,-9.7 -2.54,-5.49 -3.14,-11.02 -3.14,-15.21 0,-3.89 0.55,-9.9 3.28,-15.54 2.99,-6.13 7.29,-9.36 7.79,-9.36 0.29,0 0.48,0.14 0.48,0.5 z"
           inkscape:connector-curvature="0"
           style="fill:#000000;stroke-width:0" /><path
           id="path8172"
           d="m 932.11,303.36 5.28,5.13 c 7.77,6.87 10.77,9.56 10.77,14.55 0,5.68 -4.49,9.67 -10.57,9.67 -5.64,0 -9.32,-4.6 -9.32,-9.03 0,-2.79 2.5,-2.79 2.64,-2.79 0.86,0 2.59,0.6 2.59,2.65 0,1.29 -0.89,2.59 -2.64,2.59 -0.39,0 -0.5,0 -0.64,-0.05 1.14,3.24 3.83,5.08 6.72,5.08 4.53,0 6.68,-4.05 6.68,-8.12 0,-3.99 -2.5,-7.93 -5.23,-11.02 l -9.56,-10.66 c -0.56,-0.54 -0.56,-0.64 -0.56,-1.84 l 18.48,0 1.41,8.67 -1.25,0 c -0.25,-1.5 -0.6,-3.69 -1.1,-4.44 -0.36,-0.39 -3.64,-0.39 -4.73,-0.39 z"
           inkscape:connector-curvature="0"
           style="fill:#000000;stroke-width:0" /><path
           id="path8174"
           d="m 965.13,311.97 0,0.37 -0.01,0.39 -0.01,0.39 -0.01,0.41 -0.04,0.84 -0.06,0.88 -0.08,0.92 -0.11,0.95 -0.13,0.98 -0.17,1 -0.19,1.02 -0.23,1.03 -0.27,1.06 -0.31,1.05 -0.34,1.07 -0.4,1.07 -0.21,0.53 -0.22,0.53 -0.24,0.53 -0.25,0.53 c -2.99,6.12 -7.27,9.36 -7.77,9.36 -0.3,0 -0.5,-0.19 -0.5,-0.49 0,-0.15 0,-0.25 0.94,-1.15 4.89,-4.92 7.73,-12.85 7.73,-23.27 0,-8.51 -1.84,-17.28 -8.03,-23.56 -0.64,-0.59 -0.64,-0.7 -0.64,-0.84 0,-0.3 0.2,-0.5 0.5,-0.5 0.5,0 4.97,3.39 7.92,9.72 2.53,5.46 3.13,11 3.13,15.18 z"
           inkscape:connector-curvature="0"
           style="fill:#000000;stroke-width:0" /><path
           id="path8176"
           d="m 1029.4,302.16 0,0.13 0,0.14 0,0.13 0,0.13 -0.1,0.12 0,0.13 0,0.12 -0.1,0.12 0,0.12 -0.1,0.11 -0.1,0.11 0,0.11 -0.1,0.1 -0.1,0.1 -0.1,0.1 -0.1,0.09 0,0.09 -0.1,0.08 -0.1,0.08 -0.1,0.07 -0.2,0.07 -0.1,0.07 -0.1,0.06 -0.1,0.05 -0.1,0.05 -0.1,0.04 -0.2,0.04 -0.1,0.03 -0.1,0.02 -0.2,0.02 -0.1,0.01 -0.1,0 c -1.5,0 -2.7,-1.2 -2.7,-2.64 0,-1.44 1.2,-2.64 2.7,-2.64 1.4,0 2.6,1.2 2.6,2.64 z"
           inkscape:connector-curvature="0"
           style="fill:#000000;stroke-width:0" /><path
           id="path8178"
           d="m 1051.5,302.16 0,0.13 0,0.14 0,0.13 -0.1,0.13 0,0.12 0,0.13 -0.1,0.12 0,0.12 -0.1,0.12 0,0.11 -0.1,0.11 -0.1,0.11 0,0.1 -0.1,0.1 -0.1,0.1 -0.1,0.09 -0.1,0.09 -0.1,0.08 -0.1,0.08 -0.1,0.07 -0.1,0.07 -0.1,0.07 -0.1,0.06 -0.1,0.05 -0.1,0.05 -0.2,0.04 -0.1,0.04 -0.1,0.03 -0.1,0.02 -0.2,0.02 -0.1,0.01 -0.1,0 c -1.5,0 -2.7,-1.2 -2.7,-2.64 0,-1.44 1.2,-2.64 2.7,-2.64 1.4,0 2.6,1.2 2.6,2.64 z"
           inkscape:connector-curvature="0"
           style="fill:#000000;stroke-width:0" /><path
           id="path8180"
           d="m 1073.6,302.16 0,0.13 0,0.14 -0.1,0.13 0,0.13 0,0.12 0,0.13 -0.1,0.12 0,0.12 -0.1,0.12 -0.1,0.11 0,0.11 -0.1,0.11 -0.1,0.1 0,0.1 -0.1,0.1 -0.1,0.09 -0.1,0.09 -0.1,0.08 -0.1,0.08 -0.1,0.07 -0.1,0.07 -0.1,0.07 -0.1,0.06 -0.1,0.05 -0.2,0.05 -0.1,0.04 -0.1,0.04 -0.1,0.03 -0.2,0.02 -0.1,0.02 -0.1,0.01 -0.2,0 c -1.4,0 -2.6,-1.2 -2.6,-2.64 0,-1.44 1.2,-2.64 2.6,-2.64 1.5,0 2.7,1.2 2.7,2.64 z"
           inkscape:connector-curvature="0"
           style="fill:#000000;stroke-width:0" /><path
           id="path8182"
           d="m 1161.9,318.1 0.1,0 0.1,0 0,0 0.1,0 0.1,0 0.1,0.01 0.1,0.01 0.1,0 0.1,0.02 0.1,0.01 0.1,0.02 0.1,0.02 0.1,0.02 0.1,0.03 0.1,0.03 0.1,0.04 0.1,0.04 0.1,0.05 0.1,0.05 0.1,0.06 0.1,0.07 0,0.07 0.1,0.04 0,0.04 0.1,0.04 0,0.05 0,0.04 0.1,0.05 0,0.05 0,0.05 0,0.06 0.1,0.05 0,0.06 0,0.06 0,0.06 0,0.07 0,0.06 0.1,0.07 0,0.07 0,0.08 0,0.07 0,0.08 c 0,1.19 -1.1,1.19 -2,1.19 l -11.3,0 c -7.5,0 -13.1,-8.22 -13.1,-14.14 0,-4.39 2.9,-7.88 7.5,-7.88 l 0.1,1.1 c -2.5,0 -4.5,1.79 -4.5,5.37 0,1.5 0.6,5.6 2.3,8.53 2.2,3.44 5.1,4.13 6.8,4.13 4.2,0 4.6,-3.28 4.6,-4.83 0,-2.34 -1,-6.42 -2.7,-8.97 -1.9,-2.94 -4.6,-4.23 -6.5,-4.23 l 0,0 -0.1,-1.1 c 5.9,0 12.5,6.03 12.5,13.71 0,0.84 0,3.23 -1.6,5.42 z"
           inkscape:connector-curvature="0"
           style="fill:#000000;stroke-width:0" /><path
           id="path8184"
           d="m 1191.1,287.57 0,0.02 0,0.03 0,0.01 0,0.02 0,0.01 0,0.02 0,0.01 0,0.02 0,0.02 0,0.02 0,0.02 0,0.03 -0.1,0.02 0,0.03 0,0.03 0,0.03 0,0.03 -0.1,0.04 0,0.02 0,0.02 0,0.02 0,0.02 -0.1,0.02 0,0.03 0,0.02 0,0.02 0,0.03 -0.1,0.02 0,0.03 0,0.03 0,0.03 -0.1,0.03 0,0.03 0,0.03 -0.1,0.03 0,0.03 0,0.04 -0.1,0.03 0,0.04 0,0.03 -0.1,0.04 0,0.04 c -6.2,6.28 -7.8,15.69 -7.8,23.31 0,8.67 1.9,17.35 8,23.57 0.6,0.6 0.6,0.7 0.6,0.85 0,0.35 -0.2,0.49 -0.5,0.49 -0.5,0 -4.9,-3.38 -7.9,-9.7 -2.5,-5.49 -3.1,-11.02 -3.1,-15.21 0,-3.89 0.5,-9.9 3.3,-15.54 2.9,-6.13 7.2,-9.36 7.7,-9.36 0.3,0 0.5,0.14 0.5,0.5 z"
           inkscape:connector-curvature="0"
           style="fill:#000000;stroke-width:0" /><path
           id="path8186"
           d="m 1208.2,330.66 0,0.09 0,0.09 0,0.1 0,0.08 0,0.09 0,0.09 -0.1,0.08 0,0.08 0,0.08 -0.1,0.08 0,0.08 -0.1,0.07 0,0.07 -0.1,0.07 0,0.06 -0.1,0.06 0,0.06 -0.1,0.06 -0.1,0.05 0,0.05 -0.1,0.05 -0.1,0.04 -0.1,0.04 0,0.04 -0.1,0.03 -0.1,0.03 -0.1,0.02 -0.1,0.02 -0.1,0.02 -0.1,0.01 -0.1,0 -0.1,0.01 c -1.4,0 -2.7,-1.3 -2.7,-2.64 0,-0.96 0.7,-1.8 1.9,-1.8 1.1,0 2.6,1.14 2.6,2.64 z"
           inkscape:connector-curvature="0"
           style="fill:#000000;stroke-width:0" /><path
           id="path8188"
           d="m 1204.4,311.93 0.1,0.13 0,0.12 0.1,0.12 0,0.11 0.1,0.1 0,0.1 0.1,0.1 0,0.08 0,0.09 0.1,0.08 0,0.08 0,0.08 0,0.07 0.1,0.07 0,0.15 0.1,0.14 0,0.14 0,0.07 0.1,0.08 0,0.08 0,0.08 0.1,0.08 0,0.09 0,0.1 0.1,0.1 0,0.1 0,0.11 0.1,0.11 0,0.13 c 0.4,1 0.7,1.68 0.7,2.64 0,2.23 -1.6,4.08 -4.1,4.08 -4.7,0 -6.6,-7.22 -6.6,-7.68 0,-0.5 0.5,-0.5 0.6,-0.5 0.5,0 0.6,0.11 0.8,0.91 1.4,4.69 3.3,6.17 5,6.17 0.4,0 1.3,0 1.3,-1.59 0,-1.05 -0.4,-2.1 -0.6,-2.6 -0.4,-1.29 -2.6,-7.06 -3.4,-9.21 -0.5,-1.29 -1.1,-2.94 -1.1,-3.99 0,-2.33 1.7,-4.08 4.1,-4.08 4.6,0 6.5,7.22 6.5,7.67 0,0.5 -0.5,0.5 -0.6,0.5 -0.5,0 -0.5,-0.15 -0.8,-0.9 -0.9,-3.13 -2.5,-6.17 -5.1,-6.17 -0.8,0 -1.1,0.5 -1.1,1.64 0,1.25 0.3,1.95 1.4,4.98 z"
           inkscape:connector-curvature="0"
           style="fill:#000000;stroke-width:0" /><path
           id="path8190"
           d="m 1225.6,311.97 0,0.37 0,0.39 0,0.39 0,0.41 0,0.84 -0.1,0.88 -0.1,0.92 -0.1,0.95 -0.1,0.98 -0.2,1 -0.2,1.02 -0.2,1.03 -0.3,1.06 -0.3,1.05 -0.3,1.07 -0.4,1.07 -0.2,0.53 -0.3,0.53 -0.2,0.53 -0.3,0.53 c -2.9,6.12 -7.2,9.36 -7.7,9.36 -0.3,0 -0.5,-0.19 -0.5,-0.49 0,-0.15 0,-0.25 0.9,-1.15 4.9,-4.92 7.8,-12.85 7.8,-23.27 0,-8.51 -1.9,-17.28 -8.1,-23.56 -0.6,-0.59 -0.6,-0.7 -0.6,-0.84 0,-0.3 0.2,-0.5 0.5,-0.5 0.5,0 5,3.39 7.9,9.72 2.5,5.46 3.1,11 3.1,15.18 z"
           inkscape:connector-curvature="0"
           style="fill:#000000;stroke-width:0" /><path
           id="path8192"
           d="m 1289.9,302.16 0,0.13 0,0.14 0,0.13 0,0.13 -0.1,0.12 0,0.13 0,0.12 -0.1,0.12 0,0.12 -0.1,0.11 -0.1,0.11 0,0.11 -0.1,0.1 -0.1,0.1 -0.1,0.1 -0.1,0.09 -0.1,0.09 0,0.08 -0.1,0.08 -0.2,0.07 -0.1,0.07 -0.1,0.07 -0.1,0.06 -0.1,0.05 -0.1,0.05 -0.1,0.04 -0.2,0.04 -0.1,0.03 -0.1,0.02 -0.2,0.02 -0.1,0.01 -0.1,0 c -1.5,0 -2.7,-1.2 -2.7,-2.64 0,-1.44 1.2,-2.64 2.7,-2.64 1.4,0 2.6,1.2 2.6,2.64 z"
           inkscape:connector-curvature="0"
           style="fill:#000000;stroke-width:0" /><path
           id="path8194"
           d="m 1312,302.16 0,0.13 0,0.14 0,0.13 -0.1,0.13 0,0.12 0,0.13 -0.1,0.12 0,0.12 -0.1,0.12 0,0.11 -0.1,0.11 -0.1,0.11 0,0.1 -0.1,0.1 -0.1,0.1 -0.1,0.09 -0.1,0.09 -0.1,0.08 -0.1,0.08 -0.1,0.07 -0.1,0.07 -0.1,0.07 -0.1,0.06 -0.1,0.05 -0.1,0.05 -0.2,0.04 -0.1,0.04 -0.1,0.03 -0.1,0.02 -0.2,0.02 -0.1,0.01 -0.2,0 c -1.4,0 -2.6,-1.2 -2.6,-2.64 0,-1.44 1.2,-2.64 2.6,-2.64 1.5,0 2.7,1.2 2.7,2.64 z"
           inkscape:connector-curvature="0"
           style="fill:#000000;stroke-width:0" /><path
           id="path8196"
           d="m 1334.1,302.16 0,0.13 0,0.14 -0.1,0.13 0,0.13 0,0.12 0,0.13 -0.1,0.12 0,0.12 -0.1,0.12 -0.1,0.11 0,0.11 -0.1,0.11 -0.1,0.1 0,0.1 -0.1,0.1 -0.1,0.09 -0.1,0.09 -0.1,0.08 -0.1,0.08 -0.1,0.07 -0.1,0.07 -0.1,0.07 -0.1,0.06 -0.1,0.05 -0.2,0.05 -0.1,0.04 -0.1,0.04 -0.1,0.03 -0.2,0.02 -0.1,0.02 -0.1,0.01 -0.2,0 c -1.4,0 -2.6,-1.2 -2.6,-2.64 0,-1.44 1.2,-2.64 2.6,-2.64 1.5,0 2.7,1.2 2.7,2.64 z"
           inkscape:connector-curvature="0"
           style="fill:#000000;stroke-width:0" /><path
           id="path8198"
           d="m 1550.4,302.16 0,0.13 0,0.14 0,0.13 0,0.13 -0.1,0.12 0,0.13 0,0.12 -0.1,0.12 0,0.12 -0.1,0.11 -0.1,0.11 0,0.11 -0.1,0.1 -0.1,0.1 -0.1,0.1 0,0.09 -0.1,0.09 -0.1,0.08 -0.1,0.08 -0.1,0.07 -0.1,0.07 -0.2,0.07 -0.1,0.06 -0.1,0.05 -0.1,0.05 -0.1,0.04 -0.2,0.04 -0.1,0.03 -0.1,0.02 -0.1,0.02 -0.2,0.01 -0.1,0 c -1.5,0 -2.7,-1.2 -2.7,-2.64 0,-1.44 1.2,-2.64 2.7,-2.64 1.4,0 2.6,1.2 2.6,2.64 z"
           inkscape:connector-curvature="0"
           style="fill:#000000;stroke-width:0" /><path
           id="path8200"
           d="m 1572.5,302.16 0,0.13 0,0.14 0,0.13 -0.1,0.13 0,0.12 0,0.13 -0.1,0.12 0,0.12 -0.1,0.12 0,0.11 -0.1,0.11 -0.1,0.11 0,0.1 -0.1,0.1 -0.1,0.1 -0.1,0.09 -0.1,0.09 -0.1,0.08 -0.1,0.08 -0.1,0.07 -0.1,0.07 -0.1,0.07 -0.1,0.06 -0.1,0.05 -0.1,0.05 -0.2,0.04 -0.1,0.04 -0.1,0.03 -0.1,0.02 -0.2,0.02 -0.1,0.01 -0.1,0 c -1.5,0 -2.7,-1.2 -2.7,-2.64 0,-1.44 1.2,-2.64 2.7,-2.64 1.4,0 2.6,1.2 2.6,2.64 z"
           inkscape:connector-curvature="0"
           style="fill:#000000;stroke-width:0" /><path
           id="path8202"
           d="m 1594.6,302.16 0,0.13 0,0.14 -0.1,0.13 0,0.13 0,0.12 0,0.13 -0.1,0.12 0,0.12 -0.1,0.12 0,0.11 -0.1,0.11 -0.1,0.11 0,0.1 -0.1,0.1 -0.1,0.1 -0.1,0.09 -0.1,0.09 -0.1,0.08 -0.1,0.08 -0.1,0.07 -0.1,0.07 -0.1,0.07 -0.1,0.06 -0.1,0.05 -0.2,0.05 -0.1,0.04 -0.1,0.04 -0.1,0.03 -0.2,0.02 -0.1,0.02 -0.1,0.01 -0.2,0 c -1.4,0 -2.6,-1.2 -2.6,-2.64 0,-1.44 1.2,-2.64 2.6,-2.64 1.5,0 2.7,1.2 2.7,2.64 z"
           inkscape:connector-curvature="0"
           style="fill:#000000;stroke-width:0" /><path
           id="path8204"
           d="m 1682.9,318.1 0.1,0 0.1,0 0.1,0 0,0 0.1,0 0.1,0.01 0.1,0.01 0.1,0 0.1,0.02 0.1,0.01 0.1,0.02 0.1,0.02 0.1,0.02 0.1,0.03 0.1,0.03 0.1,0.04 0.1,0.04 0.1,0.05 0.1,0.05 0.1,0.06 0.1,0.07 0,0.07 0.1,0.04 0,0.04 0.1,0.04 0,0.05 0,0.04 0.1,0.05 0,0.05 0,0.05 0,0.06 0.1,0.05 0,0.06 0,0.06 0,0.06 0,0.07 0,0.06 0.1,0.07 0,0.07 0,0.08 0,0.07 0,0.08 c 0,1.19 -1.1,1.19 -2,1.19 l -11.3,0 c -7.5,0 -13.1,-8.22 -13.1,-14.14 0,-4.39 3,-7.88 7.5,-7.88 l 0.1,1.1 c -2.5,0 -4.5,1.79 -4.5,5.37 0,1.5 0.6,5.6 2.4,8.53 2.1,3.44 5,4.13 6.7,4.13 4.2,0 4.6,-3.28 4.6,-4.83 0,-2.34 -1,-6.42 -2.7,-8.97 -1.9,-2.94 -4.6,-4.23 -6.5,-4.23 l 0,0 -0.1,-1.1 c 5.9,0 12.5,6.03 12.5,13.71 0,0.84 0,3.23 -1.5,5.42 z"
           inkscape:connector-curvature="0"
           style="fill:#000000;stroke-width:0" /><path
           id="path8206"
           d="m 1712.1,287.57 0,0.02 0,0.03 0,0.01 0,0.02 0,0.01 0,0.02 0,0.01 0,0.02 0,0.02 0,0.02 0,0.02 0,0.03 0,0.02 -0.1,0.03 0,0.03 0,0.03 0,0.03 -0.1,0.04 0,0.02 0,0.02 0,0.02 0,0.02 -0.1,0.02 0,0.03 0,0.02 0,0.02 0,0.03 -0.1,0.02 0,0.03 0,0.03 0,0.03 -0.1,0.03 0,0.03 0,0.03 -0.1,0.03 0,0.03 0,0.04 -0.1,0.03 0,0.04 0,0.03 -0.1,0.04 0,0.04 c -6.2,6.28 -7.8,15.69 -7.8,23.31 0,8.67 1.9,17.35 8,23.57 0.6,0.6 0.6,0.7 0.6,0.85 0,0.35 -0.2,0.49 -0.4,0.49 -0.5,0 -5,-3.38 -8,-9.7 -2.5,-5.49 -3.1,-11.02 -3.1,-15.21 0,-3.89 0.5,-9.9 3.3,-15.54 3,-6.13 7.3,-9.36 7.8,-9.36 0.2,0 0.4,0.14 0.4,0.5 z"
           inkscape:connector-curvature="0"
           style="fill:#000000;stroke-width:0" /><path
           id="path8208"
           d="m 1719.4,302.46 -0.1,-0.07 0,-0.08 0,-0.07 0,-0.08 0,-0.16 -0.1,-0.16 0,-0.16 -0.1,-0.16 0,-0.16 0,-0.16 0,-0.08 -0.1,-0.07 0,-0.07 0,-0.07 0,-0.07 0,-0.07 0,-0.06 0,-0.06 -0.1,-0.06 0,-0.05 0,-0.05 0,-0.04 0,-0.04 0,-0.04 0,-0.03 0,-0.02 c 0,-0.89 0.7,-1.35 1.4,-1.35 0.6,0 1.5,0.39 1.9,1.39 0,0.11 0.6,2.44 0.9,3.69 l 1.1,4.49 c 0.3,1.09 0.6,2.18 0.9,3.34 0.2,0.84 0.6,2.28 0.6,2.48 0.8,1.55 3.4,6.08 8.1,6.08 2.3,0 2.8,-1.84 2.8,-3.48 0,-3.1 -2.5,-9.47 -3.3,-11.61 -0.4,-1.14 -0.5,-1.75 -0.5,-2.3 0,-2.33 1.8,-4.08 4.1,-4.08 4.7,0 6.5,7.27 6.5,7.67 0,0.5 -0.4,0.5 -0.6,0.5 -0.5,0 -0.5,-0.15 -0.7,-0.9 -1,-3.38 -2.7,-6.17 -5.1,-6.17 -0.9,0 -1.2,0.5 -1.2,1.64 0,1.25 0.4,2.45 0.9,3.54 0.9,2.64 3,8.11 3,10.96 0,3.34 -2.1,5.33 -5.7,5.33 -4.5,0 -6.9,-3.19 -7.8,-4.33 -0.2,2.79 -2.3,4.33 -4.6,4.33 -2.2,0 -3.2,-1.94 -3.7,-2.83 -0.8,-1.71 -1.5,-4.64 -1.5,-4.85 0,-0.5 0.5,-0.5 0.6,-0.5 0.5,0 0.6,0.07 0.9,1.16 0.8,3.53 1.8,5.92 3.6,5.92 1,0 1.6,-0.64 1.6,-2.28 0,-1.05 -0.2,-1.61 -0.9,-4.19 z"
           inkscape:connector-curvature="0"
           style="fill:#000000;stroke-width:0" /><path
           id="path8210"
           d="m 1759.2,311.97 0,0.37 0,0.39 0,0.39 0,0.41 0,0.84 -0.1,0.88 -0.1,0.92 -0.1,0.95 -0.1,0.98 -0.2,1 -0.2,1.02 -0.2,1.03 -0.3,1.06 -0.3,1.05 -0.3,1.07 -0.4,1.07 -0.2,0.53 -0.3,0.53 -0.2,0.53 -0.2,0.53 c -3,6.12 -7.3,9.36 -7.8,9.36 -0.3,0 -0.5,-0.19 -0.5,-0.49 0,-0.15 0,-0.25 0.9,-1.15 4.9,-4.92 7.8,-12.85 7.8,-23.27 0,-8.51 -1.9,-17.28 -8.1,-23.56 -0.6,-0.59 -0.6,-0.7 -0.6,-0.84 0,-0.3 0.2,-0.5 0.5,-0.5 0.5,0 5,3.39 7.9,9.72 2.5,5.46 3.1,11 3.1,15.18 z"
           inkscape:connector-curvature="0"
           style="fill:#000000;stroke-width:0" /><path
           id="path8212"
           d="m 1815.4,341.44 0,3.67 -0.2,3.67 -0.2,3.66 -0.4,3.64 -0.6,3.61 -0.6,3.58 -0.8,3.54 -1,3.49 -1.1,3.44 -0.6,1.69 -0.6,1.68 -0.7,1.66 -0.7,1.65 -0.8,1.62 -0.8,1.61 -0.8,1.58 -0.9,1.56 -0.9,1.54 -1,1.51 -1,1.49 -1.1,1.47 -1.1,1.43 -1.2,1.41 c -1,1.16 -2.9,3.19 -4.9,4.99 -0.6,0.61 -0.7,0.61 -1.4,0.61 -0.6,0 -1.1,0 -1.1,-0.5 0,-0.2 0.2,-0.41 0.3,-0.5 1.8,-1.8 5.1,-5.14 8.5,-10.52 8,-12.86 11.6,-29.04 11.6,-48.23 0,-13.39 -1.8,-30.69 -10,-45.53 -3.9,-7.08 -8.1,-11.21 -10.2,-13.3 -0.1,-0.16 -0.2,-0.3 -0.2,-0.45 0,-0.5 0.5,-0.5 1.1,-0.5 0.7,0 0.8,0 1.5,0.75 16.7,15.2 21.9,38.01 21.9,58.98 z"
           inkscape:connector-curvature="0"
           style="fill:#000000;stroke-width:0" /><path
           style="fill:#000000;stroke-width:0"
           d="m 1191.4161,213.66752 c -0.5,0 -4.9914,-3.3795 -7.9214,-9.6995 -2.55,-5.48999 -3.1485,-11.01934 -3.1485,-15.20933 0,-3.89001 0.5502,-9.89862 3.2802,-15.53863 2.99,-6.12999 7.2897,-9.36081 7.7897,-9.36081 0.29,0 0.4798,0.13863 0.4798,0.49862 l 0,0.0219 0,0.0282 0,0.009 0,0.0219 -0.01,0.009 0,0.0188 -0.013,0.0125 0,0.0188 -0.01,0.0188 -0.01,0.022 -0.019,0.0188 -0.013,0.0314 -0.019,0.0188 -0.01,0.0314 -0.031,0.0282 -0.019,0.0314 -0.031,0.0282 -0.028,0.0408 -0.01,0.0188 -0.022,0.022 -0.01,0.0188 -0.019,0.0219 -0.022,0.0188 -0.019,0.0282 -0.022,0.0219 -0.028,0.0188 -0.019,0.0314 -0.022,0.0188 -0.028,0.0314 -0.022,0.0282 -0.028,0.0314 -0.031,0.0282 -0.019,0.0314 -0.031,0.0314 -0.041,0.0282 -0.028,0.0314 -0.031,0.0376 -0.028,0.0314 -0.041,0.0408 -0.041,0.0282 -0.028,0.0408 -0.041,0.0408 c -6.22,6.28 -7.8117,15.68949 -7.8117,23.3095 0,8.68 1.8824,17.34977 8.0124,23.56977 0.64,0.61 0.6397,0.69926 0.6397,0.85925 0,0.34001 -0.1898,0.47981 -0.4798,0.47981 z m 57.8802,0 c -0.5,0 -4.9998,-3.3795 -7.9998,-9.6995 -2.5,-5.48999 -3.1015,-11.01934 -3.1015,-15.20933 0,-3.89001 0.499,-9.89862 3.299,-15.53863 3,-6.12999 7.3023,-9.36081 7.8023,-9.36081 0.2,0 0.3982,0.13863 0.3982,0.49862 l 0,0.0219 0,0.0282 0,0.009 0,0.0219 0,0.009 0,0.0188 0,0.0125 0,0.0188 0,0.0188 0,0.022 0,0.0188 0,0.0314 0,0.0188 -0.1003,0.0314 0,0.0282 0,0.0314 0,0.0282 -0.1004,0.0408 0,0.0188 0,0.022 0,0.0188 0,0.0219 -0.1003,0.0188 0,0.0282 0,0.0219 0,0.0188 0,0.0314 -0.097,0.0188 0,0.0314 0,0.0282 0,0.0314 -0.1004,0.0282 0,0.0314 0,0.0314 -0.1003,0.0282 0,0.0314 0,0.0376 -0.1004,0.0314 0,0.0408 0,0.0282 -0.1003,0.0408 0,0.0408 c -6.2,6.28 -7.7991,15.68949 -7.7991,23.3095 0,8.68 1.8998,17.34977 7.9998,23.56977 0.6,0.61 0.5989,0.69926 0.5989,0.85925 0,0.34001 -0.1982,0.47981 -0.3982,0.47981 z m 23.899,0 c -0.2999,0 -0.5017,-0.1898 -0.5017,-0.47981 0,-0.15999 0,-0.25029 0.9,-1.1603 4.9,-4.91999 7.8022,-12.83873 7.8022,-23.26872 0,-8.51001 -1.9001,-17.28038 -8.1001,-23.56038 -0.6,-0.59001 -0.6021,-0.70045 -0.6021,-0.84044 0,-0.30001 0.2018,-0.49862 0.5017,-0.49862 0.5,0 4.9995,3.38831 7.8995,9.71831 2.5,5.45999 3.1014,11.00113 3.1014,15.18113 l 0,0.37003 0,0.38886 0,0.39199 0,0.40768 0,0.84044 -0.1003,0.88119 -0.1004,0.91883 -0.1003,0.9502 -0.1004,0.98156 -0.2007,1.00035 -0.2007,1.01919 -0.1975,1.02859 -0.3011,1.05995 -0.301,1.05055 -0.2979,1.06935 -0.4014,1.07249 -0.2007,0.52998 -0.298,0.52998 -0.2007,0.52996 -0.301,0.52998 c -2.9,6.13001 -7.1988,9.35768 -7.6988,9.35768 z m 19.2987,0 c -0.3,0 -0.4986,-0.1898 -0.4986,-0.47981 0,-0.15999 0,-0.25029 0.9,-1.1603 4.9,-4.91999 7.7991,-12.83873 7.7991,-23.26872 0,-8.51001 -1.9002,-17.28038 -8.1002,-23.56038 -0.6,-0.59001 -0.5989,-0.70045 -0.5989,-0.84044 0,-0.30001 0.1986,-0.49862 0.4986,-0.49862 0.5,0 5.0026,3.38831 7.9026,9.71831 2.5999,5.45999 3.0983,11.00113 3.0983,15.18113 l 0,0.37003 0,0.38886 0,0.39199 0,0.40768 0,0.84044 -0.1004,0.88119 -0.1003,0.91883 -0.1004,0.9502 -0.1003,0.98156 -0.1976,1.00035 -0.2007,1.01919 -0.2007,1.02859 -0.301,1.05995 -0.298,1.05055 -0.301,1.06935 -0.3983,1.07249 -0.2007,0.52998 -0.2007,0.52998 -0.301,0.52996 -0.1976,0.52998 c -3,6.13001 -7.3022,9.35768 -7.8022,9.35768 z m 137.1005,0 c -0.5,0 -4.9995,-3.3795 -7.8995,-9.6995 -2.6,-5.48999 -3.1987,-11.01934 -3.1987,-15.20933 0,-3.89001 0.5991,-9.89862 3.2991,-15.53863 3,-6.12999 7.2991,-9.36081 7.7991,-9.36081 0.3,0 0.5017,0.13863 0.5017,0.49862 l 0,0.0219 0,0.0282 0,0.009 0,0.0219 0,0.009 0,0.0188 0,0.0125 0,0.0188 -0.1003,0.0188 0,0.022 0,0.0188 0,0.0314 0,0.0188 0,0.0314 0,0.0282 -0.1004,0.0314 0,0.0282 0,0.0408 0,0.0188 -0.1003,0.022 0,0.0188 0,0.0219 0,0.0188 0,0.0282 -0.1004,0.0219 0,0.0188 0,0.0314 0,0.0188 -0.1003,0.0314 0,0.0282 0,0.0314 0,0.0282 -0.1004,0.0314 0,0.0314 0,0.0282 -0.1003,0.0314 0,0.0376 0,0.0314 -0.097,0.0408 0,0.0282 0,0.0408 -0.1004,0.0408 c -6.2,6.28 -7.8022,15.68949 -7.8022,23.3095 0,8.68 1.8998,17.34977 7.9998,23.56977 0.7,0.61 0.7024,0.69926 0.7024,0.85925 0,0.34001 -0.2017,0.47981 -0.5017,0.47981 z m 23.8018,0 c -0.3,0 -0.5017,-0.1898 -0.5017,-0.47981 0,-0.15999 3e-4,-0.25029 1.0003,-1.1603 4.8,-4.91999 7.6988,-12.83873 7.6988,-23.26872 0,-8.51001 -1.9002,-17.28038 -8.1002,-23.56038 -0.6,-0.59001 -0.5989,-0.70045 -0.5989,-0.84044 0,-0.30001 0.2017,-0.49862 0.5017,-0.49862 0.5,0 4.9995,3.38831 7.8995,9.71831 2.6,5.45999 3.1986,11.00113 3.1986,15.18113 l 0,0.37003 0,0.38886 -0.1003,0.39199 0,0.40768 0,0.84044 -0.1004,0.88119 -0.097,0.91883 -0.1003,0.9502 -0.1004,0.98156 -0.2007,1.00035 -0.2007,1.01919 -0.2007,1.02859 -0.2979,1.05995 -0.301,1.05055 -0.3011,1.06935 -0.3983,1.07249 -0.2007,0.52998 -0.2007,0.52998 -0.2979,0.52996 -0.2007,0.52998 c -3,6.13001 -7.2991,9.35768 -7.7991,9.35768 z m 164.7,0 c -0.5,0 -5.0026,-3.3795 -7.9026,-9.6995 -2.6,-5.48999 -3.1987,-11.01934 -3.1987,-15.20933 0,-3.89001 0.5991,-9.89862 3.2991,-15.53863 3,-6.12999 7.3022,-9.36081 7.8022,-9.36081 0.3,0 0.4986,0.13863 0.4986,0.49862 l 0,0.0219 0,0.0282 0,0.009 0,0.0219 0,0.009 0,0.0188 0,0.0125 0,0.0188 -0.1003,0.0188 0,0.022 0,0.0188 0,0.0314 0,0.0188 0,0.0314 0,0.0282 -0.1004,0.0314 0,0.0282 0,0.0408 0,0.0188 -0.1003,0.022 0,0.0188 0,0.0219 0,0.0188 0,0.0282 -0.1004,0.0219 0,0.0188 0,0.0314 0,0.0188 0,0.0314 -0.097,0.0282 0,0.0314 0,0.0282 -0.1004,0.0314 0,0.0314 0,0.0282 0,0.0314 -0.1003,0.0376 0,0.0314 0,0.0408 -0.1004,0.0282 0,0.0408 -0.1003,0.0408 c -6.2,6.28 -7.7991,15.68949 -7.7991,23.3095 0,8.68 1.8998,17.34977 7.9998,23.56977 0.7,0.61 0.6993,0.69926 0.6993,0.85925 0,0.34001 -0.1986,0.47981 -0.4986,0.47981 z m 23.7987,0 c -0.3,0 -0.4986,-0.1898 -0.4986,-0.47981 0,-0.15999 0,-0.25029 0.9,-1.1603 4.9,-4.91999 7.7991,-12.83873 7.7991,-23.26872 0,-8.51001 -1.9001,-17.28038 -8.1002,-23.56038 -0.5999,-0.59001 -0.5989,-0.70045 -0.5989,-0.84044 0,-0.30001 0.1986,-0.49862 0.4986,-0.49862 0.5,0 4.9995,3.38831 7.8995,9.71831 2.6,5.45999 3.2018,11.00113 3.2018,15.18113 l 0,0.37003 0,0.38886 -0.1004,0.39199 0,0.40768 0,0.84044 -0.1003,0.88119 -0.1004,0.91883 -0.1003,0.9502 -0.1004,0.98156 -0.2007,1.00035 -0.1976,1.01919 -0.2007,1.02859 -0.2007,1.05995 -0.4014,1.05055 -0.2979,1.06935 -0.4014,1.07249 -0.1975,0.52998 -0.2007,0.52998 -0.3011,0.52996 -0.2007,0.52998 c -3,6.13001 -7.2991,9.35768 -7.7991,9.35768 z m -288.6985,-1.69029 c -0.6,0 -0.8007,-0.28722 -1.1007,-0.99722 l -8.4451,-16.39159 -16.8557,0 c -0.7,0 -1.5994,-3.7e-4 -1.5994,-1.00038 0,-0.97999 0.8997,-0.97842 1.6997,-0.97842 l 15.7362,0 -3.9513,-7.67052 -11.7849,0 c -0.8,0 -1.6997,-3.7e-4 -1.6997,-1.00037 0,-1.00001 0.8994,-1.00036 1.5994,-1.00036 l 10.8535,0 -7.9528,-15.43828 c -0.4,-0.71 -0.4014,-0.80274 -0.4014,-0.96274 0,-0.39 0.4004,-0.99722 1.0004,-0.99722 0.6,0 0.8007,0.29723 1.1007,0.99722 l 8.4451,16.40102 16.8557,0 0.097,0 0.1004,0 0.2007,0 0.1003,0.009 0.1004,0.0125 0.1003,0.009 0,0.009 0.1004,0.009 0.1003,0.009 0,0.022 0.097,0.0188 0.1003,0.0188 0,0.022 0.1004,0.0282 0,0.0314 0.1003,0.0408 0,0.0376 0.1004,0.0408 0,0.0502 0,0.022 0.1003,0.0282 0,0.0188 0,0.0314 0,0.0314 0,0.0282 0,0.0314 0.1004,0.0376 0,0.0314 0,0.0314 0,0.0376 0,0.0408 0,0.0408 0,0.0408 0,0.0376 0,0.0408 0,0.0502 0,0.0502 c 0,1 -0.8997,1.00037 -1.6997,1.00037 l -15.7237,0 3.9482,7.67052 11.7755,0 0.1975,0 0.1004,0 0.2007,0 0,0.009 0.1003,0 0.1004,0.009 0,0.009 0.1003,0.009 0.1004,0.0125 0.1003,0.009 0,0.0188 0.097,0.022 0.1003,0.0188 0,0.0188 0.1004,0.0314 0,0.0314 0.1003,0.0376 0,0.0314 0.1004,0.0502 0,0.0408 0.1003,0.0471 0,0.0314 0,0.0314 0,0.0188 0,0.0314 0,0.0376 0.1004,0.0314 0,0.0282 0,0.0408 0,0.0314 0,0.0408 0,0.0376 0,0.0408 0,0.0408 0,0.0408 0,0.047 0,0.0408 c 0,1.00001 -0.8994,1.00038 -1.5994,1.00038 l -10.8566,0 7.9559,15.4508 0,0.0408 0,0.0282 0,0.0314 0.1003,0.0282 0,0.0219 0,0.0282 0,0.0314 0,0.0282 0,0.0219 0,0.0282 0.1004,0.022 0,0.0188 0,0.0314 0,0.0188 0,0.0188 0,0.022 0,0.0408 0.1003,0.0376 0,0.0314 0,0.0408 0,0.0282 0,0.0314 0,0.0188 0,0.0314 0,0.0188 0,0.0188 0.097,0.022 0,0.0188 0,0.022 0,0.0188 0,0.0188 0,0.0125 0,0.0188 0,0.009 0,0.0314 0,0.0188 0,0.0314 c 0,0.35999 -0.2972,0.99722 -0.9972,0.99722 z m 349.3979,0 c -0.6,0 -0.7007,-0.28722 -1.1007,-0.99722 l -8.4451,-16.39159 -16.8526,0 c -0.7,0 -1.6025,-3.7e-4 -1.6025,-1.00038 0,-0.97999 0.9029,-0.97842 1.7028,-0.97842 l 15.7331,0 -3.9513,-7.67052 -11.7818,0 c -0.7999,0 -1.7028,-3.7e-4 -1.7028,-1.00037 0,-1.00001 0.9025,-1.00036 1.6025,-1.00036 l 10.8504,0 -7.9528,-15.43828 c -0.4,-0.71 -0.3982,-0.80274 -0.3982,-0.96274 0,-0.39 0.4003,-0.99722 1.0003,-0.99722 0.6,0 0.8007,0.29723 1.1007,0.99722 l 8.4451,16.40102 16.8526,0 0.1004,0 0.1003,0 0.2007,0 0.1004,0.009 0.1003,0.0125 0.097,0.009 0,0.009 0.1003,0.009 0.1004,0.009 0,0.022 0.1003,0.0188 0.1004,0.0188 0,0.022 0.1003,0.0282 0,0.0314 0.1004,0.0408 0,0.0376 0.1003,0.0408 0,0.0502 0,0.022 0.1004,0.0282 0,0.0188 0,0.0314 0,0.0314 0,0.0282 0.097,0.0314 0,0.0376 0,0.0314 0,0.0314 0,0.0376 0,0.0408 0,0.0408 0,0.0408 0,0.0376 0,0.0408 0,0.0502 0,0.0502 c 0,1 -0.8997,1.00037 -1.6997,1.00037 l -15.7205,0 3.9481,7.67052 11.7724,0 0.2007,0 0.1003,0 0.2007,0 0,0.009 0.1004,0 0.1003,0.009 0.097,0.009 0,0.009 0.1003,0.0125 0.1004,0.009 0,0.0188 0.1003,0.022 0.1004,0.0188 0,0.0188 0.1003,0.0314 0,0.0314 0.1004,0.0376 0,0.0314 0.1003,0.0502 0,0.0408 0.1004,0.0471 0,0.0314 0,0.0314 0,0.0188 0,0.0314 0.097,0.0376 0,0.0314 0,0.0282 0,0.0408 0,0.0314 0,0.0408 0,0.0376 0,0.0408 0,0.0408 0,0.0408 0,0.047 0,0.0408 c 0,1.00001 -0.8994,1.00038 -1.5994,1.00038 l -10.8535,0 7.9559,15.4508 0,0.0408 0,0.0282 0,0.0314 0.097,0.0282 0,0.0219 0,0.0282 0,0.0314 0,0.0282 0,0.0219 0,0.0282 0.1004,0.022 0,0.0188 0,0.0314 0,0.0188 0,0.0188 0,0.022 0,0.0408 0.1003,0.0376 0,0.0314 0,0.0408 0,0.0282 0,0.0314 0,0.0188 0,0.0314 0,0.0188 0,0.0188 0.1004,0.022 0,0.0188 0,0.022 0,0.0188 0,0.0188 0,0.0125 0,0.0188 0,0.009 0,0.0314 0,0.0188 0,0.0314 c 0,0.35999 -0.3004,0.99722 -1.0004,0.99722 z m -185.899,-1.08816 -7.2001,-0.5488 0,-1.5523 c 3.5,0 3.9011,-0.33785 3.9011,-2.78784 l 0,-10.75004 c -1.4,1.78 -3.6001,3.0795 -6.3001,3.0795 -5.8,0 -11.1013,-4.88196 -11.1013,-11.30195 0,-6.33001 4.8995,-11.26747 10.5995,-11.26747 3.2,0 5.4016,1.68708 6.7015,3.27708 l 0,-3.27708 7.3005,0.5488 0,1.54915 c -3.5,0 -3.9011,0.34159 -3.9011,2.7816 l 0,30.24935 z m -251.7006,-1.64011 c -1.4,0 -2.7,-1.30046 -2.7,-2.64047 0,-0.95999 0.7004,-1.80003 1.9004,-1.80003 1.1,0 2.5997,1.14046 2.5997,2.64047 l 0,0.0909 0,0.0878 0,0.10035 0,0.0815 0,0.0878 0,0.0909 -0.1004,0.0815 0,0.0784 0,0.0815 -0.1003,0.0784 0,0.0815 0,0.069 -0.1004,0.069 0,0.0721 -0.1003,0.0596 -0.097,0.0596 0,0.0596 -0.1004,0.0596 0,0.0502 -0.1003,0.0502 -0.1004,0.0502 -0.1003,0.0408 0,0.0408 -0.1004,0.0376 -0.1003,0.0314 -0.1004,0.0282 -0.1003,0.022 -0.097,0.0188 -0.1003,0.022 -0.1004,0.009 -0.1003,0 -0.1004,0.009 z m 180.201,0 c -1.3,0 -2.7,-1.30046 -2.7,-2.64047 0,-0.95999 0.7003,-1.80003 1.9003,-1.80003 1.2001,0 2.7001,1.14046 2.7001,2.64047 l 0,0.0909 0,0.0878 -0.1004,0.10035 0,0.0815 0,0.0878 0,0.0909 0,0.0815 -0.1003,0.0784 0,0.0815 0,0.0784 -0.1004,0.0815 0,0.069 -0.1003,0.069 0,0.0721 -0.1004,0.0596 0,0.0596 -0.1003,0.0596 -0.1004,0.0596 0,0.0502 -0.097,0.0502 -0.1003,0.0502 0,0.0408 -0.1004,0.0408 -0.1003,0.0376 -0.1004,0.0314 -0.1003,0.0282 -0.1004,0.022 -0.1003,0.0188 -0.1004,0.022 -0.097,0.009 -0.1003,0 -0.1004,0.009 z m 188.4987,0 c -1.3,0 -2.7001,-1.30046 -2.7001,-2.64047 0,-0.95999 0.7004,-1.80003 1.9004,-1.80003 1.2,0 2.7001,1.14046 2.7001,2.64047 l 0,0.0909 0,0.0878 0,0.10035 -0.1004,0.0815 0,0.0878 0,0.0909 0,0.0815 -0.1003,0.0784 0,0.0815 0,0.0784 -0.1004,0.0815 0,0.069 -0.1003,0.069 0,0.0721 -0.097,0.0596 0,0.0596 -0.1004,0.0596 0,0.0596 -0.1003,0.0502 -0.1004,0.0502 -0.1003,0.0502 0,0.0408 -0.1004,0.0408 -0.1003,0.0376 -0.1004,0.0314 -0.1003,0.0282 -0.097,0.022 -0.1003,0.0188 -0.1004,0.022 -0.1003,0.009 -0.1004,0 -0.1003,0.009 z m 103.0002,0 c -1.4,0 -2.7,-1.30046 -2.7,-2.64047 0,-0.95999 0.7003,-1.80003 1.9003,-1.80003 1.1,0 2.5997,1.14046 2.5997,2.64047 l 0,0.0909 0,0.0878 0,0.10035 0,0.0815 0,0.0878 -0.1003,0.0909 0,0.0815 0,0.0784 0,0.0815 -0.1004,0.0784 0,0.0815 -0.1003,0.069 0,0.069 -0.097,0.0721 0,0.0596 -0.1004,0.0596 0,0.0596 -0.1003,0.0596 -0.1004,0.0502 0,0.0502 -0.1003,0.0502 -0.1004,0.0408 -0.1003,0.0408 -0.1004,0.0376 0,0.0314 -0.1003,0.0282 -0.097,0.022 -0.1004,0.0188 -0.1003,0.022 -0.1004,0.009 -0.1003,0 -0.1004,0.009 z M 1533.0964,198.6181 c -4.1,0 -7.5012,-2.32962 -7.5012,-5.61962 0,-1.49 0.9987,-2.34882 2.2987,-2.34882 1.4,0 2.3018,0.99865 2.3018,2.29865 0,0.58999 -0.2997,2.24179 -2.5997,2.30178 1.4,1.73 3.8001,2.27984 5.4001,2.27984 2.5,0 5.2997,-1.94166 5.2997,-6.38165 l 0,-1.84081 c -2.5,-0.14 -6.0008,-0.30003 -9.2008,-1.80003 -3.7,-1.68001 -4.9015,-4.27947 -4.9015,-6.46947 0,-4.03 4.8026,-5.2778 7.9026,-5.2778 3.3,0 5.598,1.98761 6.598,4.32761 l 0,-0.18815 0,-0.18188 0,-0.18816 0.1003,-0.18188 0,-0.18816 0.1004,-0.18189 0,-0.17875 0.1003,-0.17875 0.1004,-0.18188 0.1003,-0.16935 0.1004,-0.16934 0.1003,-0.16933 0.097,-0.15993 0.1003,-0.16308 0.1004,-0.14738 0.1003,-0.15053 0.1004,-0.14111 0.2007,-0.13799 0.1003,-0.13171 0.097,-0.11917 0.2007,-0.10976 0.1004,-0.10975 0.2007,-0.10035 0.2007,-0.091 0.1975,-0.0784 0.1004,-0.0721 0.2007,-0.0596 0.2007,-0.0502 0.2007,-0.0408 0.1976,-0.0282 0.2007,-0.022 0.2007,-0.009 c 1.1,0 4.0987,0.71155 4.0987,4.74154 l 0,2.77846 -1.198,0 0,-2.77846 c 0,-2.88999 -1.3,-3.18924 -1.8,-3.18924 -1.7,0 -1.9004,2.22739 -1.9004,2.4774 l 0,9.9723 c 0,2.1 0,4.02991 -1.8,5.8799 -1.9,1.94001 -4.3988,2.72828 -6.7988,2.72828 z m -272.4009,-0.28851 c -4.7,0 -6.6012,-7.21993 -6.6012,-7.67993 0,-0.5 0.5021,-0.50175 0.6021,-0.50175 0.5,0 0.5997,0.10942 0.7996,0.90943 1.4001,4.68999 3.3991,6.17154 5.0991,6.17154 0.3,0 1.2011,7e-5 1.2011,-1.58993 0,-1.05 -0.4018,-2.0997 -0.5018,-2.5997 -0.4,-1.28999 -2.6997,-7.06028 -3.4997,-9.21028 -0.5,-1.29 -1.1007,-2.93892 -1.1007,-3.98892 0,-2.33001 1.7018,-4.07988 4.1018,-4.07988 4.6,0 6.4977,7.21994 6.4977,7.67995 0,0.49999 -0.499,0.49861 -0.599,0.49861 -0.5,0 -0.4996,-0.15943 -0.7996,-0.90942 -0.9,-3.13 -2.4987,-6.17154 -4.9987,-6.17154 -0.9,0 -1.2011,0.50009 -1.2011,1.64009 0,1.24999 0.2986,1.94988 1.3986,4.97988 l 1.9004,5.24017 0.1004,0.13172 0.1003,0.11917 0,0.11915 0,0.10976 0.1004,0.10035 0,0.10035 0.1003,0.10035 0,0.0815 0,0.0878 0.1004,0.0815 0,0.0784 0,0.0815 0.1003,0.069 0,0.069 0,0.15052 0.1004,0.14112 0,0.14111 0.097,0.069 0,0.0784 0,0.0815 0,0.0784 0.1003,0.0815 0,0.0909 0,0.0972 0.1004,0.10035 0,0.10035 0.1003,0.10976 0,0.10976 0,0.1317 c 0.4,0.99999 0.6993,1.68046 0.6993,2.64047 0,2.22999 -1.5986,4.07986 -4.0986,4.07986 z m 180.2009,0 c -4.6,0 -6.6011,-7.21993 -6.6011,-7.67993 0,-0.5 0.5993,-0.50175 0.6993,-0.50175 0.5,0 0.4996,0.10942 0.7996,0.90943 1.3,4.68999 3.3019,6.17154 5.0019,6.17154 0.4,0 1.1979,7e-5 1.1979,-1.58993 0,-1.05 -0.2986,-2.0997 -0.4986,-2.5997 -0.4,-1.28999 -2.6997,-7.06028 -3.4997,-9.21028 -0.5,-1.29 -1.1007,-2.93892 -1.1007,-3.98892 0,-2.33001 1.6986,-4.07988 4.0986,-4.07988 4.7,0 6.5009,7.21994 6.5009,7.67995 0,0.49999 -0.399,0.49861 -0.599,0.49861 -0.5,0 -0.4993,-0.15943 -0.6993,-0.90942 -0.9,-3.13 -2.6022,-6.17154 -5.1022,-6.17154 -0.9,0 -1.1979,0.50009 -1.1979,1.64009 0,1.24999 0.2986,1.94988 1.3986,4.97988 l 2.0007,5.24017 0,0.13172 0.1004,0.11917 0,0.11915 0.1003,0.10976 0,0.10035 0,0.10035 0.1004,0.10035 0,0.0815 0.097,0.0878 0,0.0815 0,0.0784 0,0.0815 0.1003,0.069 0,0.069 0,0.15052 0.1004,0.14112 0.1003,0.14111 0,0.069 0,0.0784 0,0.0815 0.1004,0.0784 0,0.0815 0,0.0909 0.1003,0.0972 0,0.10035 0,0.10035 0.1004,0.10976 0,0.10976 0.1003,0.1317 c 0.4,0.99999 0.599,1.68046 0.599,2.64047 0,2.22999 -1.5987,4.07986 -4.0987,4.07986 z m 188.4987,0 c -4.6,0 -6.5008,-7.21993 -6.5008,-7.67993 0,-0.5 0.4021,-0.50175 0.6021,-0.50175 0.5,0 0.4997,0.10942 0.7997,0.90943 1.3,4.68999 3.2987,6.17154 4.9987,6.17154 0.4,0 1.201,7e-5 1.201,-1.58993 0,-1.05 -0.3017,-2.0997 -0.5017,-2.5997 -0.4,-1.28999 -2.6997,-7.06028 -3.4997,-9.21028 -0.5,-1.29 -1.1008,-2.93892 -1.1008,-3.98892 0,-2.33001 1.7019,-4.07988 4.1019,-4.07988 4.7,0 6.5008,7.21994 6.5008,7.67995 0,0.49999 -0.4021,0.49861 -0.6021,0.49861 -0.5,0 -0.4993,-0.15943 -0.6993,-0.90942 -0.9,-3.13 -2.5991,-6.17154 -5.0991,-6.17154 -0.9,0 -1.2011,0.50009 -1.2011,1.64009 0,1.24999 0.3018,1.94988 1.4018,4.97988 l 1.9976,5.24017 0,0.13172 0.1004,0.11917 0,0.11915 0.1003,0.10976 0,0.10035 0.1004,0.10035 0,0.10035 0,0.0815 0.1003,0.0878 0,0.0815 0,0.0784 0,0.0815 0.1004,0.069 0,0.069 0.1003,0.15052 0,0.14112 0.097,0.14111 0,0.069 0,0.0784 0,0.0815 0.1004,0.0784 0,0.0815 0,0.0909 0.1003,0.0972 0,0.10035 0,0.10035 0.1004,0.10976 0,0.10976 0.1003,0.1317 c 0.4,0.99999 0.599,1.68046 0.599,2.64047 0,2.22999 -1.5987,4.07986 -4.0987,4.07986 z m 103.0002,0 c -4.7,0 -6.6011,-7.21993 -6.6011,-7.67993 0,-0.5 0.5021,-0.50175 0.6021,-0.50175 0.5,0 0.5996,0.10942 0.7996,0.90943 1.3,4.68999 3.2987,6.17154 4.9987,6.17154 0.4,0 1.3014,7e-5 1.3014,-1.58993 0,-1.05 -0.4021,-2.0997 -0.6021,-2.5997 -0.4,-1.28999 -2.5993,-7.06028 -3.3993,-9.21028 -0.5,-1.29 -1.2011,-2.93892 -1.2011,-3.98892 0,-2.33001 1.7018,-4.07988 4.1018,-4.07988 4.7,0 6.6012,7.21994 6.6012,7.67995 0,0.49999 -0.5021,0.49861 -0.6021,0.49861 -0.5,0 -0.4997,-0.15943 -0.7997,-0.90942 -0.9,-3.13 -2.499,-6.17154 -5.099,-6.17154 -0.8,0 -1.2011,0.50009 -1.2011,1.64009 0,1.24999 0.299,1.94988 1.499,4.97988 l 1.9004,5.24017 0.1003,0.13172 0,0.11917 0.1004,0.11915 0,0.10976 0.1003,0.10035 0,0.10035 0,0.10035 0.1004,0.0815 0,0.0878 0,0.0815 0.1003,0.0784 0,0.0815 0,0.069 0,0.069 0.1004,0.15052 0,0.14112 0.1003,0.14111 0,0.069 0.097,0.0784 0,0.0815 0,0.0784 0,0.0815 0.1004,0.0909 0,0.0972 0,0.10035 0.1003,0.10035 0,0.10976 0.1004,0.10976 0,0.1317 c 0.4,0.99999 0.6993,1.68046 0.6993,2.64047 0,2.22999 -1.5987,4.07986 -4.0987,4.07986 z m -580.5517,-0.55193 c -7.53,0 -13.0581,-8.21997 -13.0581,-14.13999 0,-4.38999 2.9398,-7.8775 7.4698,-7.8775 5.89,0 12.5187,6.02724 12.5187,13.70723 0,0.84001 9e-4,3.23205 -1.5491,5.42207 l 5.4816,0 0.069,0 0.069,0 0.069,0 0.082,0 0.091,0 0.088,0.009 0.091,0.009 0.091,0 0.1004,0.022 0.1003,0.009 0.097,0.0188 0.1129,0.0188 0.097,0.022 0.1003,0.0282 0.1004,0.0314 0.1003,0.0408 0.1004,0.0408 0.1003,0.047 0.091,0.0502 0.088,0.0627 0.082,0.069 0.078,0.069 0.041,0.0408 0.041,0.0408 0.041,0.0376 0.028,0.0502 0.031,0.0408 0.028,0.0502 0.031,0.0502 0.028,0.0502 0.031,0.0596 0.019,0.0502 0.022,0.0596 0.019,0.0596 0.019,0.0596 0.022,0.0721 0.01,0.0596 0.01,0.069 0.01,0.0721 0.013,0.0784 0,0.069 0,0.0815 c 0,1.19 -1.0511,1.18852 -1.9411,1.18852 l -11.3616,0 z m 57.8519,0 c -7.6,0 -13.08,-8.21997 -13.08,-14.13999 0,-4.38999 2.9792,-7.8775 7.4792,-7.8775 5.9,0 12.4999,6.02724 12.4999,13.70723 0,0.84001 0,3.23205 -1.499,5.42207 l 5.5005,0 0.1003,0 0.097,0 0.1003,0 0.1004,0.009 0.1003,0.009 0.1004,0 0.1003,0.022 0.1004,0.009 0.1003,0.0188 0.1004,0.0188 0.097,0.022 0.1003,0.0282 0.1004,0.0314 0.1003,0.0408 0.1004,0.0408 0.1003,0.047 0.1004,0.0502 0.1003,0.0627 0.1004,0.069 0,0.069 0.097,0.0408 0,0.0408 0.1003,0.0376 0,0.0502 0,0.0408 0.1004,0.0502 0,0.0502 0,0.0502 0,0.0596 0.1003,0.0502 0,0.0596 0,0.0596 0,0.0596 0,0.0721 0,0.0596 0.1004,0.069 0,0.0721 0,0.0784 0,0.069 0,0.0815 c 0,1.19 -1.1004,1.18852 -1.9004,1.18852 l -11.3992,0 z m 180.201,0 c -7.5,0 -13.0016,-8.21997 -13.0016,-14.13999 0,-4.38999 2.9008,-7.8775 7.4008,-7.8775 5.9,0 12.4999,6.02724 12.4999,13.70723 0,0.84001 0,3.23205 -1.5021,5.42207 l 5.5004,0 0.1004,0 0.1003,0 0.1004,0 0.1003,0.009 0.1004,0.009 0.1003,0 0.1004,0.022 0.097,0.009 0.1003,0.0188 0.1004,0.0188 0.1003,0.022 0.1004,0.0282 0.1003,0.0314 0.1004,0.0408 0.1003,0.0408 0.1004,0.047 0.097,0.0502 0.1004,0.0627 0.1003,0.069 0.1004,0.069 0,0.0408 0,0.0408 0.1003,0.0376 0,0.0502 0.1004,0.0408 0,0.0502 0,0.0502 0,0.0502 0.1003,0.0596 0,0.0502 0,0.0596 0,0.0596 0,0.0596 0.1004,0.0721 0,0.0596 0,0.069 0,0.0721 0,0.0784 0,0.069 0,0.0815 c 0,1.19 -1.0004,1.18852 -1.9004,1.18852 l -11.3992,0 z m 188.5991,0 c -7.5001,0 -13.0017,-8.21997 -13.0017,-14.13999 0,-4.38999 2.9008,-7.8775 7.4008,-7.8775 5.9,0 12.4999,6.02724 12.4999,13.70723 0,0.84001 0,3.23205 -1.4989,5.42207 l 5.5004,0 0.1004,0 0.097,0 0.1003,0 0.1004,0 0.1003,0.009 0,0.009 0.1004,0 0.1003,0.022 0.1004,0.009 0.1003,0.0188 0.1004,0.0188 0.097,0.022 0.1003,0.0282 0.1004,0.0314 0.2007,0.0408 0,0.0408 0.1003,0.047 0.1004,0.0502 0.1003,0.0627 0.1004,0.069 0.097,0.069 0,0.0408 0.1004,0.0408 0,0.0376 0,0.0502 0.1003,0.0408 0,0.0502 0,0.0502 0.1004,0.0502 0,0.0596 0,0.0502 0,0.0596 0.1003,0.0596 0,0.0596 0,0.0721 0,0.0596 0,0.069 0,0.0721 0,0.0784 0,0.069 0,0.0815 c 0,1.19 -1.0004,1.18852 -1.9004,1.18852 l -11.3991,0 z m -71.2018,-0.54878 c 1.8001,0 3.9002,-0.74916 5.4001,-2.97915 0.6,-0.85001 0.6021,-0.96022 0.6021,-1.85022 l 0,-10.21064 c 0,-0.9 0,-1.00021 -0.6021,-1.8502 -1.4999,-2.39001 -3.6987,-3.4809 -5.8987,-3.4809 -2.2,0 -3.9994,1.28984 -5.1994,3.17985 -1.3,2.04999 -1.4017,4.90043 -1.4017,6.93043 0,1.84001 0.1021,4.84156 1.5021,7.07157 1.1,1.55 2.9977,3.18926 5.5976,3.18926 z m -356.3001,-2.33941 c 4.18,0 4.5911,-3.27937 4.5911,-4.82937 0,-2.34 -1.0007,-6.42194 -2.6907,-8.97195 -1.95,-2.93999 -4.6392,-4.23038 -6.5792,-4.23038 -2.45,0 -4.4405,1.79187 -4.4405,5.37187 0,1.5 0.602,5.59977 2.352,8.52978 2.09,3.43999 5.0773,4.13005 6.7673,4.13005 z m 57.8018,0 c 4.2,0 4.6005,-3.27937 4.6005,-4.82937 0,-2.34 -1.0001,-6.42194 -2.7001,-8.97195 -1.9,-2.93999 -4.6012,-4.23038 -6.6012,-4.23038 -2.4,0 -4.3997,1.79187 -4.3997,5.37187 0,1.5 0.599,5.59977 2.399,8.52978 2,3.43999 5.0015,4.13005 6.7015,4.13005 z m 180.201,0 c 4.2,0 4.5973,-3.27937 4.5973,-4.82937 0,-2.34 -0.9997,-6.42194 -2.5997,-8.97195 -2,-2.93999 -4.698,-4.23038 -6.5981,-4.23038 -2.4999,0 -4.5,1.79187 -4.5,5.37187 0,1.5 0.599,5.59977 2.399,8.52978 2.1,3.43999 5.1015,4.13005 6.7015,4.13005 z m 188.6994,0 c 4.2,0 4.6004,-3.27937 4.6004,-4.82937 0,-2.34 -1,-6.42194 -2.7,-8.97195 -2,-2.93999 -4.7012,-4.23038 -6.6012,-4.23038 -2.5,0 -4.3997,1.79187 -4.3997,5.37187 0,1.5 0.5986,5.59977 2.2986,8.52978 2.1,3.43999 5.1019,4.13005 6.8019,4.13005 z m -39.4001,-6.6294 0,-4.97988 c 0,-4.74001 -3.6015,-6.42242 -5.8015,-6.42242 -2.5,0 -4.5001,1.75038 -4.5001,4.23038 0,2.74 2.1016,6.88191 10.3016,7.17192 z"
           id="path8214"
           inkscape:connector-curvature="0" /><path
           style="fill:none;fill-rule:evenodd;stroke:#000000;stroke-width:3.85345268;stroke-linecap:butt;stroke-linejoin:miter;stroke-miterlimit:10.43299961;stroke-dasharray:none;stroke-opacity:1;marker-end:url(#marker6099)"
           d="m 1438.891,228.73977 0,69.74196"
           id="path8355"
           inkscape:connector-curvature="0" /></g>    </g>
  </g>
</svg>
